sim/icarus/tb_fog_core_ni7966r_ni5781_lv_adapter.vcd
$date
	Mon May 18 19:27:21 2026
$end
$version
	Icarus Verilog
$end
$timescale
	1ps
$end
$scope module tb_fog_core_ni7966r_ni5781_lv_adapter $end
$var wire 12 ! adin_dbg [11:0] $end
$var wire 16 " ao0_raw [15:0] $end
$var wire 16 # ao1_raw [15:0] $end
$var wire 16 $ sp_sn_value [15:0] $end
$var wire 2 % state_dbg [1:0] $end
$var wire 1 & status_ready $end
$var reg 16 ' ai0_raw [15:0] $end
$var reg 2 ( ai_map_mode [1:0] $end
$var integer 32 ) ao0_change_count [31:0] $end
$var reg 16 * ao0_prev [15:0] $end
$var integer 32 + ao1_change_count [31:0] $end
$var reg 16 , ao1_prev [15:0] $end
$var reg 8 - cfg_FBK [7:0] $end
$var reg 8 . cfg_FBK2 [7:0] $end
$var reg 10 / cfg_N [9:0] $end
$var reg 16 0 cfg_V2Pai_mV [15:0] $end
$var reg 1 1 cfg_apply $end
$var reg 1 2 clk $end
$var integer 32 3 cycles_after_ready [31:0] $end
$var integer 32 4 errors [31:0] $end
$var reg 1 5 rst_n $end
$var integer 32 6 state_seen_mask [31:0] $end
$scope module dut $end
$var wire 1 7 adclk_unused $end
$var wire 12 8 adin_dbg [11:0] $end
$var wire 12 9 adin_mapped [11:0] $end
$var wire 16 : ai0_raw [15:0] $end
$var wire 2 ; ai_map_mode [1:0] $end
$var wire 16 < ao0_raw [15:0] $end
$var wire 16 = ao1_raw [15:0] $end
$var wire 8 > cfg_FBK [7:0] $end
$var wire 8 ? cfg_FBK2 [7:0] $end
$var wire 10 @ cfg_N [9:0] $end
$var wire 16 A cfg_V2Pai_mV [15:0] $end
$var wire 1 B cfg_apply $end
$var wire 10 C cfg_n_safe [9:0] $end
$var wire 16 D cfg_v2pai_limited [15:0] $end
$var wire 14 E cfg_vdaref_code [13:0] $end
$var wire 32 F cfg_vdaref_scaled [31:0] $end
$var wire 1 G clk $end
$var wire 10 H counterN_dbg_unused [9:0] $end
$var wire 9 I counter_dbg_unused [8:0] $end
$var wire 1 J daclk_unused $end
$var wire 16 K daout_unscaled [15:0] $end
$var wire 32 L drotate_dbg_unused [31:0] $end
$var wire 32 M dvref_dbg_unused [31:0] $end
$var wire 32 N intsout_dbg_unused [31:0] $end
$var wire 1 O rst_n $end
$var wire 1 P sdaclk_unused $end
$var wire 1 Q sdacs_unused $end
$var wire 1 R sdaout_unused $end
$var wire 1 S sn_unused $end
$var wire 16 T sp_sn_value [15:0] $end
$var wire 1 U sp_unused $end
$var wire 2 V state_dbg [1:0] $end
$var wire 1 & status_ready $end
$var wire 12 W tau_dbg_unused [11:0] $end
$var wire 16 X vref_word [15:0] $end
$var reg 16 Y ao0_raw_r [15:0] $end
$var reg 1 Z scale_busy $end
$var reg 16 [ scale_mod_latch [15:0] $end
$var reg 6 \ scale_phase [5:0] $end
$var reg 32 ] scale_product1 [31:0] $end
$var reg 49 ^ scale_product2 [48:0] $end
$var reg 16 _ scale_vref_latch [15:0] $end
$scope module u_ai_map $end
$var wire 16 ` ai_raw [15:0] $end
$var wire 2 a map_mode [1:0] $end
$var reg 12 b adin [11:0] $end
$var reg 16 c mapped_tmp [15:0] $end
$upscope $end
$scope module u_core $end
$var wire 8 d FBK [7:0] $end
$var wire 8 e FBK2 [7:0] $end
$var wire 10 f N [9:0] $end
$var wire 14 g VDARef [13:0] $end
$var wire 1 7 adclk $end
$var wire 12 h adin [11:0] $end
$var wire 8 i cfg_FBK [7:0] $end
$var wire 8 j cfg_FBK2 [7:0] $end
$var wire 10 k cfg_N [9:0] $end
$var wire 14 l cfg_VDARef [13:0] $end
$var wire 1 B cfg_apply $end
$var wire 1 G clk $end
$var wire 32 m closed_loop_drive [31:0] $end
$var wire 9 n counter [8:0] $end
$var wire 10 o counterN [9:0] $end
$var wire 10 p counterN_dbg [9:0] $end
$var wire 9 q counter_dbg [8:0] $end
$var wire 32 r dRotateOut [31:0] $end
$var wire 32 s dRotateOutFBK [31:0] $end
$var wire 32 t dVrefOut [31:0] $end
$var wire 32 u dVrefOutFBK [31:0] $end
$var wire 1 J daclk $end
$var wire 16 v daout [15:0] $end
$var wire 32 w drotate_dbg [31:0] $end
$var wire 32 x dvref_dbg [31:0] $end
$var wire 1 y ena $end
$var wire 32 z first_loop_drive [31:0] $end
$var wire 1 { intena $end
$var wire 1 | intena0 $end
$var wire 32 } intsout [31:0] $end
$var wire 32 ~ intsout_dbg [31:0] $end
$var wire 1 !" ladena1 $end
$var wire 1 "" ladena2 $end
$var wire 16 #" pintout [15:0] $end
$var wire 1 $" random $end
$var wire 1 & ready $end
$var wire 1 O rst_n $end
$var wire 1 %" sdaSend $end
$var wire 1 P sdaclk $end
$var wire 1 Q sdacs $end
$var wire 1 R sdaout $end
$var wire 32 &" second_loop_drive [31:0] $end
$var wire 1 S sn $end
$var wire 1 U sp $end
$var wire 16 '" sp_sn_value [15:0] $end
$var wire 2 (" state [1:0] $end
$var wire 2 )" state_dbg [1:0] $end
$var wire 1 *" sys_rst $end
$var wire 12 +" tauCounter [11:0] $end
$var wire 12 ," tau_dbg [11:0] $end
$var wire 1 -" updown $end
$var wire 16 ." vref_word [15:0] $end
$var reg 8 /" cfg_fbk2_reg [7:0] $end
$var reg 8 0" cfg_fbk_reg [7:0] $end
$var reg 10 1" cfg_n_reg [9:0] $end
$var reg 2 2" cfg_reset_hold [1:0] $end
$var reg 14 3" cfg_vdaref_reg [13:0] $end
$scope module asrst_core $end
$var wire 1 G clk $end
$var wire 1 4" rst_n $end
$var reg 1 5" rst_nr1 $end
$var reg 1 6" rst_nr2 $end
$upscope $end
$scope module gclk $end
$var wire 10 7" N [9:0] $end
$var wire 1 7 adclk $end
$var wire 1 G clk $end
$var wire 1 y ena $end
$var wire 1 *" rst $end
$var reg 9 8" counter [8:0] $end
$var reg 10 9" counterN [9:0] $end
$var reg 1 :" daclk $end
$var reg 1 ;" daclk1 $end
$var reg 1 <" daclk2 $end
$var reg 1 =" intena $end
$var reg 1 >" intena0 $end
$var reg 1 ?" ladena1 $end
$var reg 1 @" ladena2 $end
$var reg 2 A" state [1:0] $end
$upscope $end
$scope module dmt $end
$var wire 10 B" N [9:0] $end
$var wire 12 C" adin [11:0] $end
$var wire 8 D" cfg_delay1 [7:0] $end
$var wire 8 E" cfg_delay2 [7:0] $end
$var wire 8 F" cfg_delayAD [7:0] $end
$var wire 8 G" cfg_reserveN [7:0] $end
$var wire 12 H" cfg_sft_pd [11:0] $end
$var wire 1 G clk $end
$var wire 9 I" counter [8:0] $end
$var wire 10 J" counterN [9:0] $end
$var wire 10 K" delay1w [9:0] $end
$var wire 10 L" delay2w [9:0] $end
$var wire 10 M" delayADw [9:0] $end
$var wire 10 N" delaySum [9:0] $end
$var wire 1 y ena $end
$var wire 10 O" halfN [9:0] $end
$var wire 10 P" reserveNw [9:0] $end
$var wire 1 *" rst $end
$var wire 2 Q" state [1:0] $end
$var wire 12 R" tauCounter [11:0] $end
$var wire 1 -" updown $end
$var reg 32 S" dRotateOut [31:0] $end
$var reg 32 T" dVrefOut [31:0] $end
$var reg 1 U" random $end
$var reg 1 V" randomPre $end
$upscope $end
$scope module dmk $end
$var wire 8 W" FBK [7:0] $end
$var wire 1 G clk $end
$var wire 24 X" dRotateOut24 [23:0] $end
$var wire 32 Y" dRotateOutFBK [31:0] $end
$var wire 1 | intena0 $end
$var wire 33 Z" mult_FBK [32:0] $end
$var wire 1 *" rst $end
$var reg 33 [" mult_FBK_R [32:0] $end
$upscope $end
$scope module dmk2 $end
$var wire 8 \" FBK [7:0] $end
$var wire 1 G clk $end
$var wire 24 ]" dRotateOut24 [23:0] $end
$var wire 32 ^" dRotateOutFBK [31:0] $end
$var wire 1 | intena0 $end
$var wire 33 _" mult_FBK [32:0] $end
$var wire 1 *" rst $end
$var reg 33 `" mult_FBK_R [32:0] $end
$upscope $end
$scope module itg $end
$var wire 1 G clk $end
$var wire 32 a" dRotateOut [31:0] $end
$var wire 1 { intena $end
$var wire 1 *" rst $end
$var wire 32 b" sum [31:0] $end
$var reg 32 c" intsout [31:0] $end
$upscope $end
$scope module ldp $end
$var wire 16 d" cfg_PI [15:0] $end
$var wire 16 e" cfg_PIb [15:0] $end
$var wire 16 f" cfg_PIbpPI [15:0] $end
$var wire 12 g" cfg_sft_pd [11:0] $end
$var wire 1 G clk $end
$var wire 1 !" ladena1 $end
$var wire 1 "" ladena2 $end
$var wire 32 h" ladin [31:0] $end
$var wire 1 $" random $end
$var wire 1 *" rst $end
$var wire 2 i" state [1:0] $end
$var reg 16 j" ladout [15:0] $end
$var reg 32 k" ladreg [31:0] $end
$var reg 32 l" ladtmp [31:0] $end
$var reg 12 m" tauCounter [11:0] $end
$var reg 1 n" updown $end
$upscope $end
$scope module pint $end
$var wire 10 o" N [9:0] $end
$var wire 14 p" VDARef [13:0] $end
$var wire 1 G clk $end
$var wire 9 q" counter [8:0] $end
$var wire 32 r" dVrefOut [31:0] $end
$var wire 1 y ena $end
$var wire 16 s" pintout [15:0] $end
$var wire 1 *" rst $end
$var wire 2 t" state [1:0] $end
$var reg 16 u" pintoutpre [15:0] $end
$var reg 40 v" pintreg [39:0] $end
$var reg 1 w" sdaSend $end
$upscope $end
$scope module sdo $end
$var wire 10 x" N [9:0] $end
$var wire 1 G clk $end
$var wire 10 y" counterN [9:0] $end
$var wire 16 z" pintout [15:0] $end
$var wire 1 *" rst $end
$var wire 1 %" sdaSend $end
$var wire 1 R sdaout $end
$var reg 1 {" finish $end
$var reg 1 |" sdaclk $end
$var reg 1 }" sdacs $end
$var reg 16 ~" sdaoutbuf [15:0] $end
$var reg 4 !# shout_state [3:0] $end
$upscope $end
$scope module agowc $end
$var wire 10 "# N [9:0] $end
$var wire 1 G clk $end
$var wire 10 ## counterN [9:0] $end
$var wire 32 $# intsout [31:0] $end
$var wire 4 %# pulseWidthSafe [3:0] $end
$var wire 8 &# pulseWidthTwice [7:0] $end
$var wire 10 '# pulseWindowLimit [9:0] $end
$var wire 32 (# pulse_k [31:0] $end
$var wire 4 )# pulse_width [3:0] $end
$var wire 1 *" rst $end
$var wire 40 *# sum1 [39:0] $end
$var wire 40 +# sum2 [39:0] $end
$var reg 40 ,# anglereg [39:0] $end
$var reg 8 -# smallCounter [7:0] $end
$var reg 1 .# sn $end
$var reg 1 /# sp $end
$upscope $end
$upscope $end
$upscope $end
$upscope $end
$enddefinitions $end
#0
$dumpvars
0/#
0.#
b0 -#
b0 ,#
b1111111111111111110110001111000000000000 +#
b1001110001000000000000 *#
b10 )#
b1001110001000000000000 (#
b10100110 '#
b100 &#
b10 %#
b0 $#
b0 ##
b10101010 "#
b0 !#
b0 ~"
1}"
0|"
1{"
bx z"
b0 y"
b10101010 x"
xw"
bx v"
bx u"
b0 t"
bx s"
b0 r"
b0 q"
b10111000010100 p"
b10101010 o"
0n"
b0 m"
b0 l"
b0 k"
b0 j"
b0 i"
b0 h"
b111111111111 g"
b100001000010 f"
b101101011010110 e"
b101001010010100 d"
b0 c"
b0 b"
b0 a"
b0 `"
b0 _"
b0 ^"
b0 ]"
b100000 \"
b0 ["
b0 Z"
b0 Y"
b0 X"
b1100100 W"
0V"
0U"
b0 T"
b0 S"
b0 R"
b0 Q"
b111 P"
b1010101 O"
b101000 N"
b1000 M"
b10010 L"
b100000 K"
b0 J"
b0 I"
b111111111111 H"
b111 G"
b1000 F"
b10010 E"
b100000 D"
b100000000000 C"
b10101010 B"
b0 A"
0@"
0?"
0>"
0="
0<"
0;"
0:"
b0 9"
b0 8"
b10101010 7"
06"
05"
04"
b10111000010100 3"
b0 2"
b10101010 1"
b1100100 0"
b100000 /"
bx ."
0-"
b0 ,"
b0 +"
0*"
b0 )"
b0 ("
b0 '"
b0 &"
x%"
0$"
bx #"
0""
0!"
b0 ~
b0 }
0|
0{
b0 z
1y
b0 x
b0 w
b0 v
b0 u
b0 t
b0 s
b0 r
b0 q
b0 p
b0 o
b0 n
b0 m
b10111000010100 l
b10101010 k
b100000 j
b1100100 i
b100000000000 h
b10111000010100 g
b10101010 f
b100000 e
b1100100 d
b100000000000 c
b100000000000 b
b1 a
b0 `
b0 _
b0 ^
b0 ]
b0 \
b0 [
0Z
b0 Y
bx X
b0 W
b0 V
0U
b0 T
0S
0R
1Q
0P
0O
b0 N
b0 M
b0 L
b0 K
0J
b0 I
b0 H
0G
b10111000010100010011010000 F
b10111000010100 E
b11100001000 D
b10101010 C
0B
b11100001000 A
b10101010 @
b100000 ?
b1100100 >
b0 =
b0 <
b1 ;
b0 :
b100000000000 9
b100000000000 8
07
b0 6
05
b0 4
b0 3
02
01
b11100001000 0
b10101010 /
b100000 .
b1100100 -
b0 ,
b0 +
b0 *
b0 )
b1 (
b0 '
0&
b0 %
b0 $
b0 #
b0 "
b100000000000 !
$end
#12500
b1011100001010000 #"
b1011100001010000 s"
b1011100001010000 z"
b1011100001010000 X
b1011100001010000 ."
1w"
1%"
b0 u"
b1011100001010000000000000000000000000000 v"
12
1G
17
#25000
02
0G
07
#37500
12
1G
17
#50000
02
0G
07
#62500
12
1G
17
#75000
02
0G
07
#87500
12
1G
17
#100000
02
0G
07
15
1O
#112500
b100000010000 b
b100000010000 9
b100000010000 h
b100000010000 C"
b100000010000 !
b100000010000 8
b100000010000 c
b1000000 '
b1000000 :
b1000000 `
b1011100001010000 _
1Z
b1 2"
12
1G
17
#125000
02
0G
07
#137500
14"
b100000100000 b
b100000100000 9
b100000100000 h
b100000100000 C"
b100000100000 !
b100000100000 8
b100000100000 c
b10000000 '
b10000000 :
b10000000 `
b10 2"
b1 \
12
1G
17
#150000
02
0G
07
#162500
b100000110000 b
b100000110000 9
b100000110000 h
b100000110000 C"
b100000110000 !
b100000110000 8
b100000110000 c
b11000000 '
b11000000 :
b11000000 `
15"
b10 \
b11 2"
12
1G
17
#175000
02
0G
07
#187500
b100001000000 b
b100001000000 9
b100001000000 h
b100001000000 C"
b100001000000 !
b100001000000 8
b100001000000 c
b100000000 '
b100000000 :
b100000000 `
16"
1*"
1&
b11 \
12
1G
17
#200000
1<"
02
0G
07
#212500
1:"
1J
b100001010000 b
b100001010000 9
b100001010000 h
b100001010000 C"
b100001010000 !
b100001010000 8
b100001010000 c
1;"
b1 9"
b1 o
b1 J"
b1 y"
b1 ##
b1 H
b1 p
b1 8"
b1 n
b1 I"
b1 q"
b1 I
b1 q
b101000000 '
b101000000 :
b101000000 `
b1 6
b1 3
b100 \
12
1G
17
#225000
02
0G
07
#237500
b100001100000 b
b100001100000 9
b100001100000 h
b100001100000 C"
b100001100000 !
b100001100000 8
b100001100000 c
b10 8"
b10 n
b10 I"
b10 q"
b10 I
b10 q
b10 9"
b10 o
b10 J"
b10 y"
b10 ##
b10 H
b10 p
b1 6
b10 3
b110000000 '
b110000000 :
b110000000 `
b101 \
12
1G
17
#250000
02
0G
07
#262500
b100001110000 b
b100001110000 9
b100001110000 h
b100001110000 C"
b100001110000 !
b100001110000 8
b100001110000 c
b11 9"
b11 o
b11 J"
b11 y"
b11 ##
b11 H
b11 p
b11 8"
b11 n
b11 I"
b11 q"
b11 I
b11 q
b111000000 '
b111000000 :
b111000000 `
b1 6
b11 3
b110 \
12
1G
17
#275000
02
0G
07
#287500
b100010000000 b
b100010000000 9
b100010000000 h
b100010000000 C"
b100010000000 !
b100010000000 8
b100010000000 c
b100 8"
b100 n
b100 I"
b100 q"
b100 I
b100 q
b100 9"
b100 o
b100 J"
b100 y"
b100 ##
b100 H
b100 p
b1 6
b100 3
b1000000000 '
b1000000000 :
b1000000000 `
b111 \
b1111111110 C
b1111111110 k
11
1B
b1111111111 /
b1111111111 @
12
1G
17
#300000
02
0G
07
#312500
0:"
0J
0;"
0<"
05"
06"
0*"
0&
04"
b100010010000 b
b100010010000 9
b100010010000 h
b100010010000 C"
b100010010000 !
b100010010000 8
b100010010000 c
b111111111 O"
b1111111010 '#
b0 -#
b0 9"
b0 o
b0 J"
b0 y"
b0 ##
b0 H
b0 p
b0 8"
b0 n
b0 I"
b0 q"
b0 I
b0 q
b1001000000 '
b1001000000 :
b1001000000 `
b1 6
b101 3
b1000 \
b0 2"
b1111111110 1"
b1111111110 f
b1111111110 7"
b1111111110 B"
b1111111110 o"
b1111111110 x"
b1111111110 "#
01
0B
12
1G
17
#325000
02
0G
07
#337500
b100010100000 b
b100010100000 9
b100010100000 h
b100010100000 C"
b100010100000 !
b100010100000 8
b100010100000 c
b0 6
b0 3
b1010000000 '
b1010000000 :
b1010000000 `
b1 2"
b1001 \
12
1G
17
#350000
02
0G
07
#362500
14"
b100010110000 b
b100010110000 9
b100010110000 h
b100010110000 C"
b100010110000 !
b100010110000 8
b100010110000 c
b1011000000 '
b1011000000 :
b1011000000 `
b1010 \
b10 2"
12
1G
17
#375000
02
0G
07
#387500
b100011000000 b
b100011000000 9
b100011000000 h
b100011000000 C"
b100011000000 !
b100011000000 8
b100011000000 c
b1100000000 '
b1100000000 :
b1100000000 `
15"
b11 2"
b1011 \
12
1G
17
#400000
02
0G
07
#412500
b100011010000 b
b100011010000 9
b100011010000 h
b100011010000 C"
b100011010000 !
b100011010000 8
b100011010000 c
b1101000000 '
b1101000000 :
b1101000000 `
16"
1*"
1&
b1100 \
12
1G
17
#425000
1<"
02
0G
07
#437500
1:"
1J
b100011100000 b
b100011100000 9
b100011100000 h
b100011100000 C"
b100011100000 !
b100011100000 8
b100011100000 c
1;"
b1 9"
b1 o
b1 J"
b1 y"
b1 ##
b1 H
b1 p
b1 8"
b1 n
b1 I"
b1 q"
b1 I
b1 q
b1 6
b1 3
b1110000000 '
b1110000000 :
b1110000000 `
b1101 \
12
1G
17
#450000
02
0G
07
#462500
b100011110000 b
b100011110000 9
b100011110000 h
b100011110000 C"
b100011110000 !
b100011110000 8
b100011110000 c
b10 8"
b10 n
b10 I"
b10 q"
b10 I
b10 q
b10 9"
b10 o
b10 J"
b10 y"
b10 ##
b10 H
b10 p
b1111000000 '
b1111000000 :
b1111000000 `
b1 6
b10 3
b1110 \
12
1G
17
#475000
02
0G
07
#487500
b100100000000 b
b100100000000 9
b100100000000 h
b100100000000 C"
b100100000000 !
b100100000000 8
b100100000000 c
b11 9"
b11 o
b11 J"
b11 y"
b11 ##
b11 H
b11 p
b11 8"
b11 n
b11 I"
b11 q"
b11 I
b11 q
b1 6
b11 3
b10000000000 '
b10000000000 :
b10000000000 `
b1111 \
12
1G
17
#500000
02
0G
07
#512500
b100100010000 b
b100100010000 9
b100100010000 h
b100100010000 C"
b100100010000 !
b100100010000 8
b100100010000 c
b100 8"
b100 n
b100 I"
b100 q"
b100 I
b100 q
b100 9"
b100 o
b100 J"
b100 y"
b100 ##
b100 H
b100 p
b10001000000 '
b10001000000 :
b10001000000 `
b1 6
b100 3
b10000 \
12
1G
17
#525000
02
0G
07
#537500
b100100100000 b
b100100100000 9
b100100100000 h
b100100100000 C"
b100100100000 !
b100100100000 8
b100100100000 c
b1 -#
b101 9"
b101 o
b101 J"
b101 y"
b101 ##
b101 H
b101 p
b101 8"
b101 n
b101 I"
b101 q"
b101 I
b101 q
b1 6
b101 3
b10010000000 '
b10010000000 :
b10010000000 `
b10001 \
b1000000000000000000000000000000 ^
12
1G
17
#550000
02
0G
07
#562500
b100100110000 b
b100100110000 9
b100100110000 h
b100100110000 C"
b100100110000 !
b100100110000 8
b100100110000 c
b110 8"
b110 n
b110 I"
b110 q"
b110 I
b110 q
b110 9"
b110 o
b110 J"
b110 y"
b110 ##
b110 H
b110 p
b10 -#
b10011000000 '
b10011000000 :
b10011000000 `
b1 6
b110 3
b10010 \
12
1G
17
#575000
02
0G
07
#587500
b100101000000 b
b100101000000 9
b100101000000 h
b100101000000 C"
b100101000000 !
b100101000000 8
b100101000000 c
b11 -#
b111 9"
b111 o
b111 J"
b111 y"
b111 ##
b111 H
b111 p
b111 8"
b111 n
b111 I"
b111 q"
b111 I
b111 q
b1 6
b111 3
b10100000000 '
b10100000000 :
b10100000000 `
b10011 \
12
1G
17
#600000
02
0G
07
#612500
b100101010000 b
b100101010000 9
b100101010000 h
b100101010000 C"
b100101010000 !
b100101010000 8
b100101010000 c
b1000 8"
b1000 n
b1000 I"
b1000 q"
b1000 I
b1000 q
b1000 9"
b1000 o
b1000 J"
b1000 y"
b1000 ##
b1000 H
b1000 p
b100 -#
b10101000000 '
b10101000000 :
b10101000000 `
b1 6
b1000 3
b10100 \
12
1G
17
#625000
02
0G
07
#637500
1R
b100101100000 b
b100101100000 9
b100101100000 h
b100101100000 C"
b100101100000 !
b100101100000 8
b100101100000 c
b1 -#
0{"
0}"
0Q
b1011100001010000 ~"
b1001 9"
b1001 o
b1001 J"
b1001 y"
b1001 ##
b1001 H
b1001 p
b1001 8"
b1001 n
b1001 I"
b1001 q"
b1001 I
b1001 q
b1 6
b1001 3
b10110000000 '
b10110000000 :
b10110000000 `
b10101 \
12
1G
17
#650000
02
0G
07
#662500
b100101110000 b
b100101110000 9
b100101110000 h
b100101110000 C"
b100101110000 !
b100101110000 8
b100101110000 c
b1010 8"
b1010 n
b1010 I"
b1010 q"
b1010 I
b1010 q
b1010 9"
b1010 o
b1010 J"
b1010 y"
b1010 ##
b1010 H
b1010 p
b10 -#
b10111000000 '
b10111000000 :
b10111000000 `
b1 6
b1010 3
b10110 \
12
1G
17
#675000
02
0G
07
#687500
b100110000000 b
b100110000000 9
b100110000000 h
b100110000000 C"
b100110000000 !
b100110000000 8
b100110000000 c
b11 -#
b1011 9"
b1011 o
b1011 J"
b1011 y"
b1011 ##
b1011 H
b1011 p
b1011 8"
b1011 n
b1011 I"
b1011 q"
b1011 I
b1011 q
b1 6
b1011 3
b11000000000 '
b11000000000 :
b11000000000 `
b10111 \
12
1G
17
#700000
02
0G
07
#712500
b100110010000 b
b100110010000 9
b100110010000 h
b100110010000 C"
b100110010000 !
b100110010000 8
b100110010000 c
b1100 8"
b1100 n
b1100 I"
b1100 q"
b1100 I
b1100 q
b1100 9"
b1100 o
b1100 J"
b1100 y"
b1100 ##
b1100 H
b1100 p
b100 -#
b11001000000 '
b11001000000 :
b11001000000 `
b1 6
b1100 3
b11000 \
12
1G
17
#725000
02
0G
07
#737500
b100110100000 b
b100110100000 9
b100110100000 h
b100110100000 C"
b100110100000 !
b100110100000 8
b100110100000 c
b1 -#
1|"
1P
b1101 9"
b1101 o
b1101 J"
b1101 y"
b1101 ##
b1101 H
b1101 p
b1101 8"
b1101 n
b1101 I"
b1101 q"
b1101 I
b1101 q
b1 6
b1101 3
b11010000000 '
b11010000000 :
b11010000000 `
0w"
0%"
b11001 \
12
1G
17
#750000
02
0G
07
#762500
b100110110000 b
b100110110000 9
b100110110000 h
b100110110000 C"
b100110110000 !
b100110110000 8
b100110110000 c
b1110 8"
b1110 n
b1110 I"
b1110 q"
b1110 I
b1110 q
b1110 9"
b1110 o
b1110 J"
b1110 y"
b1110 ##
b1110 H
b1110 p
b10 -#
b11011000000 '
b11011000000 :
b11011000000 `
b1 6
b1110 3
b11010 \
12
1G
17
#775000
02
0G
07
#787500
b100111000000 b
b100111000000 9
b100111000000 h
b100111000000 C"
b100111000000 !
b100111000000 8
b100111000000 c
b11 -#
b1111 9"
b1111 o
b1111 J"
b1111 y"
b1111 ##
b1111 H
b1111 p
b1111 8"
b1111 n
b1111 I"
b1111 q"
b1111 I
b1111 q
b1 6
b1111 3
b11100000000 '
b11100000000 :
b11100000000 `
b11011 \
12
1G
17
#800000
02
0G
07
#812500
b100111010000 b
b100111010000 9
b100111010000 h
b100111010000 C"
b100111010000 !
b100111010000 8
b100111010000 c
b10000 8"
b10000 n
b10000 I"
b10000 q"
b10000 I
b10000 q
b10000 9"
b10000 o
b10000 J"
b10000 y"
b10000 ##
b10000 H
b10000 p
b100 -#
b11101000000 '
b11101000000 :
b11101000000 `
b1 6
b10000 3
b11100 \
12
1G
17
#825000
02
0G
07
#837500
0R
b100111100000 b
b100111100000 9
b100111100000 h
b100111100000 C"
b100111100000 !
b100111100000 8
b100111100000 c
b1 -#
0|"
0P
b1 !#
b111000010100000 ~"
b10001 9"
b10001 o
b10001 J"
b10001 y"
b10001 ##
b10001 H
b10001 p
b10001 8"
b10001 n
b10001 I"
b10001 q"
b10001 I
b10001 q
b1 6
b10001 3
b11110000000 '
b11110000000 :
b11110000000 `
b11101 \
12
1G
17
#850000
02
0G
07
#862500
b100111110000 b
b100111110000 9
b100111110000 h
b100111110000 C"
b100111110000 !
b100111110000 8
b100111110000 c
b10010 8"
b10010 n
b10010 I"
b10010 q"
b10010 I
b10010 q
b10010 9"
b10010 o
b10010 J"
b10010 y"
b10010 ##
b10010 H
b10010 p
b10 -#
b11111000000 '
b11111000000 :
b11111000000 `
b1 6
b10010 3
b11110 \
12
1G
17
#875000
02
0G
07
#887500
b101000000000 b
b101000000000 9
b101000000000 h
b101000000000 C"
b101000000000 !
b101000000000 8
b101000000000 c
b11 -#
b10011 9"
b10011 o
b10011 J"
b10011 y"
b10011 ##
b10011 H
b10011 p
b10011 8"
b10011 n
b10011 I"
b10011 q"
b10011 I
b10011 q
b1 6
b10011 3
b100000000000 '
b100000000000 :
b100000000000 `
b11111 \
12
1G
17
#900000
02
0G
07
#912500
b101000010000 b
b101000010000 9
b101000010000 h
b101000010000 C"
b101000010000 !
b101000010000 8
b101000010000 c
b10100 8"
b10100 n
b10100 I"
b10100 q"
b10100 I
b10100 q
b10100 9"
b10100 o
b10100 J"
b10100 y"
b10100 ##
b10100 H
b10100 p
b100 -#
b100001000000 '
b100001000000 :
b100001000000 `
b1 6
b10100 3
b100000 \
12
1G
17
#925000
02
0G
07
#937500
b101000100000 b
b101000100000 9
b101000100000 h
b101000100000 C"
b101000100000 !
b101000100000 8
b101000100000 c
b1 -#
1|"
1P
b10101 9"
b10101 o
b10101 J"
b10101 y"
b10101 ##
b10101 H
b10101 p
b10101 8"
b10101 n
b10101 I"
b10101 q"
b10101 I
b10101 q
b1 6
b10101 3
b100010000000 '
b100010000000 :
b100010000000 `
0Z
12
1G
17
#950000
02
0G
07
#962500
b101000110000 b
b101000110000 9
b101000110000 h
b101000110000 C"
b101000110000 !
b101000110000 8
b101000110000 c
b10110 8"
b10110 n
b10110 I"
b10110 q"
b10110 I
b10110 q
b10110 9"
b10110 o
b10110 J"
b10110 y"
b10110 ##
b10110 H
b10110 p
b10 -#
b100011000000 '
b100011000000 :
b100011000000 `
b1 6
b10110 3
b0 ^
b0 \
1Z
12
1G
17
#975000
02
0G
07
#987500
b101001000000 b
b101001000000 9
b101001000000 h
b101001000000 C"
b101001000000 !
b101001000000 8
b101001000000 c
b11 -#
b10111 9"
b10111 o
b10111 J"
b10111 y"
b10111 ##
b10111 H
b10111 p
b10111 8"
b10111 n
b10111 I"
b10111 q"
b10111 I
b10111 q
b1 6
b10111 3
b100100000000 '
b100100000000 :
b100100000000 `
b1 \
12
1G
17
#1000000
02
0G
07
#1012500
b101001010000 b
b101001010000 9
b101001010000 h
b101001010000 C"
b101001010000 !
b101001010000 8
b101001010000 c
b11000 8"
b11000 n
b11000 I"
b11000 q"
b11000 I
b11000 q
b11000 9"
b11000 o
b11000 J"
b11000 y"
b11000 ##
b11000 H
b11000 p
b100 -#
b100101000000 '
b100101000000 :
b100101000000 `
b1 6
b11000 3
b10 \
12
1G
17
#1025000
02
0G
07
#1037500
1R
b101001100000 b
b101001100000 9
b101001100000 h
b101001100000 C"
b101001100000 !
b101001100000 8
b101001100000 c
b1 -#
0|"
0P
b10 !#
b1110000101000000 ~"
b11001 9"
b11001 o
b11001 J"
b11001 y"
b11001 ##
b11001 H
b11001 p
b11001 8"
b11001 n
b11001 I"
b11001 q"
b11001 I
b11001 q
b1 6
b11001 3
b100110000000 '
b100110000000 :
b100110000000 `
b11 \
12
1G
17
#1050000
02
0G
07
#1062500
b101001110000 b
b101001110000 9
b101001110000 h
b101001110000 C"
b101001110000 !
b101001110000 8
b101001110000 c
b11010 8"
b11010 n
b11010 I"
b11010 q"
b11010 I
b11010 q
b11010 9"
b11010 o
b11010 J"
b11010 y"
b11010 ##
b11010 H
b11010 p
b10 -#
b100111000000 '
b100111000000 :
b100111000000 `
b1 6
b11010 3
b100 \
12
1G
17
#1075000
02
0G
07
#1087500
b101010000000 b
b101010000000 9
b101010000000 h
b101010000000 C"
b101010000000 !
b101010000000 8
b101010000000 c
b11 -#
b11011 9"
b11011 o
b11011 J"
b11011 y"
b11011 ##
b11011 H
b11011 p
b11011 8"
b11011 n
b11011 I"
b11011 q"
b11011 I
b11011 q
b1 6
b11011 3
b101000000000 '
b101000000000 :
b101000000000 `
b101 \
12
1G
17
#1100000
02
0G
07
#1112500
b101010010000 b
b101010010000 9
b101010010000 h
b101010010000 C"
b101010010000 !
b101010010000 8
b101010010000 c
b11100 8"
b11100 n
b11100 I"
b11100 q"
b11100 I
b11100 q
b11100 9"
b11100 o
b11100 J"
b11100 y"
b11100 ##
b11100 H
b11100 p
b100 -#
b101001000000 '
b101001000000 :
b101001000000 `
b1 6
b11100 3
b110 \
12
1G
17
#1125000
02
0G
07
#1137500
b101010100000 b
b101010100000 9
b101010100000 h
b101010100000 C"
b101010100000 !
b101010100000 8
b101010100000 c
b1 -#
1|"
1P
b11101 9"
b11101 o
b11101 J"
b11101 y"
b11101 ##
b11101 H
b11101 p
b11101 8"
b11101 n
b11101 I"
b11101 q"
b11101 I
b11101 q
b1 6
b11101 3
b101010000000 '
b101010000000 :
b101010000000 `
b111 \
12
1G
17
#1150000
02
0G
07
