sim/icarus/tb_fog_gyro_signal_modulation.vcd
$date
	Mon May 11 13:20:18 2026
$end
$version
	Icarus Verilog
$end
$timescale
	1ps
$end
$scope module tb_fog_gyro_signal_modulation $end
$var wire 1 ! adclk $end
$var wire 12 " adin_mapped [11:0] $end
$var wire 10 # counterN_dbg [9:0] $end
$var wire 9 $ counter_dbg [8:0] $end
$var wire 1 % daclk $end
$var wire 16 & daout [15:0] $end
$var wire 32 ' drotate_dbg [31:0] $end
$var wire 32 ( dvref_dbg [31:0] $end
$var wire 32 ) intsout_dbg [31:0] $end
$var wire 1 * ready $end
$var wire 1 + sdaclk $end
$var wire 1 , sdacs $end
$var wire 1 - sdaout $end
$var wire 1 . sn $end
$var wire 1 / sp $end
$var wire 16 0 sp_sn_value [15:0] $end
$var wire 2 1 state_dbg [1:0] $end
$var wire 12 2 tau_dbg [11:0] $end
$var wire 16 3 vref_word [15:0] $end
$var reg 16 4 ai0_raw [15:0] $end
$var reg 2 5 ai_map_mode [1:0] $end
$var integer 32 6 ao0_change_count [31:0] $end
$var integer 32 7 avg_seg1 [31:0] $end
$var integer 32 8 avg_seg2 [31:0] $end
$var integer 32 9 avg_state0 [31:0] $end
$var integer 32 : avg_state1 [31:0] $end
$var integer 32 ; avg_state2 [31:0] $end
$var integer 32 < avg_state3 [31:0] $end
$var reg 8 = cfg_FBK [7:0] $end
$var reg 10 > cfg_N [9:0] $end
$var reg 14 ? cfg_VDARef [13:0] $end
$var reg 1 @ cfg_apply $end
$var reg 1 A clk $end
$var integer 32 B cycles_after_ready [31:0] $end
$var reg 16 C daout_prev [15:0] $end
$var integer 32 D drift_code [31:0] $end
$var integer 32 E errors [31:0] $end
$var integer 32 F gyro_code [31:0] $end
$var integer 32 G gyro_segment [31:0] $end
$var integer 32 H idx [31:0] $end
$var integer 32 I log_fd [31:0] $end
$var reg 1 J rst_n $end
$var integer 32 K signed_code [31:0] $end
$var integer 32 L state_seen_mask [31:0] $end
$scope module u_map $end
$var wire 16 M ai_raw [15:0] $end
$var wire 2 N map_mode [1:0] $end
$var reg 12 O adin [11:0] $end
$var reg 16 P mapped_tmp [15:0] $end
$upscope $end
$scope module dut $end
$var wire 8 Q FBK [7:0] $end
$var wire 8 R FBK2 [7:0] $end
$var wire 10 S N [9:0] $end
$var wire 14 T VDARef [13:0] $end
$var wire 1 ! adclk $end
$var wire 12 U adin [11:0] $end
$var wire 8 V cfg_FBK [7:0] $end
$var wire 8 W cfg_FBK2 [7:0] $end
$var wire 10 X cfg_N [9:0] $end
$var wire 14 Y cfg_VDARef [13:0] $end
$var wire 1 Z cfg_apply $end
$var wire 1 [ clk $end
$var wire 9 \ counter [8:0] $end
$var wire 10 ] counterN [9:0] $end
$var wire 10 ^ counterN_dbg [9:0] $end
$var wire 9 _ counter_dbg [8:0] $end
$var wire 32 ` dRotateOut [31:0] $end
$var wire 32 a dRotateOutFBK [31:0] $end
$var wire 32 b dVrefOut [31:0] $end
$var wire 1 % daclk $end
$var wire 16 c daout [15:0] $end
$var wire 32 d drotate_dbg [31:0] $end
$var wire 32 e dvref_dbg [31:0] $end
$var wire 1 f ena $end
$var wire 1 g intena $end
$var wire 1 h intena0 $end
$var wire 32 i intsout [31:0] $end
$var wire 32 j intsout_dbg [31:0] $end
$var wire 1 k ladena1 $end
$var wire 1 l ladena2 $end
$var wire 16 m pintout [15:0] $end
$var wire 1 n random $end
$var wire 1 * ready $end
$var wire 1 o rst_n $end
$var wire 1 p sdaSend $end
$var wire 1 + sdaclk $end
$var wire 1 , sdacs $end
$var wire 1 - sdaout $end
$var wire 1 . sn $end
$var wire 1 / sp $end
$var wire 16 q sp_sn_value [15:0] $end
$var wire 2 r state [1:0] $end
$var wire 2 s state_dbg [1:0] $end
$var wire 1 t sys_rst $end
$var wire 12 u tauCounter [11:0] $end
$var wire 12 v tau_dbg [11:0] $end
$var wire 1 w unused_fbk2 $end
$var wire 1 x updown $end
$var wire 16 y vref_word [15:0] $end
$var reg 8 z cfg_fbk2_reg [7:0] $end
$var reg 8 { cfg_fbk_reg [7:0] $end
$var reg 10 | cfg_n_reg [9:0] $end
$var reg 2 } cfg_reset_hold [1:0] $end
$var reg 14 ~ cfg_vdaref_reg [13:0] $end
$scope module asrst_core $end
$var wire 1 [ clk $end
$var wire 1 !" rst_n $end
$var reg 1 "" rst_nr1 $end
$var reg 1 #" rst_nr2 $end
$upscope $end
$scope module gclk $end
$var wire 10 $" N [9:0] $end
$var wire 1 ! adclk $end
$var wire 1 [ clk $end
$var wire 1 f ena $end
$var wire 1 t rst $end
$var reg 9 %" counter [8:0] $end
$var reg 10 &" counterN [9:0] $end
$var reg 1 '" daclk $end
$var reg 1 (" daclk1 $end
$var reg 1 )" daclk2 $end
$var reg 1 *" intena $end
$var reg 1 +" intena0 $end
$var reg 1 ," ladena1 $end
$var reg 1 -" ladena2 $end
$var reg 2 ." state [1:0] $end
$upscope $end
$scope module dmt $end
$var wire 10 /" N [9:0] $end
$var wire 12 0" adin [11:0] $end
$var wire 8 1" cfg_delay1 [7:0] $end
$var wire 8 2" cfg_delay2 [7:0] $end
$var wire 8 3" cfg_delayAD [7:0] $end
$var wire 8 4" cfg_reserveN [7:0] $end
$var wire 12 5" cfg_sft_pd [11:0] $end
$var wire 1 [ clk $end
$var wire 9 6" counter [8:0] $end
$var wire 10 7" counterN [9:0] $end
$var wire 10 8" delay1w [9:0] $end
$var wire 10 9" delay2w [9:0] $end
$var wire 10 :" delayADw [9:0] $end
$var wire 10 ;" delaySum [9:0] $end
$var wire 1 f ena $end
$var wire 10 <" halfN [9:0] $end
$var wire 10 =" reserveNw [9:0] $end
$var wire 1 t rst $end
$var wire 2 >" state [1:0] $end
$var wire 12 ?" tauCounter [11:0] $end
$var wire 1 x updown $end
$var reg 32 @" dRotateOut [31:0] $end
$var reg 32 A" dVrefOut [31:0] $end
$var reg 1 B" random $end
$var reg 1 C" randomPre $end
$upscope $end
$scope module dmk $end
$var wire 8 D" FBK [7:0] $end
$var wire 1 [ clk $end
$var wire 24 E" dRotateOut24 [23:0] $end
$var wire 32 F" dRotateOutFBK [31:0] $end
$var wire 1 h intena0 $end
$var wire 33 G" mult_FBK [32:0] $end
$var wire 1 t rst $end
$var reg 33 H" mult_FBK_R [32:0] $end
$upscope $end
$scope module itg $end
$var wire 1 [ clk $end
$var wire 32 I" dRotateOut [31:0] $end
$var wire 1 g intena $end
$var wire 1 t rst $end
$var wire 32 J" sum [31:0] $end
$var reg 32 K" intsout [31:0] $end
$upscope $end
$scope module ldp $end
$var wire 16 L" cfg_PI [15:0] $end
$var wire 16 M" cfg_PIb [15:0] $end
$var wire 16 N" cfg_PIbpPI [15:0] $end
$var wire 12 O" cfg_sft_pd [11:0] $end
$var wire 1 [ clk $end
$var wire 1 k ladena1 $end
$var wire 1 l ladena2 $end
$var wire 32 P" ladin [31:0] $end
$var wire 1 n random $end
$var wire 1 t rst $end
$var wire 2 Q" state [1:0] $end
$var reg 16 R" ladout [15:0] $end
$var reg 32 S" ladreg [31:0] $end
$var reg 32 T" ladtmp [31:0] $end
$var reg 12 U" tauCounter [11:0] $end
$var reg 1 V" updown $end
$upscope $end
$scope module pint $end
$var wire 10 W" N [9:0] $end
$var wire 14 X" VDARef [13:0] $end
$var wire 1 [ clk $end
$var wire 9 Y" counter [8:0] $end
$var wire 32 Z" dVrefOut [31:0] $end
$var wire 1 f ena $end
$var wire 16 [" pintout [15:0] $end
$var wire 1 t rst $end
$var wire 2 \" state [1:0] $end
$var reg 16 ]" pintoutpre [15:0] $end
$var reg 40 ^" pintreg [39:0] $end
$var reg 1 _" sdaSend $end
$upscope $end
$scope module sdo $end
$var wire 10 `" N [9:0] $end
$var wire 1 [ clk $end
$var wire 10 a" counterN [9:0] $end
$var wire 16 b" pintout [15:0] $end
$var wire 1 t rst $end
$var wire 1 p sdaSend $end
$var wire 1 - sdaout $end
$var reg 1 c" finish $end
$var reg 1 d" sdaclk $end
$var reg 1 e" sdacs $end
$var reg 16 f" sdaoutbuf [15:0] $end
$var reg 4 g" shout_state [3:0] $end
$upscope $end
$scope module agowc $end
$var wire 10 h" N [9:0] $end
$var wire 1 [ clk $end
$var wire 10 i" counterN [9:0] $end
$var wire 32 j" intsout [31:0] $end
$var wire 4 k" pulseWidthSafe [3:0] $end
$var wire 8 l" pulseWidthTwice [7:0] $end
$var wire 10 m" pulseWindowLimit [9:0] $end
$var wire 32 n" pulse_k [31:0] $end
$var wire 4 o" pulse_width [3:0] $end
$var wire 1 t rst $end
$var wire 40 p" sum1 [39:0] $end
$var wire 40 q" sum2 [39:0] $end
$var reg 40 r" anglereg [39:0] $end
$var reg 8 s" smallCounter [7:0] $end
$var reg 1 t" sn $end
$var reg 1 u" sp $end
$upscope $end
$upscope $end
$upscope $end
$enddefinitions $end
#0
$dumpvars
0u"
0t"
b0 s"
b0 r"
b1111111111111111110110001111000000000000 q"
b1001110001000000000000 p"
b10 o"
b1001110001000000000000 n"
b10100110 m"
b100 l"
b10 k"
b0 j"
b0 i"
b10101010 h"
b0 g"
b0 f"
1e"
0d"
1c"
bx b"
b0 a"
b10101010 `"
x_"
bx ^"
bx ]"
b0 \"
bx ["
b0 Z"
b0 Y"
b11001111100000 X"
b10101010 W"
0V"
b0 U"
b0 T"
b0 S"
b0 R"
b0 Q"
b0 P"
b111111111111 O"
b100001000010 N"
b101101011010110 M"
b101001010010100 L"
b0 K"
b0 J"
b0 I"
b0 H"
b0 G"
b0 F"
b0 E"
b1100100 D"
0C"
0B"
b0 A"
b0 @"
b0 ?"
b0 >"
b111 ="
b1010101 <"
b101000 ;"
b1000 :"
b10010 9"
b100000 8"
b0 7"
b0 6"
b111111111111 5"
b111 4"
b1000 3"
b10010 2"
b100000 1"
b100000000000 0"
b10101010 /"
b0 ."
0-"
0,"
0+"
0*"
0)"
0("
0'"
b0 &"
b0 %"
b10101010 $"
0#"
0""
0!"
b11001111100000 ~
b0 }
b10101010 |
b1100100 {
b100000 z
bx y
0x
1w
b0 v
b0 u
0t
b0 s
b0 r
b0 q
xp
0o
0n
bx m
0l
0k
b0 j
b0 i
0h
0g
1f
b0 e
b0 d
b0 c
b0 b
b0 a
b0 `
b0 _
b0 ^
b0 ]
b0 \
0[
0Z
b11001111100000 Y
b10101010 X
bz W
b1100100 V
b100000000000 U
b11001111100000 T
b10101010 S
b100000 R
b1100100 Q
b100000000000 P
b100000000000 O
b1 N
b0 M
b0 L
b0 K
0J
b10000000000000000000000000000011 I
b11 H
b0 G
b0 F
b0 E
b0 D
b0 C
b0 B
0A
0@
b11001111100000 ?
b10101010 >
b1100100 =
b0 <
b0 ;
b0 :
b0 9
b0 8
b0 7
b0 6
b1 5
b0 4
bx 3
b0 2
b0 1
b0 0
0/
0.
0-
1,
0+
0*
b0 )
b0 (
b0 '
b0 &
0%
b0 $
b0 #
b100000000000 "
0!
$end
#12500
b1100111110000000 m
b1100111110000000 ["
b1100111110000000 b"
b1100111110000000 3
b1100111110000000 y
1_"
1p
b0 ]"
b1100111110000000000000000000000000000000 ^"
1A
1[
1!
#25000
0A
0[
0!
#37500
1A
1[
1!
#50000
0A
0[
0!
#62500
1A
1[
1!
#75000
0A
0[
0!
#87500
1A
1[
1!
#100000
0A
0[
0!
1J
1o
#112500
b1 }
1A
1[
1!
#125000
0A
0[
0!
#137500
1!"
b10 }
1A
1[
1!
#150000
0A
0[
0!
#162500
1""
b11 }
1A
1[
1!
#175000
0A
0[
0!
#187500
1#"
1t
1*
1A
1[
1!
#200000
1)"
0A
0[
0!
#212500
1'"
1%
b11111010000 O
b11111010000 "
b11111010000 U
b11111010000 0"
b11111010000 P
1("
b1 &"
b1 ]
b1 7"
b1 a"
b1 i"
b1 #
b1 ^
b1 %"
b1 \
b1 6"
b1 Y"
b1 $
b1 _
b1111111101000000 4
b1111111101000000 M
b1 L
b1 B
b11111111111111111111111111010000 K
b11111111111111111111111111010000 D
1A
1[
1!
#225000
0A
0[
0!
#237500
b11111010001 O
b11111010001 "
b11111010001 U
b11111010001 0"
b11111010001 P
b10 %"
b10 \
b10 6"
b10 Y"
b10 $
b10 _
b10 &"
b10 ]
b10 7"
b10 a"
b10 i"
b10 #
b10 ^
b1 L
b10 B
b1111111101000100 4
b1111111101000100 M
b11111111111111111111111111010001 K
b11111111111111111111111111010001 D
1A
1[
1!
#250000
0A
0[
0!
#262500
b11111010010 O
b11111010010 "
b11111010010 U
b11111010010 0"
b11111010010 P
b11 &"
b11 ]
b11 7"
b11 a"
b11 i"
b11 #
b11 ^
b11 %"
b11 \
b11 6"
b11 Y"
b11 $
b11 _
b1111111101001000 4
b1111111101001000 M
b1 L
b11 B
b11111111111111111111111111010010 K
b11111111111111111111111111010010 D
1A
1[
1!
#275000
0A
0[
0!
#287500
b11111010011 O
b11111010011 "
b11111010011 U
b11111010011 0"
b11111010011 P
b100 %"
b100 \
b100 6"
b100 Y"
b100 $
b100 _
b100 &"
b100 ]
b100 7"
b100 a"
b100 i"
b100 #
b100 ^
b1 L
b100 B
b1111111101001100 4
b1111111101001100 M
1@
1Z
b11111111111111111111111111010011 K
b11111111111111111111111111010011 D
1A
1[
1!
#300000
0A
0[
0!
#312500
0'"
0%
0("
0)"
0""
0#"
0t
0*
0!"
b11111010100 O
b11111010100 "
b11111010100 U
b11111010100 0"
b11111010100 P
b0 s"
b0 &"
b0 ]
b0 7"
b0 a"
b0 i"
b0 #
b0 ^
b0 %"
b0 \
b0 6"
b0 Y"
b0 $
b0 _
b1111111101010000 4
b1111111101010000 M
b1 L
b101 B
b0 }
bz z
xw
bz R
b11111111111111111111111111010100 K
b11111111111111111111111111010100 D
0@
0Z
1A
1[
1!
#325000
0A
0[
0!
#337500
b100000000000 O
b100000000000 "
b100000000000 U
b100000000000 0"
b100000000000 P
b0 L
b0 B
b0 4
b0 M
b1 }
1A
1[
1!
#350000
0A
0[
0!
#362500
1!"
b10 }
1A
1[
1!
#375000
0A
0[
0!
#387500
1""
b11 }
1A
1[
1!
#400000
0A
0[
0!
#412500
1#"
1t
1*
1A
1[
1!
#425000
1)"
0A
0[
0!
#437500
1'"
1%
b11111010000 O
b11111010000 "
b11111010000 U
b11111010000 0"
b11111010000 P
1("
b1 &"
b1 ]
b1 7"
b1 a"
b1 i"
b1 #
b1 ^
b1 %"
b1 \
b1 6"
b1 Y"
b1 $
b1 _
b1 L
b1 B
b1111111101000000 4
b1111111101000000 M
b11111111111111111111111111010000 K
b11111111111111111111111111010000 D
1A
1[
1!
#450000
0A
0[
0!
#462500
b11111010001 O
b11111010001 "
b11111010001 U
b11111010001 0"
b11111010001 P
b10 %"
b10 \
b10 6"
b10 Y"
b10 $
b10 _
b10 &"
b10 ]
b10 7"
b10 a"
b10 i"
b10 #
b10 ^
b1111111101000100 4
b1111111101000100 M
b1 L
b10 B
b11111111111111111111111111010001 K
b11111111111111111111111111010001 D
1A
1[
1!
#475000
0A
0[
0!
#487500
b11111010010 O
b11111010010 "
b11111010010 U
b11111010010 0"
b11111010010 P
b11 &"
b11 ]
b11 7"
b11 a"
b11 i"
b11 #
b11 ^
b11 %"
b11 \
b11 6"
b11 Y"
b11 $
b11 _
b1 L
b11 B
b1111111101001000 4
b1111111101001000 M
b11111111111111111111111111010010 K
b11111111111111111111111111010010 D
1A
1[
1!
#500000
0A
0[
0!
#512500
b11111010011 O
b11111010011 "
b11111010011 U
b11111010011 0"
b11111010011 P
b100 %"
b100 \
b100 6"
b100 Y"
b100 $
b100 _
b100 &"
b100 ]
b100 7"
b100 a"
b100 i"
b100 #
b100 ^
b1111111101001100 4
b1111111101001100 M
b1 L
b100 B
b11111111111111111111111111010011 K
b11111111111111111111111111010011 D
1A
1[
1!
#525000
0A
0[
0!
#537500
b11111010100 O
b11111010100 "
b11111010100 U
b11111010100 0"
b11111010100 P
b1 s"
b101 &"
b101 ]
b101 7"
b101 a"
b101 i"
b101 #
b101 ^
b101 %"
b101 \
b101 6"
b101 Y"
b101 $
b101 _
b1 L
b101 B
b1111111101010000 4
b1111111101010000 M
b11111111111111111111111111010100 K
b11111111111111111111111111010100 D
1A
1[
1!
#550000
0A
0[
0!
#562500
b11111010101 O
b11111010101 "
b11111010101 U
b11111010101 0"
b11111010101 P
b110 %"
b110 \
b110 6"
b110 Y"
b110 $
b110 _
b110 &"
b110 ]
b110 7"
b110 a"
b110 i"
b110 #
b110 ^
b10 s"
b1111111101010100 4
b1111111101010100 M
b1 L
b110 B
b11111111111111111111111111010101 K
b11111111111111111111111111010101 D
1A
1[
1!
#575000
0A
0[
0!
#587500
b11111010110 O
b11111010110 "
b11111010110 U
b11111010110 0"
b11111010110 P
b11 s"
b111 &"
b111 ]
b111 7"
b111 a"
b111 i"
b111 #
b111 ^
b111 %"
b111 \
b111 6"
b111 Y"
b111 $
b111 _
b1 L
b111 B
b1111111101011000 4
b1111111101011000 M
b11111111111111111111111111010110 K
b11111111111111111111111111010110 D
1A
1[
1!
#600000
0A
0[
0!
#612500
b11111010111 O
b11111010111 "
b11111010111 U
b11111010111 0"
b11111010111 P
b1000 %"
b1000 \
b1000 6"
b1000 Y"
b1000 $
b1000 _
b1000 &"
b1000 ]
b1000 7"
b1000 a"
b1000 i"
b1000 #
b1000 ^
b100 s"
b1111111101011100 4
b1111111101011100 M
b1 L
b1000 B
b11111111111111111111111111010111 K
b11111111111111111111111111010111 D
1A
1[
1!
#625000
0A
0[
0!
#637500
1-
b11111011000 O
b11111011000 "
b11111011000 U
b11111011000 0"
b11111011000 P
b1 s"
0c"
0e"
0,
b1100111110000000 f"
b1001 &"
b1001 ]
b1001 7"
b1001 a"
b1001 i"
b1001 #
b1001 ^
b1001 %"
b1001 \
b1001 6"
b1001 Y"
b1001 $
b1001 _
b1 L
b1001 B
b1111111101100000 4
b1111111101100000 M
b11111111111111111111111111011000 K
b11111111111111111111111111011000 D
1A
1[
1!
#650000
0A
0[
0!
#662500
b11111011001 O
b11111011001 "
b11111011001 U
b11111011001 0"
b11111011001 P
b1010 %"
b1010 \
b1010 6"
b1010 Y"
b1010 $
b1010 _
b1010 &"
b1010 ]
b1010 7"
b1010 a"
b1010 i"
b1010 #
b1010 ^
b10 s"
b1111111101100100 4
b1111111101100100 M
b1 L
b1010 B
b11111111111111111111111111011001 K
b11111111111111111111111111011001 D
1A
1[
1!
#675000
0A
0[
0!
#687500
b11111011010 O
b11111011010 "
b11111011010 U
b11111011010 0"
b11111011010 P
b11 s"
b1011 &"
b1011 ]
b1011 7"
b1011 a"
b1011 i"
b1011 #
b1011 ^
b1011 %"
b1011 \
b1011 6"
b1011 Y"
b1011 $
b1011 _
b1 L
b1011 B
b1111111101101000 4
b1111111101101000 M
b11111111111111111111111111011010 K
b11111111111111111111111111011010 D
1A
1[
1!
#700000
0A
0[
0!
#712500
b11111011011 O
b11111011011 "
b11111011011 U
b11111011011 0"
b11111011011 P
b1100 %"
b1100 \
b1100 6"
b1100 Y"
b1100 $
b1100 _
b1100 &"
b1100 ]
b1100 7"
b1100 a"
b1100 i"
b1100 #
b1100 ^
b100 s"
b1111111101101100 4
b1111111101101100 M
b1 L
b1100 B
b11111111111111111111111111011011 K
b11111111111111111111111111011011 D
1A
1[
1!
#725000
0A
0[
0!
#737500
b11111011100 O
b11111011100 "
b11111011100 U
b11111011100 0"
b11111011100 P
b1 s"
1d"
1+
b1101 &"
b1101 ]
b1101 7"
b1101 a"
b1101 i"
b1101 #
b1101 ^
b1101 %"
b1101 \
b1101 6"
b1101 Y"
b1101 $
b1101 _
b1 L
b1101 B
b1111111101110000 4
b1111111101110000 M
0_"
0p
b11111111111111111111111111011100 K
b11111111111111111111111111011100 D
1A
1[
1!
#750000
0A
0[
0!
#762500
b11111011101 O
b11111011101 "
b11111011101 U
b11111011101 0"
b11111011101 P
b1110 %"
b1110 \
b1110 6"
b1110 Y"
b1110 $
b1110 _
b1110 &"
b1110 ]
b1110 7"
b1110 a"
b1110 i"
b1110 #
b1110 ^
b10 s"
b1111111101110100 4
b1111111101110100 M
b1 L
b1110 B
b11111111111111111111111111011101 K
b11111111111111111111111111011101 D
1A
1[
1!
#775000
0A
0[
0!
#787500
b11111011110 O
b11111011110 "
b11111011110 U
b11111011110 0"
b11111011110 P
b11 s"
b1111 &"
b1111 ]
b1111 7"
b1111 a"
b1111 i"
b1111 #
b1111 ^
b1111 %"
b1111 \
b1111 6"
b1111 Y"
b1111 $
b1111 _
b1 L
b1111 B
b1111111101111000 4
b1111111101111000 M
b11111111111111111111111111011110 K
b11111111111111111111111111011110 D
1A
1[
1!
#800000
0A
0[
0!
#812500
b11111011111 O
b11111011111 "
b11111011111 U
b11111011111 0"
b11111011111 P
b10000 %"
b10000 \
b10000 6"
b10000 Y"
b10000 $
b10000 _
b10000 &"
b10000 ]
b10000 7"
b10000 a"
b10000 i"
b10000 #
b10000 ^
b100 s"
b1111111101111100 4
b1111111101111100 M
b1 L
b10000 B
b11111111111111111111111111011111 K
b11111111111111111111111111011111 D
1A
1[
1!
#825000
0A
0[
0!
#837500
b11111100000 O
b11111100000 "
b11111100000 U
b11111100000 0"
b11111100000 P
b1 s"
0d"
0+
b1 g"
b1001111100000000 f"
b10001 &"
b10001 ]
b10001 7"
b10001 a"
b10001 i"
b10001 #
b10001 ^
b10001 %"
b10001 \
b10001 6"
b10001 Y"
b10001 $
b10001 _
b1 L
b10001 B
b1111111110000000 4
b1111111110000000 M
b11111111111111111111111111100000 K
b11111111111111111111111111100000 D
1A
1[
1!
#850000
0A
0[
0!
#862500
b11111100001 O
b11111100001 "
b11111100001 U
b11111100001 0"
b11111100001 P
b10010 %"
b10010 \
b10010 6"
b10010 Y"
b10010 $
b10010 _
b10010 &"
b10010 ]
b10010 7"
b10010 a"
b10010 i"
b10010 #
b10010 ^
b10 s"
b1111111110000100 4
b1111111110000100 M
b1 L
b10010 B
b11111111111111111111111111100001 K
b11111111111111111111111111100001 D
1A
1[
1!
#875000
0A
0[
0!
#887500
b11111100010 O
b11111100010 "
b11111100010 U
b11111100010 0"
b11111100010 P
b11 s"
b10011 &"
b10011 ]
b10011 7"
b10011 a"
b10011 i"
b10011 #
b10011 ^
b10011 %"
b10011 \
b10011 6"
b10011 Y"
b10011 $
b10011 _
b1 L
b10011 B
b1111111110001000 4
b1111111110001000 M
b11111111111111111111111111100010 K
b11111111111111111111111111100010 D
1A
1[
1!
#900000
0A
0[
0!
#912500
b11111100011 O
b11111100011 "
b11111100011 U
b11111100011 0"
b11111100011 P
b10100 %"
b10100 \
b10100 6"
b10100 Y"
b10100 $
b10100 _
b10100 &"
b10100 ]
b10100 7"
b10100 a"
b10100 i"
b10100 #
b10100 ^
b100 s"
b1111111110001100 4
b1111111110001100 M
b1 L
b10100 B
b11111111111111111111111111100011 K
b11111111111111111111111111100011 D
1A
1[
1!
#925000
0A
0[
0!
#937500
b11111100100 O
b11111100100 "
b11111100100 U
b11111100100 0"
b11111100100 P
b1 s"
1d"
1+
b10101 &"
b10101 ]
b10101 7"
b10101 a"
b10101 i"
b10101 #
b10101 ^
b10101 %"
b10101 \
b10101 6"
b10101 Y"
b10101 $
b10101 _
b1 L
b10101 B
b1111111110010000 4
b1111111110010000 M
b11111111111111111111111111100100 K
b11111111111111111111111111100100 D
1A
1[
1!
#950000
0A
0[
0!
#962500
b11111100101 O
b11111100101 "
b11111100101 U
b11111100101 0"
b11111100101 P
b10110 %"
b10110 \
b10110 6"
b10110 Y"
b10110 $
b10110 _
b10110 &"
b10110 ]
b10110 7"
b10110 a"
b10110 i"
b10110 #
b10110 ^
b10 s"
b1111111110010100 4
b1111111110010100 M
b1 L
b10110 B
b11111111111111111111111111100101 K
b11111111111111111111111111100101 D
1A
1[
1!
#975000
0A
0[
0!
#987500
b11111100110 O
b11111100110 "
b11111100110 U
b11111100110 0"
b11111100110 P
b11 s"
b10111 &"
b10111 ]
b10111 7"
b10111 a"
b10111 i"
b10111 #
b10111 ^
b10111 %"
b10111 \
b10111 6"
b10111 Y"
b10111 $
b10111 _
b1 L
b10111 B
b1111111110011000 4
b1111111110011000 M
b11111111111111111111111111100110 K
b11111111111111111111111111100110 D
1A
1[
1!
#1000000
0A
0[
0!
#1012500
b11111100111 O
b11111100111 "
b11111100111 U
b11111100111 0"
b11111100111 P
b11000 %"
b11000 \
b11000 6"
b11000 Y"
b11000 $
b11000 _
b11000 &"
b11000 ]
b11000 7"
b11000 a"
b11000 i"
b11000 #
b11000 ^
b100 s"
b1111111110011100 4
b1111111110011100 M
b1 L
b11000 B
b11111111111111111111111111100111 K
b11111111111111111111111111100111 D
1A
1[
1!
#1025000
0A
0[
0!
#1037500
0-
b11111101000 O
b11111101000 "
b11111101000 U
b11111101000 0"
b11111101000 P
b1 s"
0d"
0+
b10 g"
b11111000000000 f"
b11001 &"
b11001 ]
b11001 7"
b11001 a"
b11001 i"
b11001 #
b11001 ^
b11001 %"
b11001 \
b11001 6"
b11001 Y"
b11001 $
b11001 _
b1 L
b11001 B
b1111111110100000 4
b1111111110100000 M
b11111111111111111111111111101000 K
b11111111111111111111111111101000 D
1A
1[
1!
#1050000
0A
0[
0!
#1062500
b11111101001 O
b11111101001 "
b11111101001 U
b11111101001 0"
b11111101001 P
b11010 %"
b11010 \
b11010 6"
b11010 Y"
b11010 $
b11010 _
b11010 &"
b11010 ]
b11010 7"
b11010 a"
b11010 i"
b11010 #
b11010 ^
b10 s"
b1111111110100100 4
b1111111110100100 M
b1 L
b11010 B
b11111111111111111111111111101001 K
b11111111111111111111111111101001 D
1A
1[
1!
#1075000
0A
0[
0!
#1087500
b11111101010 O
b11111101010 "
b11111101010 U
b11111101010 0"
b11111101010 P
b11 s"
b11011 &"
b11011 ]
b11011 7"
b11011 a"
b11011 i"
b11011 #
b11011 ^
b11011 %"
b11011 \
b11011 6"
b11011 Y"
b11011 $
b11011 _
b1 L
b11011 B
b1111111110101000 4
b1111111110101000 M
b11111111111111111111111111101010 K
b11111111111111111111111111101010 D
1A
1[
1!
#1100000
0A
0[
0!
#1112500
b11111101011 O
b11111101011 "
b11111101011 U
b11111101011 0"
b11111101011 P
b11100 %"
b11100 \
b11100 6"
b11100 Y"
b11100 $
b11100 _
b11100 &"
b11100 ]
b11100 7"
b11100 a"
b11100 i"
b11100 #
b11100 ^
b100 s"
b1111111110101100 4
b1111111110101100 M
b1 L
b11100 B
b11111111111111111111111111101011 K
b11111111111111111111111111101011 D
1A
1[
1!
#1125000
0A
0[
0!
#1137500
b11111101100 O
b11111101100 "
b11111101100 U
b11111101100 0"
b11111101100 P
b1 s"
1d"
1+
b11101 &"
b11101 ]
b11101 7"
b11101 a"
b11101 i"
b11101 #
b11101 ^
b11101 %"
b11101 \
b11101 6"
b11101 Y"
b11101 $
b11101 _
b1 L
b11101 B
b1111111110110000 4
b1111111110110000 M
b11111111111111111111111111101100 K
b11111111111111111111111111101100 D
1A
1[
1!
#1150000
0A
0[
0!
#1162500
b11111101101 O
b11111101101 "
b11111101101 U
b11111101101 0"
b11111101101 P
b11110 %"
b11110 \
b11110 6"
b11110 Y"
b11110 $
b11110 _
b11110 &"
b11110 ]
b11110 7"
b11110 a"
b11110 i"
b11110 #
b11110 ^
b10 s"
b1111111110110100 4
b1111111110110100 M
b1 L
b11110 B
b11111111111111111111111111101101 K
b11111111111111111111111111101101 D
1A
1[
1!
#1175000
0A
0[
0!
#1187500
b11111101110 O
b11111101110 "
b11111101110 U
b11111101110 0"
b11111101110 P
b11 s"
b11111 &"
b11111 ]
b11111 7"
b11111 a"
b11111 i"
b11111 #
b11111 ^
b11111 %"
b11111 \
b11111 6"
b11111 Y"
b11111 $
b11111 _
b1 L
b11111 B
b1111111110111000 4
b1111111110111000 M
b11111111111111111111111111101110 K
b11111111111111111111111111101110 D
1A
1[
1!
#1200000
0A
0[
0!
#1212500
b11111101111 O
b11111101111 "
b11111101111 U
b11111101111 0"
b11111101111 P
b100000 %"
b100000 \
b100000 6"
b100000 Y"
b100000 $
b100000 _
b100000 &"
b100000 ]
b100000 7"
b100000 a"
b100000 i"
b100000 #
b100000 ^
b100 s"
b1111111110111100 4
b1111111110111100 M
b1 L
b100000 B
b11111111111111111111111111101111 K
b11111111111111111111111111101111 D
1A
1[
1!
#1225000
0A
0[
0!
#1237500
b11111110000 O
b11111110000 "
b11111110000 U
b11111110000 0"
b11111110000 P
b1 s"
0d"
0+
b11 g"
b111110000000000 f"
b100001 &"
b100001 ]
b100001 7"
b100001 a"
b100001 i"
b100001 #
b100001 ^
b100001 %"
b100001 \
b100001 6"
b100001 Y"
b100001 $
b100001 _
b1 L
b100001 B
b1111111111000000 4
b1111111111000000 M
b11111111111111111111111111110000 K
b11111111111111111111111111110000 D
1A
1[
1!
#1250000
0A
0[
0!
#1262500
b11111110001 O
b11111110001 "
b11111110001 U
b11111110001 0"
b11111110001 P
b100010 %"
b100010 \
b100010 6"
b100010 Y"
b100010 $
b100010 _
b100010 &"
b100010 ]
b100010 7"
b100010 a"
b100010 i"
b100010 #
b100010 ^
b10 s"
b1111111111000100 4
b1111111111000100 M
b1 L
b100010 B
b11111111111111111111111111110001 K
b11111111111111111111111111110001 D
1A
1[
1!
#1275000
0A
0[
0!
#1287500
b11111110010 O
b11111110010 "
b11111110010 U
b11111110010 0"
b11111110010 P
b11 s"
b100011 &"
b100011 ]
b100011 7"
b100011 a"
b100011 i"
b100011 #
b100011 ^
b100011 %"
b100011 \
b100011 6"
b100011 Y"
b100011 $
b100011 _
b1 L
b100011 B
b1111111111001000 4
b1111111111001000 M
b11111111111111111111111111110010 K
b11111111111111111111111111110010 D
1A
1[
1!
#1300000
0A
0[
0!
