sim/icarus/tb_fog_gyro_signal_modulation.vcd
$date
	Thu Apr 16 17:23:00 2026
$end
$version
	Icarus Verilog
$end
$timescale
	1ps
$end
$scope module tb_fog_gyro_signal_modulation $end
$var wire 1 ! adclk $end
$var wire 12 " adin_mapped [11:0] $end
$var wire 10 # counterN_dbg [9:0] $end
$var wire 9 $ counter_dbg [8:0] $end
$var wire 1 % daclk $end
$var wire 16 & daout [15:0] $end
$var wire 32 ' drotate_dbg [31:0] $end
$var wire 32 ( dvref_dbg [31:0] $end
$var wire 32 ) intsout_dbg [31:0] $end
$var wire 1 * ready $end
$var wire 1 + sdaclk $end
$var wire 1 , sdacs $end
$var wire 1 - sdaout $end
$var wire 1 . sn $end
$var wire 1 / sp $end
$var wire 2 0 state_dbg [1:0] $end
$var wire 12 1 tau_dbg [11:0] $end
$var wire 16 2 vref_word [15:0] $end
$var reg 16 3 ai0_raw [15:0] $end
$var reg 2 4 ai_map_mode [1:0] $end
$var integer 32 5 ao0_change_count [31:0] $end
$var integer 32 6 avg_seg1 [31:0] $end
$var integer 32 7 avg_seg2 [31:0] $end
$var integer 32 8 avg_state0 [31:0] $end
$var integer 32 9 avg_state1 [31:0] $end
$var integer 32 : avg_state2 [31:0] $end
$var integer 32 ; avg_state3 [31:0] $end
$var reg 8 < cfg_FBK [7:0] $end
$var reg 10 = cfg_N [9:0] $end
$var reg 14 > cfg_VDARef [13:0] $end
$var reg 1 ? cfg_apply $end
$var reg 1 @ clk $end
$var integer 32 A cycles_after_ready [31:0] $end
$var reg 16 B daout_prev [15:0] $end
$var integer 32 C drift_code [31:0] $end
$var integer 32 D errors [31:0] $end
$var integer 32 E gyro_code [31:0] $end
$var integer 32 F gyro_segment [31:0] $end
$var integer 32 G idx [31:0] $end
$var integer 32 H log_fd [31:0] $end
$var reg 1 I rst_n $end
$var integer 32 J signed_code [31:0] $end
$var integer 32 K state_seen_mask [31:0] $end
$scope module u_map $end
$var wire 16 L ai_raw [15:0] $end
$var wire 2 M map_mode [1:0] $end
$var reg 12 N adin [11:0] $end
$var reg 16 O mapped_tmp [15:0] $end
$upscope $end
$scope module dut $end
$var wire 8 P FBK [7:0] $end
$var wire 10 Q N [9:0] $end
$var wire 14 R VDARef [13:0] $end
$var wire 1 ! adclk $end
$var wire 12 S adin [11:0] $end
$var wire 8 T cfg_FBK [7:0] $end
$var wire 10 U cfg_N [9:0] $end
$var wire 14 V cfg_VDARef [13:0] $end
$var wire 1 W cfg_apply $end
$var wire 1 X clk $end
$var wire 9 Y counter [8:0] $end
$var wire 10 Z counterN [9:0] $end
$var wire 10 [ counterN_dbg [9:0] $end
$var wire 9 \ counter_dbg [8:0] $end
$var wire 32 ] dRotateOut [31:0] $end
$var wire 32 ^ dRotateOutFBK [31:0] $end
$var wire 32 _ dVrefOut [31:0] $end
$var wire 1 % daclk $end
$var wire 16 ` daout [15:0] $end
$var wire 32 a drotate_dbg [31:0] $end
$var wire 32 b dvref_dbg [31:0] $end
$var wire 1 c ena $end
$var wire 1 d intena $end
$var wire 1 e intena0 $end
$var wire 32 f intsout [31:0] $end
$var wire 32 g intsout_dbg [31:0] $end
$var wire 1 h ladena1 $end
$var wire 1 i ladena2 $end
$var wire 16 j pintout [15:0] $end
$var wire 1 k random $end
$var wire 1 * ready $end
$var wire 1 l rst_n $end
$var wire 1 m sdaSend $end
$var wire 1 + sdaclk $end
$var wire 1 , sdacs $end
$var wire 1 - sdaout $end
$var wire 1 . sn $end
$var wire 1 / sp $end
$var wire 2 n state [1:0] $end
$var wire 2 o state_dbg [1:0] $end
$var wire 1 p sys_rst $end
$var wire 12 q tauCounter [11:0] $end
$var wire 12 r tau_dbg [11:0] $end
$var wire 1 s updown $end
$var wire 16 t vref_word [15:0] $end
$var reg 8 u cfg_fbk_reg [7:0] $end
$var reg 10 v cfg_n_reg [9:0] $end
$var reg 2 w cfg_reset_hold [1:0] $end
$var reg 14 x cfg_vdaref_reg [13:0] $end
$scope module asrst_core $end
$var wire 1 X clk $end
$var wire 1 y rst_n $end
$var reg 1 z rst_nr1 $end
$var reg 1 { rst_nr2 $end
$upscope $end
$scope module gclk $end
$var wire 10 | N [9:0] $end
$var wire 1 ! adclk $end
$var wire 1 X clk $end
$var wire 1 c ena $end
$var wire 1 p rst $end
$var reg 9 } counter [8:0] $end
$var reg 10 ~ counterN [9:0] $end
$var reg 1 !" daclk $end
$var reg 1 "" daclk1 $end
$var reg 1 #" daclk2 $end
$var reg 1 $" intena $end
$var reg 1 %" intena0 $end
$var reg 1 &" ladena1 $end
$var reg 1 '" ladena2 $end
$var reg 2 (" state [1:0] $end
$upscope $end
$scope module dmt $end
$var wire 10 )" N [9:0] $end
$var wire 12 *" adin [11:0] $end
$var wire 1 X clk $end
$var wire 9 +" counter [8:0] $end
$var wire 10 ," counterN [9:0] $end
$var wire 1 c ena $end
$var wire 1 p rst $end
$var wire 2 -" state [1:0] $end
$var wire 12 ." tauCounter [11:0] $end
$var wire 1 s updown $end
$var reg 32 /" dRotateOut [31:0] $end
$var reg 32 0" dVrefOut [31:0] $end
$var reg 1 1" random $end
$var reg 1 2" randomPre $end
$upscope $end
$scope module dmk $end
$var wire 8 3" FBK [7:0] $end
$var wire 1 X clk $end
$var wire 24 4" dRotateOut24 [23:0] $end
$var wire 32 5" dRotateOutFBK [31:0] $end
$var wire 1 e intena0 $end
$var wire 33 6" mult_FBK [32:0] $end
$var wire 1 p rst $end
$var reg 33 7" mult_FBK_R [32:0] $end
$upscope $end
$scope module itg $end
$var wire 1 X clk $end
$var wire 32 8" dRotateOut [31:0] $end
$var wire 1 d intena $end
$var wire 1 p rst $end
$var wire 32 9" sum [31:0] $end
$var reg 32 :" intsout [31:0] $end
$upscope $end
$scope module ldp $end
$var wire 1 X clk $end
$var wire 1 h ladena1 $end
$var wire 1 i ladena2 $end
$var wire 32 ;" ladin [31:0] $end
$var wire 1 k random $end
$var wire 1 p rst $end
$var wire 2 <" state [1:0] $end
$var reg 16 =" ladout [15:0] $end
$var reg 32 >" ladreg [31:0] $end
$var reg 32 ?" ladtmp [31:0] $end
$var reg 12 @" tauCounter [11:0] $end
$var reg 1 A" updown $end
$upscope $end
$scope module pint $end
$var wire 10 B" N [9:0] $end
$var wire 14 C" VDARef [13:0] $end
$var wire 1 X clk $end
$var wire 9 D" counter [8:0] $end
$var wire 32 E" dVrefOut [31:0] $end
$var wire 1 c ena $end
$var wire 16 F" pintout [15:0] $end
$var wire 1 p rst $end
$var wire 2 G" state [1:0] $end
$var reg 16 H" pintoutpre [15:0] $end
$var reg 40 I" pintreg [39:0] $end
$var reg 1 J" sdaSend $end
$upscope $end
$scope module sdo $end
$var wire 10 K" N [9:0] $end
$var wire 1 X clk $end
$var wire 10 L" counterN [9:0] $end
$var wire 16 M" pintout [15:0] $end
$var wire 1 p rst $end
$var wire 1 m sdaSend $end
$var wire 1 - sdaout $end
$var reg 1 N" finish $end
$var reg 1 O" sdaclk $end
$var reg 1 P" sdacs $end
$var reg 16 Q" sdaoutbuf [15:0] $end
$var reg 4 R" shout_state [3:0] $end
$upscope $end
$scope module agowc $end
$var wire 1 X clk $end
$var wire 10 S" counterN [9:0] $end
$var wire 32 T" intsout [31:0] $end
$var wire 1 p rst $end
$var wire 40 U" sum1 [39:0] $end
$var wire 40 V" sum2 [39:0] $end
$var reg 40 W" anglereg [39:0] $end
$var reg 4 X" smallCounter [3:0] $end
$var reg 1 Y" sn $end
$var reg 1 Z" sp $end
$upscope $end
$upscope $end
$upscope $end
$enddefinitions $end
#0
$dumpvars
0Z"
0Y"
b0 X"
b0 W"
b1111111111111111110110001111000000000000 V"
b1001110001000000000000 U"
b0 T"
b0 S"
b0 R"
b0 Q"
1P"
0O"
1N"
bx M"
b0 L"
b10101010 K"
xJ"
bx I"
bx H"
b0 G"
bx F"
b0 E"
b0 D"
b11001111100000 C"
b10101010 B"
0A"
b0 @"
b0 ?"
b0 >"
b0 ="
b0 <"
b0 ;"
b0 :"
b0 9"
b0 8"
b0 7"
b0 6"
b0 5"
b0 4"
b1100100 3"
02"
01"
b0 0"
b0 /"
b0 ."
b0 -"
b0 ,"
b0 +"
b100000000000 *"
b10101010 )"
b0 ("
0'"
0&"
0%"
0$"
0#"
0""
0!"
b0 ~
b0 }
b10101010 |
0{
0z
0y
b11001111100000 x
b0 w
b10101010 v
b1100100 u
bx t
0s
b0 r
b0 q
0p
b0 o
b0 n
xm
0l
0k
bx j
0i
0h
b0 g
b0 f
0e
0d
1c
b0 b
b0 a
b0 `
b0 _
b0 ^
b0 ]
b0 \
b0 [
b0 Z
b0 Y
0X
0W
b11001111100000 V
b10101010 U
b1100100 T
b100000000000 S
b11001111100000 R
b10101010 Q
b1100100 P
b100000000000 O
b100000000000 N
b1 M
b0 L
b0 K
b0 J
0I
b10000000000000000000000000000011 H
b11 G
b0 F
b0 E
b0 D
b0 C
b0 B
b0 A
0@
0?
b11001111100000 >
b10101010 =
b1100100 <
b0 ;
b0 :
b0 9
b0 8
b0 7
b0 6
b0 5
b1 4
b0 3
bx 2
b0 1
b0 0
0/
0.
0-
1,
0+
0*
b0 )
b0 (
b0 '
b0 &
0%
b0 $
b0 #
b100000000000 "
0!
$end
#12500
b1100111110000000 j
b1100111110000000 F"
b1100111110000000 M"
b1100111110000000 2
b1100111110000000 t
1J"
1m
b0 H"
b1100111110000000000000000000000000000000 I"
1@
1X
1!
#25000
0@
0X
0!
#37500
1@
1X
1!
#50000
0@
0X
0!
#62500
1@
1X
1!
#75000
0@
0X
0!
#87500
1@
1X
1!
#100000
0@
0X
0!
1I
1l
#112500
b1 w
1@
1X
1!
#125000
0@
0X
0!
#137500
1y
b10 w
1@
1X
1!
#150000
0@
0X
0!
#162500
1z
b11 w
1@
1X
1!
#175000
0@
0X
0!
#187500
1{
1p
1*
1@
1X
1!
#200000
1#"
0@
0X
0!
#212500
1!"
1%
b11111010000 N
b11111010000 "
b11111010000 S
b11111010000 *"
b11111010000 O
1""
b1 ~
b1 Z
b1 ,"
b1 L"
b1 S"
b1 #
b1 [
b1 }
b1 Y
b1 +"
b1 D"
b1 $
b1 \
b1111111101000000 3
b1111111101000000 L
b1 K
b1 A
b11111111111111111111111111010000 J
b11111111111111111111111111010000 C
1@
1X
1!
#225000
0@
0X
0!
#237500
b11111010001 N
b11111010001 "
b11111010001 S
b11111010001 *"
b11111010001 O
b10 }
b10 Y
b10 +"
b10 D"
b10 $
b10 \
b10 ~
b10 Z
b10 ,"
b10 L"
b10 S"
b10 #
b10 [
b1 K
b10 A
b1111111101000100 3
b1111111101000100 L
b11111111111111111111111111010001 J
b11111111111111111111111111010001 C
1@
1X
1!
#250000
0@
0X
0!
#262500
b11111010010 N
b11111010010 "
b11111010010 S
b11111010010 *"
b11111010010 O
b11 ~
b11 Z
b11 ,"
b11 L"
b11 S"
b11 #
b11 [
b11 }
b11 Y
b11 +"
b11 D"
b11 $
b11 \
b1111111101001000 3
b1111111101001000 L
b1 K
b11 A
b11111111111111111111111111010010 J
b11111111111111111111111111010010 C
1@
1X
1!
#275000
0@
0X
0!
#287500
b11111010011 N
b11111010011 "
b11111010011 S
b11111010011 *"
b11111010011 O
b100 }
b100 Y
b100 +"
b100 D"
b100 $
b100 \
b100 ~
b100 Z
b100 ,"
b100 L"
b100 S"
b100 #
b100 [
b1 K
b100 A
b1111111101001100 3
b1111111101001100 L
1?
1W
b11111111111111111111111111010011 J
b11111111111111111111111111010011 C
1@
1X
1!
#300000
0@
0X
0!
#312500
0!"
0%
0""
0#"
0z
0{
0p
0*
0y
b11111010100 N
b11111010100 "
b11111010100 S
b11111010100 *"
b11111010100 O
b0 X"
b0 ~
b0 Z
b0 ,"
b0 L"
b0 S"
b0 #
b0 [
b0 }
b0 Y
b0 +"
b0 D"
b0 $
b0 \
b1111111101010000 3
b1111111101010000 L
b1 K
b101 A
b0 w
b11111111111111111111111111010100 J
b11111111111111111111111111010100 C
0?
0W
1@
1X
1!
#325000
0@
0X
0!
#337500
b100000000000 N
b100000000000 "
b100000000000 S
b100000000000 *"
b100000000000 O
b0 K
b0 A
b0 3
b0 L
b1 w
1@
1X
1!
#350000
0@
0X
0!
#362500
1y
b10 w
1@
1X
1!
#375000
0@
0X
0!
#387500
1z
b11 w
1@
1X
1!
#400000
0@
0X
0!
#412500
1{
1p
1*
1@
1X
1!
#425000
1#"
0@
0X
0!
#437500
1!"
1%
b11111010000 N
b11111010000 "
b11111010000 S
b11111010000 *"
b11111010000 O
1""
b1 ~
b1 Z
b1 ,"
b1 L"
b1 S"
b1 #
b1 [
b1 }
b1 Y
b1 +"
b1 D"
b1 $
b1 \
b1 K
b1 A
b1111111101000000 3
b1111111101000000 L
b11111111111111111111111111010000 J
b11111111111111111111111111010000 C
1@
1X
1!
#450000
0@
0X
0!
#462500
b11111010001 N
b11111010001 "
b11111010001 S
b11111010001 *"
b11111010001 O
b10 }
b10 Y
b10 +"
b10 D"
b10 $
b10 \
b10 ~
b10 Z
b10 ,"
b10 L"
b10 S"
b10 #
b10 [
b1111111101000100 3
b1111111101000100 L
b1 K
b10 A
b11111111111111111111111111010001 J
b11111111111111111111111111010001 C
1@
1X
1!
#475000
0@
0X
0!
#487500
b11111010010 N
b11111010010 "
b11111010010 S
b11111010010 *"
b11111010010 O
b11 ~
b11 Z
b11 ,"
b11 L"
b11 S"
b11 #
b11 [
b11 }
b11 Y
b11 +"
b11 D"
b11 $
b11 \
b1 K
b11 A
b1111111101001000 3
b1111111101001000 L
b11111111111111111111111111010010 J
b11111111111111111111111111010010 C
1@
1X
1!
#500000
0@
0X
0!
#512500
b11111010011 N
b11111010011 "
b11111010011 S
b11111010011 *"
b11111010011 O
b100 }
b100 Y
b100 +"
b100 D"
b100 $
b100 \
b100 ~
b100 Z
b100 ,"
b100 L"
b100 S"
b100 #
b100 [
b1111111101001100 3
b1111111101001100 L
b1 K
b100 A
b11111111111111111111111111010011 J
b11111111111111111111111111010011 C
1@
1X
1!
#525000
0@
0X
0!
#537500
b11111010100 N
b11111010100 "
b11111010100 S
b11111010100 *"
b11111010100 O
b1 X"
b101 ~
b101 Z
b101 ,"
b101 L"
b101 S"
b101 #
b101 [
b101 }
b101 Y
b101 +"
b101 D"
b101 $
b101 \
b1 K
b101 A
b1111111101010000 3
b1111111101010000 L
b11111111111111111111111111010100 J
b11111111111111111111111111010100 C
1@
1X
1!
#550000
0@
0X
0!
#562500
b11111010101 N
b11111010101 "
b11111010101 S
b11111010101 *"
b11111010101 O
b110 }
b110 Y
b110 +"
b110 D"
b110 $
b110 \
b110 ~
b110 Z
b110 ,"
b110 L"
b110 S"
b110 #
b110 [
b10 X"
b1111111101010100 3
b1111111101010100 L
b1 K
b110 A
b11111111111111111111111111010101 J
b11111111111111111111111111010101 C
1@
1X
1!
#575000
0@
0X
0!
#587500
b11111010110 N
b11111010110 "
b11111010110 S
b11111010110 *"
b11111010110 O
b11 X"
b111 ~
b111 Z
b111 ,"
b111 L"
b111 S"
b111 #
b111 [
b111 }
b111 Y
b111 +"
b111 D"
b111 $
b111 \
b1 K
b111 A
b1111111101011000 3
b1111111101011000 L
b11111111111111111111111111010110 J
b11111111111111111111111111010110 C
1@
1X
1!
#600000
0@
0X
0!
#612500
b11111010111 N
b11111010111 "
b11111010111 S
b11111010111 *"
b11111010111 O
b1000 }
b1000 Y
b1000 +"
b1000 D"
b1000 $
b1000 \
b1000 ~
b1000 Z
b1000 ,"
b1000 L"
b1000 S"
b1000 #
b1000 [
b100 X"
b1111111101011100 3
b1111111101011100 L
b1 K
b1000 A
b11111111111111111111111111010111 J
b11111111111111111111111111010111 C
1@
1X
1!
#625000
0@
0X
0!
#637500
1-
b11111011000 N
b11111011000 "
b11111011000 S
b11111011000 *"
b11111011000 O
b1 X"
0N"
0P"
0,
b1100111110000000 Q"
b1001 ~
b1001 Z
b1001 ,"
b1001 L"
b1001 S"
b1001 #
b1001 [
b1001 }
b1001 Y
b1001 +"
b1001 D"
b1001 $
b1001 \
b1 K
b1001 A
b1111111101100000 3
b1111111101100000 L
b11111111111111111111111111011000 J
b11111111111111111111111111011000 C
1@
1X
1!
#650000
0@
0X
0!
#662500
b11111011001 N
b11111011001 "
b11111011001 S
b11111011001 *"
b11111011001 O
b1010 }
b1010 Y
b1010 +"
b1010 D"
b1010 $
b1010 \
b1010 ~
b1010 Z
b1010 ,"
b1010 L"
b1010 S"
b1010 #
b1010 [
b10 X"
b1111111101100100 3
b1111111101100100 L
b1 K
b1010 A
b11111111111111111111111111011001 J
b11111111111111111111111111011001 C
1@
1X
1!
#675000
0@
0X
0!
#687500
b11111011010 N
b11111011010 "
b11111011010 S
b11111011010 *"
b11111011010 O
b11 X"
b1011 ~
b1011 Z
b1011 ,"
b1011 L"
b1011 S"
b1011 #
b1011 [
b1011 }
b1011 Y
b1011 +"
b1011 D"
b1011 $
b1011 \
b1 K
b1011 A
b1111111101101000 3
b1111111101101000 L
b11111111111111111111111111011010 J
b11111111111111111111111111011010 C
1@
1X
1!
#700000
0@
0X
0!
#712500
b11111011011 N
b11111011011 "
b11111011011 S
b11111011011 *"
b11111011011 O
b1100 }
b1100 Y
b1100 +"
b1100 D"
b1100 $
b1100 \
b1100 ~
b1100 Z
b1100 ,"
b1100 L"
b1100 S"
b1100 #
b1100 [
b100 X"
b1111111101101100 3
b1111111101101100 L
b1 K
b1100 A
b11111111111111111111111111011011 J
b11111111111111111111111111011011 C
1@
1X
1!
#725000
0@
0X
0!
#737500
b11111011100 N
b11111011100 "
b11111011100 S
b11111011100 *"
b11111011100 O
b1 X"
1O"
1+
b1101 ~
b1101 Z
b1101 ,"
b1101 L"
b1101 S"
b1101 #
b1101 [
b1101 }
b1101 Y
b1101 +"
b1101 D"
b1101 $
b1101 \
b1 K
b1101 A
b1111111101110000 3
b1111111101110000 L
0J"
0m
b11111111111111111111111111011100 J
b11111111111111111111111111011100 C
1@
1X
1!
#750000
0@
0X
0!
#762500
b11111011101 N
b11111011101 "
b11111011101 S
b11111011101 *"
b11111011101 O
b1110 }
b1110 Y
b1110 +"
b1110 D"
b1110 $
b1110 \
b1110 ~
b1110 Z
b1110 ,"
b1110 L"
b1110 S"
b1110 #
b1110 [
b10 X"
b1111111101110100 3
b1111111101110100 L
b1 K
b1110 A
b11111111111111111111111111011101 J
b11111111111111111111111111011101 C
1@
1X
1!
#775000
0@
0X
0!
#787500
b11111011110 N
b11111011110 "
b11111011110 S
b11111011110 *"
b11111011110 O
b11 X"
b1111 ~
b1111 Z
b1111 ,"
b1111 L"
b1111 S"
b1111 #
b1111 [
b1111 }
b1111 Y
b1111 +"
b1111 D"
b1111 $
b1111 \
b1 K
b1111 A
b1111111101111000 3
b1111111101111000 L
b11111111111111111111111111011110 J
b11111111111111111111111111011110 C
1@
1X
1!
#800000
0@
0X
0!
#812500
b11111011111 N
b11111011111 "
b11111011111 S
b11111011111 *"
b11111011111 O
b10000 }
b10000 Y
b10000 +"
b10000 D"
b10000 $
b10000 \
b10000 ~
b10000 Z
b10000 ,"
b10000 L"
b10000 S"
b10000 #
b10000 [
b100 X"
b1111111101111100 3
b1111111101111100 L
b1 K
b10000 A
b11111111111111111111111111011111 J
b11111111111111111111111111011111 C
1@
1X
1!
#825000
0@
0X
0!
#837500
b11111100000 N
b11111100000 "
b11111100000 S
b11111100000 *"
b11111100000 O
b1 X"
0O"
0+
b1 R"
b1001111100000000 Q"
b10001 ~
b10001 Z
b10001 ,"
b10001 L"
b10001 S"
b10001 #
b10001 [
b10001 }
b10001 Y
b10001 +"
b10001 D"
b10001 $
b10001 \
b1 K
b10001 A
b1111111110000000 3
b1111111110000000 L
b11111111111111111111111111100000 J
b11111111111111111111111111100000 C
1@
1X
1!
#850000
0@
0X
0!
#862500
b11111100001 N
b11111100001 "
b11111100001 S
b11111100001 *"
b11111100001 O
b10010 }
b10010 Y
b10010 +"
b10010 D"
b10010 $
b10010 \
b10010 ~
b10010 Z
b10010 ,"
b10010 L"
b10010 S"
b10010 #
b10010 [
b10 X"
b1111111110000100 3
b1111111110000100 L
b1 K
b10010 A
b11111111111111111111111111100001 J
b11111111111111111111111111100001 C
1@
1X
1!
#875000
0@
0X
0!
#887500
b11111100010 N
b11111100010 "
b11111100010 S
b11111100010 *"
b11111100010 O
b11 X"
b10011 ~
b10011 Z
b10011 ,"
b10011 L"
b10011 S"
b10011 #
b10011 [
b10011 }
b10011 Y
b10011 +"
b10011 D"
b10011 $
b10011 \
b1 K
b10011 A
b1111111110001000 3
b1111111110001000 L
b11111111111111111111111111100010 J
b11111111111111111111111111100010 C
1@
1X
1!
#900000
0@
0X
0!
#912500
b11111100011 N
b11111100011 "
b11111100011 S
b11111100011 *"
b11111100011 O
b10100 }
b10100 Y
b10100 +"
b10100 D"
b10100 $
b10100 \
b10100 ~
b10100 Z
b10100 ,"
b10100 L"
b10100 S"
b10100 #
b10100 [
b100 X"
b1111111110001100 3
b1111111110001100 L
b1 K
b10100 A
b11111111111111111111111111100011 J
b11111111111111111111111111100011 C
1@
1X
1!
#925000
0@
0X
0!
#937500
b11111100100 N
b11111100100 "
b11111100100 S
b11111100100 *"
b11111100100 O
b1 X"
1O"
1+
b10101 ~
b10101 Z
b10101 ,"
b10101 L"
b10101 S"
b10101 #
b10101 [
b10101 }
b10101 Y
b10101 +"
b10101 D"
b10101 $
b10101 \
b1 K
b10101 A
b1111111110010000 3
b1111111110010000 L
b11111111111111111111111111100100 J
b11111111111111111111111111100100 C
1@
1X
1!
#950000
0@
0X
0!
#962500
b11111100101 N
b11111100101 "
b11111100101 S
b11111100101 *"
b11111100101 O
b10110 }
b10110 Y
b10110 +"
b10110 D"
b10110 $
b10110 \
b10110 ~
b10110 Z
b10110 ,"
b10110 L"
b10110 S"
b10110 #
b10110 [
b10 X"
b1111111110010100 3
b1111111110010100 L
b1 K
b10110 A
b11111111111111111111111111100101 J
b11111111111111111111111111100101 C
1@
1X
1!
#975000
0@
0X
0!
#987500
b11111100110 N
b11111100110 "
b11111100110 S
b11111100110 *"
b11111100110 O
b11 X"
b10111 ~
b10111 Z
b10111 ,"
b10111 L"
b10111 S"
b10111 #
b10111 [
b10111 }
b10111 Y
b10111 +"
b10111 D"
b10111 $
b10111 \
b1 K
b10111 A
b1111111110011000 3
b1111111110011000 L
b11111111111111111111111111100110 J
b11111111111111111111111111100110 C
1@
1X
1!
#1000000
0@
0X
0!
#1012500
b11111100111 N
b11111100111 "
b11111100111 S
b11111100111 *"
b11111100111 O
b11000 }
b11000 Y
b11000 +"
b11000 D"
b11000 $
b11000 \
b11000 ~
b11000 Z
b11000 ,"
b11000 L"
b11000 S"
b11000 #
b11000 [
b100 X"
b1111111110011100 3
b1111111110011100 L
b1 K
b11000 A
b11111111111111111111111111100111 J
b11111111111111111111111111100111 C
1@
1X
1!
#1025000
0@
0X
0!
#1037500
0-
b11111101000 N
b11111101000 "
b11111101000 S
b11111101000 *"
b11111101000 O
b1 X"
0O"
0+
b10 R"
b11111000000000 Q"
b11001 ~
b11001 Z
b11001 ,"
b11001 L"
b11001 S"
b11001 #
b11001 [
b11001 }
b11001 Y
b11001 +"
b11001 D"
b11001 $
b11001 \
b1 K
b11001 A
b1111111110100000 3
b1111111110100000 L
b11111111111111111111111111101000 J
b11111111111111111111111111101000 C
1@
1X
1!
#1050000
0@
0X
0!
#1062500
b11111101001 N
b11111101001 "
b11111101001 S
b11111101001 *"
b11111101001 O
b11010 }
b11010 Y
b11010 +"
b11010 D"
b11010 $
b11010 \
b11010 ~
b11010 Z
b11010 ,"
b11010 L"
b11010 S"
b11010 #
b11010 [
b10 X"
b1111111110100100 3
b1111111110100100 L
b1 K
b11010 A
b11111111111111111111111111101001 J
b11111111111111111111111111101001 C
1@
1X
1!
#1075000
0@
0X
0!
#1087500
b11111101010 N
b11111101010 "
b11111101010 S
b11111101010 *"
b11111101010 O
b11 X"
b11011 ~
b11011 Z
b11011 ,"
b11011 L"
b11011 S"
b11011 #
b11011 [
b11011 }
b11011 Y
b11011 +"
b11011 D"
b11011 $
b11011 \
b1 K
b11011 A
b1111111110101000 3
b1111111110101000 L
b11111111111111111111111111101010 J
b11111111111111111111111111101010 C
1@
1X
1!
#1100000
0@
0X
0!
#1112500
b11111101011 N
b11111101011 "
b11111101011 S
b11111101011 *"
b11111101011 O
b11100 }
b11100 Y
b11100 +"
b11100 D"
b11100 $
b11100 \
b11100 ~
b11100 Z
b11100 ,"
b11100 L"
b11100 S"
b11100 #
b11100 [
b100 X"
b1111111110101100 3
b1111111110101100 L
b1 K
b11100 A
b11111111111111111111111111101011 J
b11111111111111111111111111101011 C
1@
1X
1!
#1125000
0@
0X
0!
#1137500
b11111101100 N
b11111101100 "
b11111101100 S
b11111101100 *"
b11111101100 O
b1 X"
1O"
1+
b11101 ~
b11101 Z
b11101 ,"
b11101 L"
b11101 S"
b11101 #
b11101 [
b11101 }
b11101 Y
b11101 +"
b11101 D"
b11101 $
b11101 \
b1 K
b11101 A
b1111111110110000 3
b1111111110110000 L
b11111111111111111111111111101100 J
b11111111111111111111111111101100 C
1@
1X
1!
#1150000
0@
0X
0!
#1162500
b11111101101 N
b11111101101 "
b11111101101 S
b11111101101 *"
b11111101101 O
b11110 }
b11110 Y
b11110 +"
b11110 D"
b11110 $
b11110 \
b11110 ~
b11110 Z
b11110 ,"
b11110 L"
b11110 S"
b11110 #
b11110 [
b10 X"
b1111111110110100 3
b1111111110110100 L
b1 K
b11110 A
b11111111111111111111111111101101 J
b11111111111111111111111111101101 C
1@
1X
1!
#1175000
0@
0X
0!
#1187500
b11111101110 N
b11111101110 "
b11111101110 S
b11111101110 *"
b11111101110 O
b11 X"
b11111 ~
b11111 Z
b11111 ,"
b11111 L"
b11111 S"
b11111 #
b11111 [
b11111 }
b11111 Y
b11111 +"
b11111 D"
b11111 $
b11111 \
b1 K
b11111 A
b1111111110111000 3
b1111111110111000 L
b11111111111111111111111111101110 J
b11111111111111111111111111101110 C
1@
1X
1!
#1200000
0@
0X
0!
#1212500
b11111101111 N
b11111101111 "
b11111101111 S
b11111101111 *"
b11111101111 O
b100000 }
b100000 Y
b100000 +"
b100000 D"
b100000 $
b100000 \
b100000 ~
b100000 Z
b100000 ,"
b100000 L"
b100000 S"
b100000 #
b100000 [
b100 X"
b1111111110111100 3
b1111111110111100 L
b1 K
b100000 A
b11111111111111111111111111101111 J
b11111111111111111111111111101111 C
1@
1X
1!
#1225000
0@
0X
0!
#1237500
b11111110000 N
b11111110000 "
b11111110000 S
b11111110000 *"
b11111110000 O
b1 X"
0O"
0+
b11 R"
b111110000000000 Q"
b100001 ~
b100001 Z
b100001 ,"
b100001 L"
b100001 S"
b100001 #
b100001 [
b100001 }
b100001 Y
b100001 +"
b100001 D"
b100001 $
b100001 \
b1 K
b100001 A
b1111111111000000 3
b1111111111000000 L
b11111111111111111111111111110000 J
b11111111111111111111111111110000 C
1@
1X
1!
#1250000
0@
0X
0!
#1262500
b11111110001 N
b11111110001 "
b11111110001 S
b11111110001 *"
b11111110001 O
b100010 }
b100010 Y
b100010 +"
b100010 D"
b100010 $
b100010 \
b100010 ~
b100010 Z
b100010 ,"
b100010 L"
b100010 S"
b100010 #
b100010 [
b10 X"
b1111111111000100 3
b1111111111000100 L
b1 K
b100010 A
b11111111111111111111111111110001 J
b11111111111111111111111111110001 C
1@
1X
1!
#1275000
0@
0X
0!
#1287500
b11111110010 N
b11111110010 "
b11111110010 S
b11111110010 *"
b11111110010 O
b11 X"
b100011 ~
b100011 Z
b100011 ,"
b100011 L"
b100011 S"
b100011 #
b100011 [
b100011 }
b100011 Y
b100011 +"
b100011 D"
b100011 $
b100011 \
b1 K
b100011 A
b1111111111001000 3
b1111111111001000 L
b11111111111111111111111111110010 J
b11111111111111111111111111110010 C
1@
1X
1!
#1300000
0@
0X
0!
#1312500
b11111110011 N
b11111110011 "
b11111110011 S
b11111110011 *"
b11111110011 O
b100100 }
b100100 Y
b100100 +"
b100100 D"
b100100 $
b100100 \
b100100 ~
b100100 Z
b100100 ,"
b100100 L"
b100100 S"
b100100 #
b100100 [
b100 X"
b1111111111001100 3
b1111111111001100 L
b1 K
b100100 A
b11111111111111111111111111110011 J
b11111111111111111111111111110011 C
1@
1X
1!
#1325000
0@
0X
0!
#1337500
b11111110100 N
b11111110100 "
b11111110100 S
b11111110100 *"
b11111110100 O
b1 X"
1O"
1+
b100101 ~
b100101 Z
b100101 ,"
b100101 L"
b100101 S"
b100101 #
b100101 [
b100101 }
b100101 Y
b100101 +"
b100101 D"
b100101 $
b100101 \
b1 K
b100101 A
b1111111111010000 3
b1111111111010000 L
b11111111111111111111111111110100 J
b11111111111111111111111111110100 C
1@
1X
1!
#1350000
0@
0X
0!
#1362500
b11111110101 N
b11111110101 "
b11111110101 S
b11111110101 *"
b11111110101 O
b100110 }
b100110 Y
b100110 +"
b100110 D"
b100110 $
b100110 \
b100110 ~
b100110 Z
b100110 ,"
b100110 L"
b100110 S"
b100110 #
b100110 [
b10 X"
b1111111111010100 3
b1111111111010100 L
b1 K
b100110 A
b11111111111111111111111111110101 J
b11111111111111111111111111110101 C
1@
1X
1!
#1375000
0@
0X
0!
#1387500
b11111110110 N
b11111110110 "
b11111110110 S
b11111110110 *"
b11111110110 O
b11 X"
b100111 ~
b100111 Z
b100111 ,"
b100111 L"
b100111 S"
b100111 #
b100111 [
b100111 }
b100111 Y
b100111 +"
b100111 D"
b100111 $
b100111 \
b1 K
b100111 A
b1111111111011000 3
b1111111111011000 L
b11111111111111111111111111110110 J
b11111111111111111111111111110110 C
1@
1X
1!
#1400000
0@
0X
0!
