sim/icarus/tb_fog_core_ni7966r_ni5781_lv_adapter.vcd
$date
	Mon May 11 13:20:17 2026
$end
$version
	Icarus Verilog
$end
$timescale
	1ps
$end
$scope module tb_fog_core_ni7966r_ni5781_lv_adapter $end
$var wire 12 ! adin_dbg [11:0] $end
$var wire 16 " ao0_raw [15:0] $end
$var wire 16 # sp_sn_value [15:0] $end
$var wire 2 $ state_dbg [1:0] $end
$var wire 1 % status_ready $end
$var reg 16 & ai0_raw [15:0] $end
$var reg 2 ' ai_map_mode [1:0] $end
$var integer 32 ( ao0_change_count [31:0] $end
$var reg 16 ) ao0_prev [15:0] $end
$var reg 8 * cfg_FBK [7:0] $end
$var reg 8 + cfg_FBK2 [7:0] $end
$var reg 10 , cfg_N [9:0] $end
$var reg 16 - cfg_V2Pai_mV [15:0] $end
$var reg 1 . cfg_apply $end
$var reg 1 / clk $end
$var integer 32 0 cycles_after_ready [31:0] $end
$var integer 32 1 errors [31:0] $end
$var reg 1 2 rst_n $end
$var integer 32 3 state_seen_mask [31:0] $end
$scope module dut $end
$var wire 1 4 adclk_unused $end
$var wire 12 5 adin_dbg [11:0] $end
$var wire 12 6 adin_mapped [11:0] $end
$var wire 16 7 ai0_raw [15:0] $end
$var wire 2 8 ai_map_mode [1:0] $end
$var wire 16 9 ao0_raw [15:0] $end
$var wire 49 : ao0_scaled_product [48:0] $end
$var wire 17 ; ao0_scaled_word [16:0] $end
$var wire 8 < cfg_FBK [7:0] $end
$var wire 8 = cfg_FBK2 [7:0] $end
$var wire 10 > cfg_N [9:0] $end
$var wire 16 ? cfg_V2Pai_mV [15:0] $end
$var wire 1 @ cfg_apply $end
$var wire 10 A cfg_n_safe [9:0] $end
$var wire 16 B cfg_v2pai_limited [15:0] $end
$var wire 14 C cfg_vdaref_code [13:0] $end
$var wire 32 D cfg_vdaref_scaled [31:0] $end
$var wire 1 E clk $end
$var wire 10 F counterN_dbg_unused [9:0] $end
$var wire 9 G counter_dbg_unused [8:0] $end
$var wire 1 H daclk_unused $end
$var wire 16 I daout_unscaled [15:0] $end
$var wire 32 J drotate_dbg_unused [31:0] $end
$var wire 32 K dvref_dbg_unused [31:0] $end
$var wire 32 L intsout_dbg_unused [31:0] $end
$var wire 1 M rst_n $end
$var wire 1 N sdaclk_unused $end
$var wire 1 O sdacs_unused $end
$var wire 1 P sdaout_unused $end
$var wire 1 Q sn_unused $end
$var wire 16 R sp_sn_value [15:0] $end
$var wire 1 S sp_unused $end
$var wire 2 T state_dbg [1:0] $end
$var wire 1 % status_ready $end
$var wire 12 U tau_dbg_unused [11:0] $end
$var wire 16 V vref_word [15:0] $end
$var reg 32 W ao0_vref_product_r [31:0] $end
$scope module u_ai_map $end
$var wire 16 X ai_raw [15:0] $end
$var wire 2 Y map_mode [1:0] $end
$var reg 12 Z adin [11:0] $end
$var reg 16 [ mapped_tmp [15:0] $end
$upscope $end
$scope module u_core $end
$var wire 8 \ FBK [7:0] $end
$var wire 8 ] FBK2 [7:0] $end
$var wire 10 ^ N [9:0] $end
$var wire 14 _ VDARef [13:0] $end
$var wire 1 4 adclk $end
$var wire 12 ` adin [11:0] $end
$var wire 8 a cfg_FBK [7:0] $end
$var wire 8 b cfg_FBK2 [7:0] $end
$var wire 10 c cfg_N [9:0] $end
$var wire 14 d cfg_VDARef [13:0] $end
$var wire 1 @ cfg_apply $end
$var wire 1 E clk $end
$var wire 9 e counter [8:0] $end
$var wire 10 f counterN [9:0] $end
$var wire 10 g counterN_dbg [9:0] $end
$var wire 9 h counter_dbg [8:0] $end
$var wire 32 i dRotateOut [31:0] $end
$var wire 32 j dRotateOutFBK [31:0] $end
$var wire 32 k dVrefOut [31:0] $end
$var wire 1 H daclk $end
$var wire 16 l daout [15:0] $end
$var wire 32 m drotate_dbg [31:0] $end
$var wire 32 n dvref_dbg [31:0] $end
$var wire 1 o ena $end
$var wire 1 p intena $end
$var wire 1 q intena0 $end
$var wire 32 r intsout [31:0] $end
$var wire 32 s intsout_dbg [31:0] $end
$var wire 1 t ladena1 $end
$var wire 1 u ladena2 $end
$var wire 16 v pintout [15:0] $end
$var wire 1 w random $end
$var wire 1 % ready $end
$var wire 1 M rst_n $end
$var wire 1 x sdaSend $end
$var wire 1 N sdaclk $end
$var wire 1 O sdacs $end
$var wire 1 P sdaout $end
$var wire 1 Q sn $end
$var wire 1 S sp $end
$var wire 16 y sp_sn_value [15:0] $end
$var wire 2 z state [1:0] $end
$var wire 2 { state_dbg [1:0] $end
$var wire 1 | sys_rst $end
$var wire 12 } tauCounter [11:0] $end
$var wire 12 ~ tau_dbg [11:0] $end
$var wire 1 !" unused_fbk2 $end
$var wire 1 "" updown $end
$var wire 16 #" vref_word [15:0] $end
$var reg 8 $" cfg_fbk2_reg [7:0] $end
$var reg 8 %" cfg_fbk_reg [7:0] $end
$var reg 10 &" cfg_n_reg [9:0] $end
$var reg 2 '" cfg_reset_hold [1:0] $end
$var reg 14 (" cfg_vdaref_reg [13:0] $end
$scope module asrst_core $end
$var wire 1 E clk $end
$var wire 1 )" rst_n $end
$var reg 1 *" rst_nr1 $end
$var reg 1 +" rst_nr2 $end
$upscope $end
$scope module gclk $end
$var wire 10 ," N [9:0] $end
$var wire 1 4 adclk $end
$var wire 1 E clk $end
$var wire 1 o ena $end
$var wire 1 | rst $end
$var reg 9 -" counter [8:0] $end
$var reg 10 ." counterN [9:0] $end
$var reg 1 /" daclk $end
$var reg 1 0" daclk1 $end
$var reg 1 1" daclk2 $end
$var reg 1 2" intena $end
$var reg 1 3" intena0 $end
$var reg 1 4" ladena1 $end
$var reg 1 5" ladena2 $end
$var reg 2 6" state [1:0] $end
$upscope $end
$scope module dmt $end
$var wire 10 7" N [9:0] $end
$var wire 12 8" adin [11:0] $end
$var wire 8 9" cfg_delay1 [7:0] $end
$var wire 8 :" cfg_delay2 [7:0] $end
$var wire 8 ;" cfg_delayAD [7:0] $end
$var wire 8 <" cfg_reserveN [7:0] $end
$var wire 12 =" cfg_sft_pd [11:0] $end
$var wire 1 E clk $end
$var wire 9 >" counter [8:0] $end
$var wire 10 ?" counterN [9:0] $end
$var wire 10 @" delay1w [9:0] $end
$var wire 10 A" delay2w [9:0] $end
$var wire 10 B" delayADw [9:0] $end
$var wire 10 C" delaySum [9:0] $end
$var wire 1 o ena $end
$var wire 10 D" halfN [9:0] $end
$var wire 10 E" reserveNw [9:0] $end
$var wire 1 | rst $end
$var wire 2 F" state [1:0] $end
$var wire 12 G" tauCounter [11:0] $end
$var wire 1 "" updown $end
$var reg 32 H" dRotateOut [31:0] $end
$var reg 32 I" dVrefOut [31:0] $end
$var reg 1 J" random $end
$var reg 1 K" randomPre $end
$upscope $end
$scope module dmk $end
$var wire 8 L" FBK [7:0] $end
$var wire 1 E clk $end
$var wire 24 M" dRotateOut24 [23:0] $end
$var wire 32 N" dRotateOutFBK [31:0] $end
$var wire 1 q intena0 $end
$var wire 33 O" mult_FBK [32:0] $end
$var wire 1 | rst $end
$var reg 33 P" mult_FBK_R [32:0] $end
$upscope $end
$scope module itg $end
$var wire 1 E clk $end
$var wire 32 Q" dRotateOut [31:0] $end
$var wire 1 p intena $end
$var wire 1 | rst $end
$var wire 32 R" sum [31:0] $end
$var reg 32 S" intsout [31:0] $end
$upscope $end
$scope module ldp $end
$var wire 16 T" cfg_PI [15:0] $end
$var wire 16 U" cfg_PIb [15:0] $end
$var wire 16 V" cfg_PIbpPI [15:0] $end
$var wire 12 W" cfg_sft_pd [11:0] $end
$var wire 1 E clk $end
$var wire 1 t ladena1 $end
$var wire 1 u ladena2 $end
$var wire 32 X" ladin [31:0] $end
$var wire 1 w random $end
$var wire 1 | rst $end
$var wire 2 Y" state [1:0] $end
$var reg 16 Z" ladout [15:0] $end
$var reg 32 [" ladreg [31:0] $end
$var reg 32 \" ladtmp [31:0] $end
$var reg 12 ]" tauCounter [11:0] $end
$var reg 1 ^" updown $end
$upscope $end
$scope module pint $end
$var wire 10 _" N [9:0] $end
$var wire 14 `" VDARef [13:0] $end
$var wire 1 E clk $end
$var wire 9 a" counter [8:0] $end
$var wire 32 b" dVrefOut [31:0] $end
$var wire 1 o ena $end
$var wire 16 c" pintout [15:0] $end
$var wire 1 | rst $end
$var wire 2 d" state [1:0] $end
$var reg 16 e" pintoutpre [15:0] $end
$var reg 40 f" pintreg [39:0] $end
$var reg 1 g" sdaSend $end
$upscope $end
$scope module sdo $end
$var wire 10 h" N [9:0] $end
$var wire 1 E clk $end
$var wire 10 i" counterN [9:0] $end
$var wire 16 j" pintout [15:0] $end
$var wire 1 | rst $end
$var wire 1 x sdaSend $end
$var wire 1 P sdaout $end
$var reg 1 k" finish $end
$var reg 1 l" sdaclk $end
$var reg 1 m" sdacs $end
$var reg 16 n" sdaoutbuf [15:0] $end
$var reg 4 o" shout_state [3:0] $end
$upscope $end
$scope module agowc $end
$var wire 10 p" N [9:0] $end
$var wire 1 E clk $end
$var wire 10 q" counterN [9:0] $end
$var wire 32 r" intsout [31:0] $end
$var wire 4 s" pulseWidthSafe [3:0] $end
$var wire 8 t" pulseWidthTwice [7:0] $end
$var wire 10 u" pulseWindowLimit [9:0] $end
$var wire 32 v" pulse_k [31:0] $end
$var wire 4 w" pulse_width [3:0] $end
$var wire 1 | rst $end
$var wire 40 x" sum1 [39:0] $end
$var wire 40 y" sum2 [39:0] $end
$var reg 40 z" anglereg [39:0] $end
$var reg 8 {" smallCounter [7:0] $end
$var reg 1 |" sn $end
$var reg 1 }" sp $end
$upscope $end
$upscope $end
$upscope $end
$upscope $end
$enddefinitions $end
#0
$dumpvars
0}"
0|"
b0 {"
b0 z"
b1111111111111111110110001111000000000000 y"
b1001110001000000000000 x"
b10 w"
b1001110001000000000000 v"
b10100110 u"
b100 t"
b10 s"
b0 r"
b0 q"
b10101010 p"
b0 o"
b0 n"
1m"
0l"
1k"
bx j"
b0 i"
b10101010 h"
xg"
bx f"
bx e"
b0 d"
bx c"
b0 b"
b0 a"
b10111000010100 `"
b10101010 _"
0^"
b0 ]"
b0 \"
b0 ["
b0 Z"
b0 Y"
b0 X"
b111111111111 W"
b100001000010 V"
b101101011010110 U"
b101001010010100 T"
b0 S"
b0 R"
b0 Q"
b0 P"
b0 O"
b0 N"
b0 M"
b1100100 L"
0K"
0J"
b0 I"
b0 H"
b0 G"
b0 F"
b111 E"
b1010101 D"
b101000 C"
b1000 B"
b10010 A"
b100000 @"
b0 ?"
b0 >"
b111111111111 ="
b111 <"
b1000 ;"
b10010 :"
b100000 9"
b100000000000 8"
b10101010 7"
b0 6"
05"
04"
03"
02"
01"
00"
0/"
b0 ."
b0 -"
b10101010 ,"
0+"
0*"
0)"
b10111000010100 ("
b0 '"
b10101010 &"
b1100100 %"
b100000 $"
bx #"
0""
1!"
b0 ~
b0 }
0|
b0 {
b0 z
b0 y
xx
0w
bx v
0u
0t
b0 s
b0 r
0q
0p
1o
b0 n
b0 m
b0 l
b0 k
b0 j
b0 i
b0 h
b0 g
b0 f
b0 e
b10111000010100 d
b10101010 c
b100000 b
b1100100 a
b100000000000 `
b10111000010100 _
b10101010 ^
b100000 ]
b1100100 \
b100000000000 [
b100000000000 Z
b1 Y
b0 X
b0 W
bx V
b0 U
b0 T
0S
b0 R
0Q
0P
1O
0N
0M
b0 L
b0 K
b0 J
b0 I
0H
b0 G
b0 F
0E
b10111000010100010011010000 D
b10111000010100 C
b11100001000 B
b10101010 A
0@
b11100001000 ?
b10101010 >
b100000 =
b1100100 <
b0 ;
b1000000000000000000000000000000 :
b0 9
b1 8
b0 7
b100000000000 6
b100000000000 5
04
b0 3
02
b0 1
b0 0
0/
0.
b11100001000 -
b10101010 ,
b100000 +
b1100100 *
b0 )
b0 (
b1 '
b0 &
0%
b0 $
b0 #
b0 "
b100000000000 !
$end
#12500
b1011100001010000 v
b1011100001010000 c"
b1011100001010000 j"
b1011100001010000 V
b1011100001010000 #"
1g"
1x
b0 e"
b1011100001010000000000000000000000000000 f"
1/
1E
14
#25000
0/
0E
04
#37500
1/
1E
14
#50000
0/
0E
04
#62500
1/
1E
14
#75000
0/
0E
04
#87500
1/
1E
14
#100000
0/
0E
04
12
1M
#112500
b100000010000 Z
b100000010000 6
b100000010000 `
b100000010000 8"
b100000010000 !
b100000010000 5
b100000010000 [
b1000000 &
b1000000 7
b1000000 X
b1 '"
1/
1E
14
#125000
0/
0E
04
#137500
1)"
b100000100000 Z
b100000100000 6
b100000100000 `
b100000100000 8"
b100000100000 !
b100000100000 5
b100000100000 [
b10000000 &
b10000000 7
b10000000 X
b10 '"
1/
1E
14
#150000
0/
0E
04
#162500
b100000110000 Z
b100000110000 6
b100000110000 `
b100000110000 8"
b100000110000 !
b100000110000 5
b100000110000 [
b11000000 &
b11000000 7
b11000000 X
1*"
b11 '"
1/
1E
14
#175000
0/
0E
04
#187500
b100001000000 Z
b100001000000 6
b100001000000 `
b100001000000 8"
b100001000000 !
b100001000000 5
b100001000000 [
b100000000 &
b100000000 7
b100000000 X
1+"
1|
1%
1/
1E
14
#200000
11"
0/
0E
04
#212500
1/"
1H
b100001010000 Z
b100001010000 6
b100001010000 `
b100001010000 8"
b100001010000 !
b100001010000 5
b100001010000 [
10"
b1 ."
b1 f
b1 ?"
b1 i"
b1 q"
b1 F
b1 g
b1 -"
b1 e
b1 >"
b1 a"
b1 G
b1 h
b101000000 &
b101000000 7
b101000000 X
b1 3
b1 0
1/
1E
14
#225000
0/
0E
04
#237500
b100001100000 Z
b100001100000 6
b100001100000 `
b100001100000 8"
b100001100000 !
b100001100000 5
b100001100000 [
b10 -"
b10 e
b10 >"
b10 a"
b10 G
b10 h
b10 ."
b10 f
b10 ?"
b10 i"
b10 q"
b10 F
b10 g
b1 3
b10 0
b110000000 &
b110000000 7
b110000000 X
1/
1E
14
#250000
0/
0E
04
#262500
b100001110000 Z
b100001110000 6
b100001110000 `
b100001110000 8"
b100001110000 !
b100001110000 5
b100001110000 [
b11 ."
b11 f
b11 ?"
b11 i"
b11 q"
b11 F
b11 g
b11 -"
b11 e
b11 >"
b11 a"
b11 G
b11 h
b111000000 &
b111000000 7
b111000000 X
b1 3
b11 0
1/
1E
14
#275000
0/
0E
04
#287500
b100010000000 Z
b100010000000 6
b100010000000 `
b100010000000 8"
b100010000000 !
b100010000000 5
b100010000000 [
b100 -"
b100 e
b100 >"
b100 a"
b100 G
b100 h
b100 ."
b100 f
b100 ?"
b100 i"
b100 q"
b100 F
b100 g
b1 3
b100 0
b1000000000 &
b1000000000 7
b1000000000 X
b1111111110 A
b1111111110 c
1.
1@
b1111111111 ,
b1111111111 >
1/
1E
14
#300000
0/
0E
04
#312500
0/"
0H
00"
01"
0*"
0+"
0|
0%
0)"
b100010010000 Z
b100010010000 6
b100010010000 `
b100010010000 8"
b100010010000 !
b100010010000 5
b100010010000 [
b111111111 D"
b1111111010 u"
b0 {"
b0 ."
b0 f
b0 ?"
b0 i"
b0 q"
b0 F
b0 g
b0 -"
b0 e
b0 >"
b0 a"
b0 G
b0 h
b1001000000 &
b1001000000 7
b1001000000 X
b1 3
b101 0
b0 '"
b1111111110 &"
b1111111110 ^
b1111111110 ,"
b1111111110 7"
b1111111110 _"
b1111111110 h"
b1111111110 p"
0.
0@
1/
1E
14
#325000
0/
0E
04
#337500
b100010100000 Z
b100010100000 6
b100010100000 `
b100010100000 8"
b100010100000 !
b100010100000 5
b100010100000 [
b0 3
b0 0
b1010000000 &
b1010000000 7
b1010000000 X
b1 '"
1/
1E
14
#350000
0/
0E
04
#362500
1)"
b100010110000 Z
b100010110000 6
b100010110000 `
b100010110000 8"
b100010110000 !
b100010110000 5
b100010110000 [
b1011000000 &
b1011000000 7
b1011000000 X
b10 '"
1/
1E
14
#375000
0/
0E
04
#387500
b100011000000 Z
b100011000000 6
b100011000000 `
b100011000000 8"
b100011000000 !
b100011000000 5
b100011000000 [
b1100000000 &
b1100000000 7
b1100000000 X
1*"
b11 '"
1/
1E
14
#400000
0/
0E
04
#412500
b100011010000 Z
b100011010000 6
b100011010000 `
b100011010000 8"
b100011010000 !
b100011010000 5
b100011010000 [
b1101000000 &
b1101000000 7
b1101000000 X
1+"
1|
1%
1/
1E
14
#425000
11"
0/
0E
04
#437500
1/"
1H
b100011100000 Z
b100011100000 6
b100011100000 `
b100011100000 8"
b100011100000 !
b100011100000 5
b100011100000 [
10"
b1 ."
b1 f
b1 ?"
b1 i"
b1 q"
b1 F
b1 g
b1 -"
b1 e
b1 >"
b1 a"
b1 G
b1 h
b1 3
b1 0
b1110000000 &
b1110000000 7
b1110000000 X
1/
1E
14
#450000
0/
0E
04
#462500
b100011110000 Z
b100011110000 6
b100011110000 `
b100011110000 8"
b100011110000 !
b100011110000 5
b100011110000 [
b10 -"
b10 e
b10 >"
b10 a"
b10 G
b10 h
b10 ."
b10 f
b10 ?"
b10 i"
b10 q"
b10 F
b10 g
b1111000000 &
b1111000000 7
b1111000000 X
b1 3
b10 0
1/
1E
14
#475000
0/
0E
04
#487500
b100100000000 Z
b100100000000 6
b100100000000 `
b100100000000 8"
b100100000000 !
b100100000000 5
b100100000000 [
b11 ."
b11 f
b11 ?"
b11 i"
b11 q"
b11 F
b11 g
b11 -"
b11 e
b11 >"
b11 a"
b11 G
b11 h
b1 3
b11 0
b10000000000 &
b10000000000 7
b10000000000 X
1/
1E
14
#500000
0/
0E
04
#512500
b100100010000 Z
b100100010000 6
b100100010000 `
b100100010000 8"
b100100010000 !
b100100010000 5
b100100010000 [
b100 -"
b100 e
b100 >"
b100 a"
b100 G
b100 h
b100 ."
b100 f
b100 ?"
b100 i"
b100 q"
b100 F
b100 g
b10001000000 &
b10001000000 7
b10001000000 X
b1 3
b100 0
1/
1E
14
#525000
0/
0E
04
#537500
b100100100000 Z
b100100100000 6
b100100100000 `
b100100100000 8"
b100100100000 !
b100100100000 5
b100100100000 [
b1 {"
b101 ."
b101 f
b101 ?"
b101 i"
b101 q"
b101 F
b101 g
b101 -"
b101 e
b101 >"
b101 a"
b101 G
b101 h
b1 3
b101 0
b10010000000 &
b10010000000 7
b10010000000 X
1/
1E
14
#550000
0/
0E
04
#562500
b100100110000 Z
b100100110000 6
b100100110000 `
b100100110000 8"
b100100110000 !
b100100110000 5
b100100110000 [
b110 -"
b110 e
b110 >"
b110 a"
b110 G
b110 h
b110 ."
b110 f
b110 ?"
b110 i"
b110 q"
b110 F
b110 g
b10 {"
b10011000000 &
b10011000000 7
b10011000000 X
b1 3
b110 0
1/
1E
14
#575000
0/
0E
04
#587500
b100101000000 Z
b100101000000 6
b100101000000 `
b100101000000 8"
b100101000000 !
b100101000000 5
b100101000000 [
b11 {"
b111 ."
b111 f
b111 ?"
b111 i"
b111 q"
b111 F
b111 g
b111 -"
b111 e
b111 >"
b111 a"
b111 G
b111 h
b1 3
b111 0
b10100000000 &
b10100000000 7
b10100000000 X
1/
1E
14
#600000
0/
0E
04
#612500
b100101010000 Z
b100101010000 6
b100101010000 `
b100101010000 8"
b100101010000 !
b100101010000 5
b100101010000 [
b1000 -"
b1000 e
b1000 >"
b1000 a"
b1000 G
b1000 h
b1000 ."
b1000 f
b1000 ?"
b1000 i"
b1000 q"
b1000 F
b1000 g
b100 {"
b10101000000 &
b10101000000 7
b10101000000 X
b1 3
b1000 0
1/
1E
14
#625000
0/
0E
04
#637500
1P
b100101100000 Z
b100101100000 6
b100101100000 `
b100101100000 8"
b100101100000 !
b100101100000 5
b100101100000 [
b1 {"
0k"
0m"
0O
b1011100001010000 n"
b1001 ."
b1001 f
b1001 ?"
b1001 i"
b1001 q"
b1001 F
b1001 g
b1001 -"
b1001 e
b1001 >"
b1001 a"
b1001 G
b1001 h
b1 3
b1001 0
b10110000000 &
b10110000000 7
b10110000000 X
1/
1E
14
#650000
0/
0E
04
#662500
b100101110000 Z
b100101110000 6
b100101110000 `
b100101110000 8"
b100101110000 !
b100101110000 5
b100101110000 [
b1010 -"
b1010 e
b1010 >"
b1010 a"
b1010 G
b1010 h
b1010 ."
b1010 f
b1010 ?"
b1010 i"
b1010 q"
b1010 F
b1010 g
b10 {"
b10111000000 &
b10111000000 7
b10111000000 X
b1 3
b1010 0
1/
1E
14
#675000
0/
0E
04
#687500
b100110000000 Z
b100110000000 6
b100110000000 `
b100110000000 8"
b100110000000 !
b100110000000 5
b100110000000 [
b11 {"
b1011 ."
b1011 f
b1011 ?"
b1011 i"
b1011 q"
b1011 F
b1011 g
b1011 -"
b1011 e
b1011 >"
b1011 a"
b1011 G
b1011 h
b1 3
b1011 0
b11000000000 &
b11000000000 7
b11000000000 X
1/
1E
14
#700000
0/
0E
04
#712500
b100110010000 Z
b100110010000 6
b100110010000 `
b100110010000 8"
b100110010000 !
b100110010000 5
b100110010000 [
b1100 -"
b1100 e
b1100 >"
b1100 a"
b1100 G
b1100 h
b1100 ."
b1100 f
b1100 ?"
b1100 i"
b1100 q"
b1100 F
b1100 g
b100 {"
b11001000000 &
b11001000000 7
b11001000000 X
b1 3
b1100 0
1/
1E
14
#725000
0/
0E
04
#737500
b100110100000 Z
b100110100000 6
b100110100000 `
b100110100000 8"
b100110100000 !
b100110100000 5
b100110100000 [
b1 {"
1l"
1N
b1101 ."
b1101 f
b1101 ?"
b1101 i"
b1101 q"
b1101 F
b1101 g
b1101 -"
b1101 e
b1101 >"
b1101 a"
b1101 G
b1101 h
b1 3
b1101 0
b11010000000 &
b11010000000 7
b11010000000 X
0g"
0x
1/
1E
14
#750000
0/
0E
04
#762500
b100110110000 Z
b100110110000 6
b100110110000 `
b100110110000 8"
b100110110000 !
b100110110000 5
b100110110000 [
b1110 -"
b1110 e
b1110 >"
b1110 a"
b1110 G
b1110 h
b1110 ."
b1110 f
b1110 ?"
b1110 i"
b1110 q"
b1110 F
b1110 g
b10 {"
b11011000000 &
b11011000000 7
b11011000000 X
b1 3
b1110 0
1/
1E
14
#775000
0/
0E
04
#787500
b100111000000 Z
b100111000000 6
b100111000000 `
b100111000000 8"
b100111000000 !
b100111000000 5
b100111000000 [
b11 {"
b1111 ."
b1111 f
b1111 ?"
b1111 i"
b1111 q"
b1111 F
b1111 g
b1111 -"
b1111 e
b1111 >"
b1111 a"
b1111 G
b1111 h
b1 3
b1111 0
b11100000000 &
b11100000000 7
b11100000000 X
1/
1E
14
#800000
0/
0E
04
#812500
b100111010000 Z
b100111010000 6
b100111010000 `
b100111010000 8"
b100111010000 !
b100111010000 5
b100111010000 [
b10000 -"
b10000 e
b10000 >"
b10000 a"
b10000 G
b10000 h
b10000 ."
b10000 f
b10000 ?"
b10000 i"
b10000 q"
b10000 F
b10000 g
b100 {"
b11101000000 &
b11101000000 7
b11101000000 X
b1 3
b10000 0
1/
1E
14
#825000
0/
0E
04
#837500
0P
b100111100000 Z
b100111100000 6
b100111100000 `
b100111100000 8"
b100111100000 !
b100111100000 5
b100111100000 [
b1 {"
0l"
0N
b1 o"
b111000010100000 n"
b10001 ."
b10001 f
b10001 ?"
b10001 i"
b10001 q"
b10001 F
b10001 g
b10001 -"
b10001 e
b10001 >"
b10001 a"
b10001 G
b10001 h
b1 3
b10001 0
b11110000000 &
b11110000000 7
b11110000000 X
1/
1E
14
#850000
0/
0E
04
#862500
b100111110000 Z
b100111110000 6
b100111110000 `
b100111110000 8"
b100111110000 !
b100111110000 5
b100111110000 [
b10010 -"
b10010 e
b10010 >"
b10010 a"
b10010 G
b10010 h
b10010 ."
b10010 f
b10010 ?"
b10010 i"
b10010 q"
b10010 F
b10010 g
b10 {"
b11111000000 &
b11111000000 7
b11111000000 X
b1 3
b10010 0
1/
1E
14
#875000
0/
0E
04
#887500
b101000000000 Z
b101000000000 6
b101000000000 `
b101000000000 8"
b101000000000 !
b101000000000 5
b101000000000 [
b11 {"
b10011 ."
b10011 f
b10011 ?"
b10011 i"
b10011 q"
b10011 F
b10011 g
b10011 -"
b10011 e
b10011 >"
b10011 a"
b10011 G
b10011 h
b1 3
b10011 0
b100000000000 &
b100000000000 7
b100000000000 X
1/
1E
14
#900000
0/
0E
04
#912500
b101000010000 Z
b101000010000 6
b101000010000 `
b101000010000 8"
b101000010000 !
b101000010000 5
b101000010000 [
b10100 -"
b10100 e
b10100 >"
b10100 a"
b10100 G
b10100 h
b10100 ."
b10100 f
b10100 ?"
b10100 i"
b10100 q"
b10100 F
b10100 g
b100 {"
b100001000000 &
b100001000000 7
b100001000000 X
b1 3
b10100 0
1/
1E
14
#925000
0/
0E
04
#937500
b101000100000 Z
b101000100000 6
b101000100000 `
b101000100000 8"
b101000100000 !
b101000100000 5
b101000100000 [
b1 {"
1l"
1N
b10101 ."
b10101 f
b10101 ?"
b10101 i"
b10101 q"
b10101 F
b10101 g
b10101 -"
b10101 e
b10101 >"
b10101 a"
b10101 G
b10101 h
b1 3
b10101 0
b100010000000 &
b100010000000 7
b100010000000 X
1/
1E
14
#950000
0/
0E
04
#962500
b101000110000 Z
b101000110000 6
b101000110000 `
b101000110000 8"
b101000110000 !
b101000110000 5
b101000110000 [
b10110 -"
b10110 e
b10110 >"
b10110 a"
b10110 G
b10110 h
b10110 ."
b10110 f
b10110 ?"
b10110 i"
b10110 q"
b10110 F
b10110 g
b10 {"
b100011000000 &
b100011000000 7
b100011000000 X
b1 3
b10110 0
1/
1E
14
#975000
0/
0E
04
#987500
b101001000000 Z
b101001000000 6
b101001000000 `
b101001000000 8"
b101001000000 !
b101001000000 5
b101001000000 [
b11 {"
b10111 ."
b10111 f
b10111 ?"
b10111 i"
b10111 q"
b10111 F
b10111 g
b10111 -"
b10111 e
b10111 >"
b10111 a"
b10111 G
b10111 h
b1 3
b10111 0
b100100000000 &
b100100000000 7
b100100000000 X
1/
1E
14
#1000000
0/
0E
04
#1012500
b101001010000 Z
b101001010000 6
b101001010000 `
b101001010000 8"
b101001010000 !
b101001010000 5
b101001010000 [
b11000 -"
b11000 e
b11000 >"
b11000 a"
b11000 G
b11000 h
b11000 ."
b11000 f
b11000 ?"
b11000 i"
b11000 q"
b11000 F
b11000 g
b100 {"
b100101000000 &
b100101000000 7
b100101000000 X
b1 3
b11000 0
1/
1E
14
#1025000
0/
0E
04
#1037500
1P
b101001100000 Z
b101001100000 6
b101001100000 `
b101001100000 8"
b101001100000 !
b101001100000 5
b101001100000 [
b1 {"
0l"
0N
b10 o"
b1110000101000000 n"
b11001 ."
b11001 f
b11001 ?"
b11001 i"
b11001 q"
b11001 F
b11001 g
b11001 -"
b11001 e
b11001 >"
b11001 a"
b11001 G
b11001 h
b1 3
b11001 0
b100110000000 &
b100110000000 7
b100110000000 X
1/
1E
14
#1050000
0/
0E
04
#1062500
b101001110000 Z
b101001110000 6
b101001110000 `
b101001110000 8"
b101001110000 !
b101001110000 5
b101001110000 [
b11010 -"
b11010 e
b11010 >"
b11010 a"
b11010 G
b11010 h
b11010 ."
b11010 f
b11010 ?"
b11010 i"
b11010 q"
b11010 F
b11010 g
b10 {"
b100111000000 &
b100111000000 7
b100111000000 X
b1 3
b11010 0
1/
1E
14
#1075000
0/
0E
04
#1087500
b101010000000 Z
b101010000000 6
b101010000000 `
b101010000000 8"
b101010000000 !
b101010000000 5
b101010000000 [
b11 {"
b11011 ."
b11011 f
b11011 ?"
b11011 i"
b11011 q"
b11011 F
b11011 g
b11011 -"
b11011 e
b11011 >"
b11011 a"
b11011 G
b11011 h
b1 3
b11011 0
b101000000000 &
b101000000000 7
b101000000000 X
1/
1E
14
#1100000
0/
0E
04
#1112500
b101010010000 Z
b101010010000 6
b101010010000 `
b101010010000 8"
b101010010000 !
b101010010000 5
b101010010000 [
b11100 -"
b11100 e
b11100 >"
b11100 a"
b11100 G
b11100 h
b11100 ."
b11100 f
b11100 ?"
b11100 i"
b11100 q"
b11100 F
b11100 g
b100 {"
b101001000000 &
b101001000000 7
b101001000000 X
b1 3
b11100 0
1/
1E
14
#1125000
0/
0E
04
#1137500
b101010100000 Z
b101010100000 6
b101010100000 `
b101010100000 8"
b101010100000 !
b101010100000 5
b101010100000 [
b1 {"
1l"
1N
b11101 ."
b11101 f
b11101 ?"
b11101 i"
b11101 q"
b11101 F
b11101 g
b11101 -"
b11101 e
b11101 >"
b11101 a"
b11101 G
b11101 h
b1 3
b11101 0
b101010000000 &
b101010000000 7
b101010000000 X
1/
1E
14
#1150000
0/
0E
04
#1162500
b101010110000 Z
b101010110000 6
b101010110000 `
b101010110000 8"
b101010110000 !
b101010110000 5
b101010110000 [
b11110 -"
b11110 e
b11110 >"
b11110 a"
b11110 G
b11110 h
b11110 ."
b11110 f
b11110 ?"
b11110 i"
b11110 q"
b11110 F
b11110 g
b10 {"
b101011000000 &
b101011000000 7
b101011000000 X
b1 3
b11110 0
1/
1E
14
#1175000
0/
0E
04
#1187500
b101011000000 Z
b101011000000 6
b101011000000 `
b101011000000 8"
b101011000000 !
b101011000000 5
b101011000000 [
b11 {"
b11111 ."
b11111 f
b11111 ?"
b11111 i"
b11111 q"
b11111 F
b11111 g
b11111 -"
b11111 e
b11111 >"
b11111 a"
b11111 G
b11111 h
b1 3
b11111 0
b101100000000 &
b101100000000 7
b101100000000 X
1/
1E
14
#1200000
0/
0E
04
#1212500
b101011010000 Z
b101011010000 6
b101011010000 `
b101011010000 8"
b101011010000 !
b101011010000 5
b101011010000 [
b100000 -"
b100000 e
b100000 >"
b100000 a"
b100000 G
b100000 h
b100000 ."
b100000 f
b100000 ?"
b100000 i"
b100000 q"
b100000 F
b100000 g
b100 {"
b101101000000 &
b101101000000 7
b101101000000 X
b1 3
b100000 0
1/
1E
14
#1225000
0/
0E
04
