sim/icarus/tb_fog_core_ni7966r_ni5781_lv_adapter.vcd
$date
	Tue May 19 15:32:18 2026
$end
$version
	Icarus Verilog
$end
$timescale
	1ps
$end
$scope module tb_fog_core_ni7966r_ni5781_lv_adapter $end
$var wire 12 ! adin_dbg [11:0] $end
$var wire 16 " ao0_raw [15:0] $end
$var wire 16 # ao1_raw [15:0] $end
$var wire 16 $ sp_sn_value [15:0] $end
$var wire 2 % state_dbg [1:0] $end
$var wire 1 & status_ready $end
$var reg 16 ' ai0_raw [15:0] $end
$var reg 2 ( ai_map_mode [1:0] $end
$var integer 32 ) ao0_change_count [31:0] $end
$var reg 16 * ao0_prev [15:0] $end
$var integer 32 + ao1_change_count [31:0] $end
$var reg 16 , ao1_prev [15:0] $end
$var reg 8 - cfg_FBK [7:0] $end
$var reg 8 . cfg_FBK2 [7:0] $end
$var reg 10 / cfg_N [9:0] $end
$var reg 16 0 cfg_V2Pai_mV [15:0] $end
$var reg 1 1 cfg_apply $end
$var reg 1 2 clk $end
$var integer 32 3 cycles_after_ready [31:0] $end
$var integer 32 4 errors [31:0] $end
$var reg 1 5 rst_n $end
$var integer 32 6 state_seen_mask [31:0] $end
$scope module dut $end
$var wire 1 7 adclk_unused $end
$var wire 12 8 adin_dbg [11:0] $end
$var wire 12 9 adin_mapped [11:0] $end
$var wire 16 : ai0_raw [15:0] $end
$var wire 2 ; ai_map_mode [1:0] $end
$var wire 16 < ao0_raw [15:0] $end
$var wire 16 = ao1_raw [15:0] $end
$var wire 8 > cfg_FBK [7:0] $end
$var wire 8 ? cfg_FBK2 [7:0] $end
$var wire 10 @ cfg_N [9:0] $end
$var wire 16 A cfg_V2Pai_mV [15:0] $end
$var wire 1 B cfg_apply $end
$var wire 10 C cfg_n_clamped [9:0] $end
$var wire 10 D cfg_n_safe [9:0] $end
$var wire 16 E cfg_v2pai_limited [15:0] $end
$var wire 14 F cfg_vdaref_code [13:0] $end
$var wire 32 G cfg_vdaref_scaled [31:0] $end
$var wire 1 H clk $end
$var wire 10 I counterN_dbg_unused [9:0] $end
$var wire 9 J counter_dbg_unused [8:0] $end
$var wire 1 K daclk_unused $end
$var wire 16 L daout_unscaled [15:0] $end
$var wire 32 M drotate_dbg_unused [31:0] $end
$var wire 32 N dvref_dbg_unused [31:0] $end
$var wire 32 O intsout_dbg_unused [31:0] $end
$var wire 1 P rst_n $end
$var wire 1 Q sdaclk_unused $end
$var wire 1 R sdacs_unused $end
$var wire 1 S sdaout_unused $end
$var wire 1 T sn_unused $end
$var wire 16 U sp_sn_value [15:0] $end
$var wire 1 V sp_unused $end
$var wire 2 W state_dbg [1:0] $end
$var wire 1 & status_ready $end
$var wire 12 X tau_dbg_unused [11:0] $end
$var wire 16 Y vref_word [15:0] $end
$var reg 16 Z ao0_raw_r [15:0] $end
$var reg 1 [ scale_busy $end
$var reg 16 \ scale_mod_latch [15:0] $end
$var reg 6 ] scale_phase [5:0] $end
$var reg 32 ^ scale_product1 [31:0] $end
$var reg 49 _ scale_product2 [48:0] $end
$var reg 16 ` scale_vref_latch [15:0] $end
$scope module u_ai_map $end
$var wire 16 a ai_raw [15:0] $end
$var wire 2 b map_mode [1:0] $end
$var reg 12 c adin [11:0] $end
$var reg 16 d mapped_tmp [15:0] $end
$upscope $end
$scope module u_core $end
$var wire 8 e FBK [7:0] $end
$var wire 8 f FBK2 [7:0] $end
$var wire 10 g N [9:0] $end
$var wire 14 h VDARef [13:0] $end
$var wire 1 7 adclk $end
$var wire 12 i adin [11:0] $end
$var wire 8 j cfg_FBK [7:0] $end
$var wire 8 k cfg_FBK2 [7:0] $end
$var wire 10 l cfg_N [9:0] $end
$var wire 14 m cfg_VDARef [13:0] $end
$var wire 1 B cfg_apply $end
$var wire 1 n cfg_apply_pulse $end
$var wire 1 H clk $end
$var wire 32 o closed_loop_drive [31:0] $end
$var wire 9 p counter [8:0] $end
$var wire 10 q counterN [9:0] $end
$var wire 10 r counterN_dbg [9:0] $end
$var wire 9 s counter_dbg [8:0] $end
$var wire 32 t dRotateOut [31:0] $end
$var wire 32 u dRotateOutFBK [31:0] $end
$var wire 32 v dVrefOut [31:0] $end
$var wire 32 w dVrefOutFBK [31:0] $end
$var wire 1 K daclk $end
$var wire 16 x daout [15:0] $end
$var wire 32 y drotate_dbg [31:0] $end
$var wire 32 z dvref_dbg [31:0] $end
$var wire 1 { ena $end
$var wire 32 | first_loop_drive [31:0] $end
$var wire 1 } intena $end
$var wire 1 ~ intena0 $end
$var wire 32 !" intsout [31:0] $end
$var wire 32 "" intsout_dbg [31:0] $end
$var wire 1 #" ladena1 $end
$var wire 1 $" ladena2 $end
$var wire 16 %" pintout [15:0] $end
$var wire 1 &" random $end
$var wire 1 & ready $end
$var wire 1 P rst_n $end
$var wire 1 '" sdaSend $end
$var wire 1 Q sdaclk $end
$var wire 1 R sdacs $end
$var wire 1 S sdaout $end
$var wire 32 (" second_loop_drive [31:0] $end
$var wire 1 T sn $end
$var wire 1 V sp $end
$var wire 16 )" sp_sn_value [15:0] $end
$var wire 2 *" state [1:0] $end
$var wire 2 +" state_dbg [1:0] $end
$var wire 1 ," sys_rst $end
$var wire 12 -" tauCounter [11:0] $end
$var wire 12 ." tau_dbg [11:0] $end
$var wire 1 /" updown $end
$var wire 16 0" vref_word [15:0] $end
$var reg 1 1" cfg_apply_d $end
$var reg 8 2" cfg_fbk2_reg [7:0] $end
$var reg 8 3" cfg_fbk_reg [7:0] $end
$var reg 10 4" cfg_n_reg [9:0] $end
$var reg 2 5" cfg_reset_hold [1:0] $end
$var reg 14 6" cfg_vdaref_reg [13:0] $end
$scope module asrst_core $end
$var wire 1 H clk $end
$var wire 1 7" rst_n $end
$var reg 1 8" rst_nr1 $end
$var reg 1 9" rst_nr2 $end
$upscope $end
$scope module gclk $end
$var wire 10 :" N [9:0] $end
$var wire 1 7 adclk $end
$var wire 1 H clk $end
$var wire 1 { ena $end
$var wire 1 ," rst $end
$var reg 9 ;" counter [8:0] $end
$var reg 10 <" counterN [9:0] $end
$var reg 1 =" daclk $end
$var reg 1 >" daclk1 $end
$var reg 1 ?" daclk2 $end
$var reg 1 @" intena $end
$var reg 1 A" intena0 $end
$var reg 1 B" ladena1 $end
$var reg 1 C" ladena2 $end
$var reg 2 D" state [1:0] $end
$upscope $end
$scope module dmt $end
$var wire 10 E" N [9:0] $end
$var wire 12 F" adin [11:0] $end
$var wire 8 G" cfg_delay1 [7:0] $end
$var wire 8 H" cfg_delay2 [7:0] $end
$var wire 8 I" cfg_delayAD [7:0] $end
$var wire 8 J" cfg_reserveN [7:0] $end
$var wire 12 K" cfg_sft_pd [11:0] $end
$var wire 1 H clk $end
$var wire 9 L" counter [8:0] $end
$var wire 10 M" counterN [9:0] $end
$var wire 10 N" delay1w [9:0] $end
$var wire 10 O" delay2w [9:0] $end
$var wire 10 P" delayADw [9:0] $end
$var wire 10 Q" delaySum [9:0] $end
$var wire 1 { ena $end
$var wire 10 R" halfN [9:0] $end
$var wire 10 S" reserveNw [9:0] $end
$var wire 1 ," rst $end
$var wire 2 T" state [1:0] $end
$var wire 12 U" tauCounter [11:0] $end
$var wire 1 /" updown $end
$var reg 32 V" dRotateOut [31:0] $end
$var reg 32 W" dVrefOut [31:0] $end
$var reg 1 X" random $end
$var reg 1 Y" randomPre $end
$upscope $end
$scope module dmk $end
$var wire 8 Z" FBK [7:0] $end
$var wire 1 H clk $end
$var wire 24 [" dRotateOut24 [23:0] $end
$var wire 32 \" dRotateOutFBK [31:0] $end
$var wire 1 ~ intena0 $end
$var wire 33 ]" mult_FBK [32:0] $end
$var wire 1 ," rst $end
$var reg 33 ^" mult_FBK_R [32:0] $end
$upscope $end
$scope module dmk2 $end
$var wire 8 _" FBK [7:0] $end
$var wire 1 H clk $end
$var wire 24 `" dRotateOut24 [23:0] $end
$var wire 32 a" dRotateOutFBK [31:0] $end
$var wire 1 ~ intena0 $end
$var wire 33 b" mult_FBK [32:0] $end
$var wire 1 ," rst $end
$var reg 33 c" mult_FBK_R [32:0] $end
$upscope $end
$scope module itg $end
$var wire 1 H clk $end
$var wire 32 d" dRotateOut [31:0] $end
$var wire 1 } intena $end
$var wire 1 ," rst $end
$var wire 32 e" sum [31:0] $end
$var reg 32 f" intsout [31:0] $end
$upscope $end
$scope module ldp $end
$var wire 16 g" cfg_PI [15:0] $end
$var wire 16 h" cfg_PIb [15:0] $end
$var wire 16 i" cfg_PIbpPI [15:0] $end
$var wire 12 j" cfg_sft_pd [11:0] $end
$var wire 1 H clk $end
$var wire 1 #" ladena1 $end
$var wire 1 $" ladena2 $end
$var wire 32 k" ladin [31:0] $end
$var wire 1 &" random $end
$var wire 1 ," rst $end
$var wire 2 l" state [1:0] $end
$var reg 16 m" ladout [15:0] $end
$var reg 32 n" ladreg [31:0] $end
$var reg 32 o" ladtmp [31:0] $end
$var reg 12 p" tauCounter [11:0] $end
$var reg 1 q" updown $end
$upscope $end
$scope module pint $end
$var wire 10 r" N [9:0] $end
$var wire 14 s" VDARef [13:0] $end
$var wire 1 H clk $end
$var wire 9 t" counter [8:0] $end
$var wire 32 u" dVrefOut [31:0] $end
$var wire 1 { ena $end
$var wire 16 v" pintout [15:0] $end
$var wire 1 ," rst $end
$var wire 2 w" state [1:0] $end
$var reg 16 x" pintoutpre [15:0] $end
$var reg 40 y" pintreg [39:0] $end
$var reg 1 z" sdaSend $end
$upscope $end
$scope module sdo $end
$var wire 10 {" N [9:0] $end
$var wire 1 H clk $end
$var wire 10 |" counterN [9:0] $end
$var wire 16 }" pintout [15:0] $end
$var wire 1 ," rst $end
$var wire 1 '" sdaSend $end
$var wire 1 S sdaout $end
$var reg 1 ~" finish $end
$var reg 1 !# sdaclk $end
$var reg 1 "# sdacs $end
$var reg 16 ## sdaoutbuf [15:0] $end
$var reg 4 $# shout_state [3:0] $end
$upscope $end
$scope module agowc $end
$var wire 10 %# N [9:0] $end
$var wire 1 H clk $end
$var wire 10 &# counterN [9:0] $end
$var wire 32 '# intsout [31:0] $end
$var wire 4 (# pulseWidthSafe [3:0] $end
$var wire 8 )# pulseWidthTwice [7:0] $end
$var wire 10 *# pulseWindowLimit [9:0] $end
$var wire 32 +# pulse_k [31:0] $end
$var wire 4 ,# pulse_width [3:0] $end
$var wire 1 ," rst $end
$var wire 40 -# sum1 [39:0] $end
$var wire 40 .# sum2 [39:0] $end
$var reg 40 /# anglereg [39:0] $end
$var reg 8 0# smallCounter [7:0] $end
$var reg 1 1# sn $end
$var reg 1 2# sp $end
$upscope $end
$upscope $end
$upscope $end
$upscope $end
$enddefinitions $end
#0
$dumpvars
02#
01#
b0 0#
b0 /#
b1111111111111111110110001111000000000000 .#
b1001110001000000000000 -#
b10 ,#
b1001110001000000000000 +#
b10100110 *#
b100 )#
b10 (#
b0 '#
b0 &#
b10101010 %#
b0 $#
b0 ##
1"#
0!#
1~"
bx }"
b0 |"
b10101010 {"
xz"
bx y"
bx x"
b0 w"
bx v"
b0 u"
b1 t"
b10111000010100 s"
b10101010 r"
0q"
b0 p"
b0 o"
b0 n"
b0 m"
b0 l"
b0 k"
b111111111111 j"
b100001000010 i"
b101101011010110 h"
b101001010010100 g"
b0 f"
b0 e"
b0 d"
b0 c"
b0 b"
b0 a"
b0 `"
b100000 _"
b0 ^"
b0 ]"
b0 \"
b0 ["
b1100100 Z"
0Y"
0X"
b0 W"
b0 V"
b0 U"
b0 T"
b111 S"
b1010101 R"
b101000 Q"
b1000 P"
b10010 O"
b100000 N"
b0 M"
b1 L"
b111111111111 K"
b111 J"
b1000 I"
b10010 H"
b100000 G"
b100000000000 F"
b10101010 E"
b0 D"
0C"
0B"
0A"
0@"
0?"
0>"
0="
b0 <"
b1 ;"
b10101010 :"
09"
08"
07"
b10111000010100 6"
b0 5"
b10101010 4"
b1100100 3"
b100000 2"
01"
bx 0"
0/"
b0 ."
b0 -"
0,"
b0 +"
b0 *"
b0 )"
b0 ("
x'"
0&"
bx %"
0$"
0#"
b0 ""
b0 !"
0~
0}
b0 |
1{
b0 z
b0 y
b0 x
b0 w
b0 v
b0 u
b0 t
b1 s
b0 r
b0 q
b1 p
b0 o
0n
b10111000010100 m
b10101010 l
b100000 k
b1100100 j
b100000000000 i
b10111000010100 h
b10101010 g
b100000 f
b1100100 e
b100000000000 d
b100000000000 c
b1 b
b0 a
b0 `
b0 _
b0 ^
b0 ]
b0 \
0[
b0 Z
bx Y
b0 X
b0 W
0V
b0 U
0T
0S
1R
0Q
0P
b0 O
b0 N
b0 M
b0 L
0K
b1 J
b0 I
0H
b10111000010100010011010000 G
b10111000010100 F
b11100001000 E
b10101010 D
b10101010 C
0B
b11100001000 A
b10101010 @
b100000 ?
b1100100 >
b0 =
b0 <
b1 ;
b0 :
b100000000000 9
b100000000000 8
07
b0 6
05
b0 4
b0 3
02
01
b11100001000 0
b10101010 /
b100000 .
b1100100 -
b0 ,
b0 +
b0 *
b0 )
b1 (
b0 '
0&
b0 %
b0 $
b0 #
b0 "
b100000000000 !
$end
#12500
b1011100001010000 %"
b1011100001010000 v"
b1011100001010000 }"
b1011100001010000 Y
b1011100001010000 0"
1z"
1'"
b0 x"
b1011100001010000000000000000000000000000 y"
12
1H
17
#25000
02
0H
07
#37500
12
1H
17
#50000
02
0H
07
#62500
12
1H
17
#75000
02
0H
07
#87500
12
1H
17
#100000
02
0H
07
15
1P
#112500
b100000010000 c
b100000010000 9
b100000010000 i
b100000010000 F"
b100000010000 !
b100000010000 8
b100000010000 d
b1000000 '
b1000000 :
b1000000 a
b1011100001010000 `
1[
b1 5"
12
1H
17
#125000
02
0H
07
#137500
17"
b100000100000 c
b100000100000 9
b100000100000 i
b100000100000 F"
b100000100000 !
b100000100000 8
b100000100000 d
b10000000 '
b10000000 :
b10000000 a
b10 5"
b1 ]
12
1H
17
#150000
02
0H
07
#162500
b100000110000 c
b100000110000 9
b100000110000 i
b100000110000 F"
b100000110000 !
b100000110000 8
b100000110000 d
b11000000 '
b11000000 :
b11000000 a
18"
b10 ]
b11 5"
12
1H
17
#175000
02
0H
07
#187500
b100001000000 c
b100001000000 9
b100001000000 i
b100001000000 F"
b100001000000 !
b100001000000 8
b100001000000 d
b100000000 '
b100000000 :
b100000000 a
19"
1,"
1&
b11 ]
12
1H
17
#200000
02
0H
07
#212500
b100001010000 c
b100001010000 9
b100001010000 i
b100001010000 F"
b100001010000 !
b100001010000 8
b100001010000 d
b1 <"
b1 q
b1 M"
b1 |"
b1 &#
b1 I
b1 r
b10 ;"
b10 p
b10 L"
b10 t"
b10 J
b10 s
b101000000 '
b101000000 :
b101000000 a
b1 6
b1 3
b100 ]
12
1H
17
#225000
02
0H
07
#237500
b100001100000 c
b100001100000 9
b100001100000 i
b100001100000 F"
b100001100000 !
b100001100000 8
b100001100000 d
b11 ;"
b11 p
b11 L"
b11 t"
b11 J
b11 s
b10 <"
b10 q
b10 M"
b10 |"
b10 &#
b10 I
b10 r
b1 6
b10 3
b110000000 '
b110000000 :
b110000000 a
b101 ]
12
1H
17
#250000
02
0H
07
#262500
b100001110000 c
b100001110000 9
b100001110000 i
b100001110000 F"
b100001110000 !
b100001110000 8
b100001110000 d
b11 <"
b11 q
b11 M"
b11 |"
b11 &#
b11 I
b11 r
b100 ;"
b100 p
b100 L"
b100 t"
b100 J
b100 s
b111000000 '
b111000000 :
b111000000 a
b1 6
b11 3
b110 ]
12
1H
17
#275000
02
0H
07
#287500
b100010000000 c
b100010000000 9
b100010000000 i
b100010000000 F"
b100010000000 !
b100010000000 8
b100010000000 d
b101 ;"
b101 p
b101 L"
b101 t"
b101 J
b101 s
b100 <"
b100 q
b100 M"
b100 |"
b100 &#
b100 I
b100 r
b1 6
b100 3
b1000000000 '
b1000000000 :
b1000000000 a
b111 ]
b1111111110 D
b1111111110 l
b1111111110 C
1n
11
1B
b1111111111 /
b1111111111 @
12
1H
17
#300000
02
0H
07
#312500
08"
09"
0,"
0&
07"
b100010010000 c
b100010010000 9
b100010010000 i
b100010010000 F"
b100010010000 !
b100010010000 8
b100010010000 d
b111111111 R"
b1111111010 *#
b0 0#
b0 <"
b0 q
b0 M"
b0 |"
b0 &#
b0 I
b0 r
b1 ;"
b1 p
b1 L"
b1 t"
b1 J
b1 s
b1001000000 '
b1001000000 :
b1001000000 a
b1 6
b101 3
b1000 ]
b0 5"
b1111111110 4"
b1111111110 g
b1111111110 :"
b1111111110 E"
b1111111110 r"
b1111111110 {"
b1111111110 %#
11"
0n
01
0B
12
1H
17
#325000
02
0H
07
#337500
b100010100000 c
b100010100000 9
b100010100000 i
b100010100000 F"
b100010100000 !
b100010100000 8
b100010100000 d
b0 6
b0 3
b1010000000 '
b1010000000 :
b1010000000 a
b1 5"
01"
b1001 ]
12
1H
17
#350000
02
0H
07
#362500
17"
b100010110000 c
b100010110000 9
b100010110000 i
b100010110000 F"
b100010110000 !
b100010110000 8
b100010110000 d
b1011000000 '
b1011000000 :
b1011000000 a
b1010 ]
b10 5"
12
1H
17
#375000
02
0H
07
#387500
b100011000000 c
b100011000000 9
b100011000000 i
b100011000000 F"
b100011000000 !
b100011000000 8
b100011000000 d
b1100000000 '
b1100000000 :
b1100000000 a
18"
b11 5"
b1011 ]
12
1H
17
#400000
02
0H
07
#412500
b100011010000 c
b100011010000 9
b100011010000 i
b100011010000 F"
b100011010000 !
b100011010000 8
b100011010000 d
b1101000000 '
b1101000000 :
b1101000000 a
19"
1,"
1&
b1100 ]
12
1H
17
#425000
02
0H
07
#437500
b100011100000 c
b100011100000 9
b100011100000 i
b100011100000 F"
b100011100000 !
b100011100000 8
b100011100000 d
b1 <"
b1 q
b1 M"
b1 |"
b1 &#
b1 I
b1 r
b10 ;"
b10 p
b10 L"
b10 t"
b10 J
b10 s
b1 6
b1 3
b1110000000 '
b1110000000 :
b1110000000 a
b1101 ]
12
1H
17
#450000
02
0H
07
#462500
b100011110000 c
b100011110000 9
b100011110000 i
b100011110000 F"
b100011110000 !
b100011110000 8
b100011110000 d
b11 ;"
b11 p
b11 L"
b11 t"
b11 J
b11 s
b10 <"
b10 q
b10 M"
b10 |"
b10 &#
b10 I
b10 r
b1111000000 '
b1111000000 :
b1111000000 a
b1 6
b10 3
b1110 ]
12
1H
17
#475000
02
0H
07
#487500
b100100000000 c
b100100000000 9
b100100000000 i
b100100000000 F"
b100100000000 !
b100100000000 8
b100100000000 d
b11 <"
b11 q
b11 M"
b11 |"
b11 &#
b11 I
b11 r
b100 ;"
b100 p
b100 L"
b100 t"
b100 J
b100 s
b1 6
b11 3
b10000000000 '
b10000000000 :
b10000000000 a
b1111 ]
12
1H
17
#500000
02
0H
07
#512500
b100100010000 c
b100100010000 9
b100100010000 i
b100100010000 F"
b100100010000 !
b100100010000 8
b100100010000 d
b101 ;"
b101 p
b101 L"
b101 t"
b101 J
b101 s
b100 <"
b100 q
b100 M"
b100 |"
b100 &#
b100 I
b100 r
b10001000000 '
b10001000000 :
b10001000000 a
b1 6
b100 3
b10000 ]
12
1H
17
#525000
02
0H
07
#537500
b100100100000 c
b100100100000 9
b100100100000 i
b100100100000 F"
b100100100000 !
b100100100000 8
b100100100000 d
b1 0#
b101 <"
b101 q
b101 M"
b101 |"
b101 &#
b101 I
b101 r
b110 ;"
b110 p
b110 L"
b110 t"
b110 J
b110 s
b1 6
b101 3
b10010000000 '
b10010000000 :
b10010000000 a
b10001 ]
b1000000000000000000000000000000 _
12
1H
17
#550000
02
0H
07
#562500
b100100110000 c
b100100110000 9
b100100110000 i
b100100110000 F"
b100100110000 !
b100100110000 8
b100100110000 d
b111 ;"
b111 p
b111 L"
b111 t"
b111 J
b111 s
b110 <"
b110 q
b110 M"
b110 |"
b110 &#
b110 I
b110 r
b10 0#
b10011000000 '
b10011000000 :
b10011000000 a
b1 6
b110 3
b10010 ]
12
1H
17
#575000
02
0H
07
#587500
b100101000000 c
b100101000000 9
b100101000000 i
b100101000000 F"
b100101000000 !
b100101000000 8
b100101000000 d
b11 0#
b111 <"
b111 q
b111 M"
b111 |"
b111 &#
b111 I
b111 r
b1000 ;"
b1000 p
b1000 L"
b1000 t"
b1000 J
b1000 s
b1 6
b111 3
b10100000000 '
b10100000000 :
b10100000000 a
b10011 ]
12
1H
17
#600000
02
0H
07
#612500
b100101010000 c
b100101010000 9
b100101010000 i
b100101010000 F"
b100101010000 !
b100101010000 8
b100101010000 d
b1001 ;"
b1001 p
b1001 L"
b1001 t"
b1001 J
b1001 s
b1000 <"
b1000 q
b1000 M"
b1000 |"
b1000 &#
b1000 I
b1000 r
b100 0#
b10101000000 '
b10101000000 :
b10101000000 a
b1 6
b1000 3
b10100 ]
12
1H
17
#625000
02
0H
07
#637500
1S
b100101100000 c
b100101100000 9
b100101100000 i
b100101100000 F"
b100101100000 !
b100101100000 8
b100101100000 d
b1 0#
0~"
0"#
0R
b1011100001010000 ##
b1001 <"
b1001 q
b1001 M"
b1001 |"
b1001 &#
b1001 I
b1001 r
b1010 ;"
b1010 p
b1010 L"
b1010 t"
b1010 J
b1010 s
b1 6
b1001 3
b10110000000 '
b10110000000 :
b10110000000 a
b10101 ]
12
1H
17
#650000
02
0H
07
#662500
b100101110000 c
b100101110000 9
b100101110000 i
b100101110000 F"
b100101110000 !
b100101110000 8
b100101110000 d
b1011 ;"
b1011 p
b1011 L"
b1011 t"
b1011 J
b1011 s
b1010 <"
b1010 q
b1010 M"
b1010 |"
b1010 &#
b1010 I
b1010 r
b10 0#
b10111000000 '
b10111000000 :
b10111000000 a
b1 6
b1010 3
b10110 ]
12
1H
17
#675000
02
0H
07
#687500
b100110000000 c
b100110000000 9
b100110000000 i
b100110000000 F"
b100110000000 !
b100110000000 8
b100110000000 d
b11 0#
b1011 <"
b1011 q
b1011 M"
b1011 |"
b1011 &#
b1011 I
b1011 r
b1100 ;"
b1100 p
b1100 L"
b1100 t"
b1100 J
b1100 s
b1 6
b1011 3
b11000000000 '
b11000000000 :
b11000000000 a
b10111 ]
12
1H
17
#700000
02
0H
07
#712500
b100110010000 c
b100110010000 9
b100110010000 i
b100110010000 F"
b100110010000 !
b100110010000 8
b100110010000 d
b1101 ;"
b1101 p
b1101 L"
b1101 t"
b1101 J
b1101 s
b1100 <"
b1100 q
b1100 M"
b1100 |"
b1100 &#
b1100 I
b1100 r
b100 0#
0z"
0'"
b11001000000 '
b11001000000 :
b11001000000 a
b1 6
b1100 3
b11000 ]
12
1H
17
#725000
02
0H
07
#737500
b100110100000 c
b100110100000 9
b100110100000 i
b100110100000 F"
b100110100000 !
b100110100000 8
b100110100000 d
b1 0#
1!#
1Q
b1101 <"
b1101 q
b1101 M"
b1101 |"
b1101 &#
b1101 I
b1101 r
b1110 ;"
b1110 p
b1110 L"
b1110 t"
b1110 J
b1110 s
b1 6
b1101 3
b11010000000 '
b11010000000 :
b11010000000 a
b11001 ]
12
1H
17
#750000
02
0H
07
#762500
b100110110000 c
b100110110000 9
b100110110000 i
b100110110000 F"
b100110110000 !
b100110110000 8
b100110110000 d
b1111 ;"
b1111 p
b1111 L"
b1111 t"
b1111 J
b1111 s
b1110 <"
b1110 q
b1110 M"
b1110 |"
b1110 &#
b1110 I
b1110 r
b10 0#
b11011000000 '
b11011000000 :
b11011000000 a
b1 6
b1110 3
b11010 ]
12
1H
17
#775000
02
0H
07
#787500
b100111000000 c
b100111000000 9
b100111000000 i
b100111000000 F"
b100111000000 !
b100111000000 8
b100111000000 d
b11 0#
b1111 <"
b1111 q
b1111 M"
b1111 |"
b1111 &#
b1111 I
b1111 r
b10000 ;"
b10000 p
b10000 L"
b10000 t"
b10000 J
b10000 s
b1 6
b1111 3
b11100000000 '
b11100000000 :
b11100000000 a
b11011 ]
12
1H
17
#800000
02
0H
07
#812500
b100111010000 c
b100111010000 9
b100111010000 i
b100111010000 F"
b100111010000 !
b100111010000 8
b100111010000 d
b10001 ;"
b10001 p
b10001 L"
b10001 t"
b10001 J
b10001 s
b10000 <"
b10000 q
b10000 M"
b10000 |"
b10000 &#
b10000 I
b10000 r
b100 0#
b11101000000 '
b11101000000 :
b11101000000 a
b1 6
b10000 3
b11100 ]
12
1H
17
#825000
02
0H
07
#837500
0S
b100111100000 c
b100111100000 9
b100111100000 i
b100111100000 F"
b100111100000 !
b100111100000 8
b100111100000 d
b1 0#
0!#
0Q
b1 $#
b111000010100000 ##
b10001 <"
b10001 q
b10001 M"
b10001 |"
b10001 &#
b10001 I
b10001 r
b10010 ;"
b10010 p
b10010 L"
b10010 t"
b10010 J
b10010 s
b1 6
b10001 3
b11110000000 '
b11110000000 :
b11110000000 a
b11101 ]
12
1H
17
#850000
02
0H
07
#862500
b100111110000 c
b100111110000 9
b100111110000 i
b100111110000 F"
b100111110000 !
b100111110000 8
b100111110000 d
b10011 ;"
b10011 p
b10011 L"
b10011 t"
b10011 J
b10011 s
b10010 <"
b10010 q
b10010 M"
b10010 |"
b10010 &#
b10010 I
b10010 r
b10 0#
b11111000000 '
b11111000000 :
b11111000000 a
b1 6
b10010 3
b11110 ]
12
1H
17
#875000
02
0H
07
#887500
b101000000000 c
b101000000000 9
b101000000000 i
b101000000000 F"
b101000000000 !
b101000000000 8
b101000000000 d
b11 0#
b10011 <"
b10011 q
b10011 M"
b10011 |"
b10011 &#
b10011 I
b10011 r
b10100 ;"
b10100 p
b10100 L"
b10100 t"
b10100 J
b10100 s
b1 6
b10011 3
b100000000000 '
b100000000000 :
b100000000000 a
b11111 ]
12
1H
17
#900000
02
0H
07
#912500
b101000010000 c
b101000010000 9
b101000010000 i
b101000010000 F"
b101000010000 !
b101000010000 8
b101000010000 d
b10101 ;"
b10101 p
b10101 L"
b10101 t"
b10101 J
b10101 s
b10100 <"
b10100 q
b10100 M"
b10100 |"
b10100 &#
b10100 I
b10100 r
b100 0#
b100001000000 '
b100001000000 :
b100001000000 a
b1 6
b10100 3
b100000 ]
12
1H
17
#925000
02
0H
07
#937500
b101000100000 c
b101000100000 9
b101000100000 i
b101000100000 F"
b101000100000 !
b101000100000 8
b101000100000 d
b1 0#
1!#
1Q
b10101 <"
b10101 q
b10101 M"
b10101 |"
b10101 &#
b10101 I
b10101 r
b10110 ;"
b10110 p
b10110 L"
b10110 t"
b10110 J
b10110 s
b1 6
b10101 3
b100010000000 '
b100010000000 :
b100010000000 a
0[
12
1H
17
#950000
02
0H
07
#962500
b101000110000 c
b101000110000 9
b101000110000 i
b101000110000 F"
b101000110000 !
b101000110000 8
b101000110000 d
b10111 ;"
b10111 p
b10111 L"
b10111 t"
b10111 J
b10111 s
b10110 <"
b10110 q
b10110 M"
b10110 |"
b10110 &#
b10110 I
b10110 r
b10 0#
b100011000000 '
b100011000000 :
b100011000000 a
b1 6
b10110 3
b0 _
b0 ]
1[
12
1H
17
#975000
02
0H
07
#987500
b101001000000 c
b101001000000 9
b101001000000 i
b101001000000 F"
b101001000000 !
b101001000000 8
b101001000000 d
b11 0#
b10111 <"
b10111 q
b10111 M"
b10111 |"
b10111 &#
b10111 I
b10111 r
b11000 ;"
b11000 p
b11000 L"
b11000 t"
b11000 J
b11000 s
b1 6
b10111 3
b100100000000 '
b100100000000 :
b100100000000 a
b1 ]
12
1H
17
#1000000
02
0H
07
#1012500
b101001010000 c
b101001010000 9
b101001010000 i
b101001010000 F"
b101001010000 !
b101001010000 8
b101001010000 d
b11001 ;"
b11001 p
b11001 L"
b11001 t"
b11001 J
b11001 s
b11000 <"
b11000 q
b11000 M"
b11000 |"
b11000 &#
b11000 I
b11000 r
b100 0#
b100101000000 '
b100101000000 :
b100101000000 a
b1 6
b11000 3
b10 ]
12
1H
17
#1025000
02
0H
07
#1037500
1S
b101001100000 c
b101001100000 9
b101001100000 i
b101001100000 F"
b101001100000 !
b101001100000 8
b101001100000 d
b1 0#
0!#
0Q
b10 $#
b1110000101000000 ##
b11001 <"
b11001 q
b11001 M"
b11001 |"
b11001 &#
b11001 I
b11001 r
b11010 ;"
b11010 p
b11010 L"
b11010 t"
b11010 J
b11010 s
b1 6
b11001 3
b100110000000 '
b100110000000 :
b100110000000 a
b11 ]
12
1H
17
#1050000
02
0H
07
#1062500
b101001110000 c
b101001110000 9
b101001110000 i
b101001110000 F"
b101001110000 !
b101001110000 8
b101001110000 d
b11011 ;"
b11011 p
b11011 L"
b11011 t"
b11011 J
b11011 s
b11010 <"
b11010 q
b11010 M"
b11010 |"
b11010 &#
b11010 I
b11010 r
b10 0#
b100111000000 '
b100111000000 :
b100111000000 a
b1 6
b11010 3
b100 ]
12
1H
17
#1075000
02
0H
07
#1087500
b101010000000 c
b101010000000 9
b101010000000 i
b101010000000 F"
b101010000000 !
b101010000000 8
b101010000000 d
b11 0#
b11011 <"
b11011 q
b11011 M"
b11011 |"
b11011 &#
b11011 I
b11011 r
b11100 ;"
b11100 p
b11100 L"
b11100 t"
b11100 J
b11100 s
b1 6
b11011 3
b101000000000 '
b101000000000 :
b101000000000 a
b101 ]
12
1H
17
#1100000
02
0H
07
#1112500
b101010010000 c
b101010010000 9
b101010010000 i
b101010010000 F"
b101010010000 !
b101010010000 8
b101010010000 d
b11101 ;"
b11101 p
b11101 L"
b11101 t"
b11101 J
b11101 s
b11100 <"
b11100 q
b11100 M"
b11100 |"
b11100 &#
b11100 I
b11100 r
b100 0#
b101001000000 '
b101001000000 :
b101001000000 a
b1 6
b11100 3
b110 ]
12
1H
17
#1125000
02
0H
07
#1137500
b101010100000 c
b101010100000 9
b101010100000 i
b101010100000 F"
b101010100000 !
b101010100000 8
b101010100000 d
b1 0#
1!#
1Q
b11101 <"
b11101 q
b11101 M"
b11101 |"
b11101 &#
b11101 I
b11101 r
b11110 ;"
b11110 p
b11110 L"
b11110 t"
b11110 J
b11110 s
b1 6
b11101 3
b101010000000 '
b101010000000 :
b101010000000 a
b111 ]
12
1H
17
