sim/icarus/tb_fog_gyro_signal_modulation.vcd
$date
	Mon May 18 19:27:22 2026
$end
$version
	Icarus Verilog
$end
$timescale
	1ps
$end
$scope module tb_fog_gyro_signal_modulation $end
$var wire 1 ! adclk $end
$var wire 12 " adin_mapped [11:0] $end
$var wire 10 # counterN_dbg [9:0] $end
$var wire 9 $ counter_dbg [8:0] $end
$var wire 1 % daclk $end
$var wire 16 & daout [15:0] $end
$var wire 32 ' drotate_dbg [31:0] $end
$var wire 32 ( dvref_dbg [31:0] $end
$var wire 32 ) intsout_dbg [31:0] $end
$var wire 1 * ready $end
$var wire 1 + sdaclk $end
$var wire 1 , sdacs $end
$var wire 1 - sdaout $end
$var wire 1 . sn $end
$var wire 1 / sp $end
$var wire 16 0 sp_sn_value [15:0] $end
$var wire 2 1 state_dbg [1:0] $end
$var wire 12 2 tau_dbg [11:0] $end
$var wire 16 3 vref_word [15:0] $end
$var reg 16 4 ai0_raw [15:0] $end
$var reg 2 5 ai_map_mode [1:0] $end
$var integer 32 6 ao0_change_count [31:0] $end
$var integer 32 7 avg_seg1 [31:0] $end
$var integer 32 8 avg_seg2 [31:0] $end
$var integer 32 9 avg_state0 [31:0] $end
$var integer 32 : avg_state1 [31:0] $end
$var integer 32 ; avg_state2 [31:0] $end
$var integer 32 < avg_state3 [31:0] $end
$var reg 8 = cfg_FBK [7:0] $end
$var reg 8 > cfg_FBK2 [7:0] $end
$var reg 10 ? cfg_N [9:0] $end
$var reg 14 @ cfg_VDARef [13:0] $end
$var reg 1 A cfg_apply $end
$var reg 1 B clk $end
$var integer 32 C cycles_after_ready [31:0] $end
$var reg 16 D daout_prev [15:0] $end
$var integer 32 E drift_code [31:0] $end
$var integer 32 F errors [31:0] $end
$var integer 32 G gyro_code [31:0] $end
$var integer 32 H gyro_segment [31:0] $end
$var integer 32 I idx [31:0] $end
$var integer 32 J log_fd [31:0] $end
$var reg 1 K rst_n $end
$var integer 32 L signed_code [31:0] $end
$var integer 32 M state_seen_mask [31:0] $end
$scope module u_map $end
$var wire 16 N ai_raw [15:0] $end
$var wire 2 O map_mode [1:0] $end
$var reg 12 P adin [11:0] $end
$var reg 16 Q mapped_tmp [15:0] $end
$upscope $end
$scope module dut $end
$var wire 8 R FBK [7:0] $end
$var wire 8 S FBK2 [7:0] $end
$var wire 10 T N [9:0] $end
$var wire 14 U VDARef [13:0] $end
$var wire 1 ! adclk $end
$var wire 12 V adin [11:0] $end
$var wire 8 W cfg_FBK [7:0] $end
$var wire 8 X cfg_FBK2 [7:0] $end
$var wire 10 Y cfg_N [9:0] $end
$var wire 14 Z cfg_VDARef [13:0] $end
$var wire 1 [ cfg_apply $end
$var wire 1 \ clk $end
$var wire 32 ] closed_loop_drive [31:0] $end
$var wire 9 ^ counter [8:0] $end
$var wire 10 _ counterN [9:0] $end
$var wire 10 ` counterN_dbg [9:0] $end
$var wire 9 a counter_dbg [8:0] $end
$var wire 32 b dRotateOut [31:0] $end
$var wire 32 c dRotateOutFBK [31:0] $end
$var wire 32 d dVrefOut [31:0] $end
$var wire 32 e dVrefOutFBK [31:0] $end
$var wire 1 % daclk $end
$var wire 16 f daout [15:0] $end
$var wire 32 g drotate_dbg [31:0] $end
$var wire 32 h dvref_dbg [31:0] $end
$var wire 1 i ena $end
$var wire 32 j first_loop_drive [31:0] $end
$var wire 1 k intena $end
$var wire 1 l intena0 $end
$var wire 32 m intsout [31:0] $end
$var wire 32 n intsout_dbg [31:0] $end
$var wire 1 o ladena1 $end
$var wire 1 p ladena2 $end
$var wire 16 q pintout [15:0] $end
$var wire 1 r random $end
$var wire 1 * ready $end
$var wire 1 s rst_n $end
$var wire 1 t sdaSend $end
$var wire 1 + sdaclk $end
$var wire 1 , sdacs $end
$var wire 1 - sdaout $end
$var wire 32 u second_loop_drive [31:0] $end
$var wire 1 . sn $end
$var wire 1 / sp $end
$var wire 16 v sp_sn_value [15:0] $end
$var wire 2 w state [1:0] $end
$var wire 2 x state_dbg [1:0] $end
$var wire 1 y sys_rst $end
$var wire 12 z tauCounter [11:0] $end
$var wire 12 { tau_dbg [11:0] $end
$var wire 1 | updown $end
$var wire 16 } vref_word [15:0] $end
$var reg 8 ~ cfg_fbk2_reg [7:0] $end
$var reg 8 !" cfg_fbk_reg [7:0] $end
$var reg 10 "" cfg_n_reg [9:0] $end
$var reg 2 #" cfg_reset_hold [1:0] $end
$var reg 14 $" cfg_vdaref_reg [13:0] $end
$scope module asrst_core $end
$var wire 1 \ clk $end
$var wire 1 %" rst_n $end
$var reg 1 &" rst_nr1 $end
$var reg 1 '" rst_nr2 $end
$upscope $end
$scope module gclk $end
$var wire 10 (" N [9:0] $end
$var wire 1 ! adclk $end
$var wire 1 \ clk $end
$var wire 1 i ena $end
$var wire 1 y rst $end
$var reg 9 )" counter [8:0] $end
$var reg 10 *" counterN [9:0] $end
$var reg 1 +" daclk $end
$var reg 1 ," daclk1 $end
$var reg 1 -" daclk2 $end
$var reg 1 ." intena $end
$var reg 1 /" intena0 $end
$var reg 1 0" ladena1 $end
$var reg 1 1" ladena2 $end
$var reg 2 2" state [1:0] $end
$upscope $end
$scope module dmt $end
$var wire 10 3" N [9:0] $end
$var wire 12 4" adin [11:0] $end
$var wire 8 5" cfg_delay1 [7:0] $end
$var wire 8 6" cfg_delay2 [7:0] $end
$var wire 8 7" cfg_delayAD [7:0] $end
$var wire 8 8" cfg_reserveN [7:0] $end
$var wire 12 9" cfg_sft_pd [11:0] $end
$var wire 1 \ clk $end
$var wire 9 :" counter [8:0] $end
$var wire 10 ;" counterN [9:0] $end
$var wire 10 <" delay1w [9:0] $end
$var wire 10 =" delay2w [9:0] $end
$var wire 10 >" delayADw [9:0] $end
$var wire 10 ?" delaySum [9:0] $end
$var wire 1 i ena $end
$var wire 10 @" halfN [9:0] $end
$var wire 10 A" reserveNw [9:0] $end
$var wire 1 y rst $end
$var wire 2 B" state [1:0] $end
$var wire 12 C" tauCounter [11:0] $end
$var wire 1 | updown $end
$var reg 32 D" dRotateOut [31:0] $end
$var reg 32 E" dVrefOut [31:0] $end
$var reg 1 F" random $end
$var reg 1 G" randomPre $end
$upscope $end
$scope module dmk $end
$var wire 8 H" FBK [7:0] $end
$var wire 1 \ clk $end
$var wire 24 I" dRotateOut24 [23:0] $end
$var wire 32 J" dRotateOutFBK [31:0] $end
$var wire 1 l intena0 $end
$var wire 33 K" mult_FBK [32:0] $end
$var wire 1 y rst $end
$var reg 33 L" mult_FBK_R [32:0] $end
$upscope $end
$scope module dmk2 $end
$var wire 8 M" FBK [7:0] $end
$var wire 1 \ clk $end
$var wire 24 N" dRotateOut24 [23:0] $end
$var wire 32 O" dRotateOutFBK [31:0] $end
$var wire 1 l intena0 $end
$var wire 33 P" mult_FBK [32:0] $end
$var wire 1 y rst $end
$var reg 33 Q" mult_FBK_R [32:0] $end
$upscope $end
$scope module itg $end
$var wire 1 \ clk $end
$var wire 32 R" dRotateOut [31:0] $end
$var wire 1 k intena $end
$var wire 1 y rst $end
$var wire 32 S" sum [31:0] $end
$var reg 32 T" intsout [31:0] $end
$upscope $end
$scope module ldp $end
$var wire 16 U" cfg_PI [15:0] $end
$var wire 16 V" cfg_PIb [15:0] $end
$var wire 16 W" cfg_PIbpPI [15:0] $end
$var wire 12 X" cfg_sft_pd [11:0] $end
$var wire 1 \ clk $end
$var wire 1 o ladena1 $end
$var wire 1 p ladena2 $end
$var wire 32 Y" ladin [31:0] $end
$var wire 1 r random $end
$var wire 1 y rst $end
$var wire 2 Z" state [1:0] $end
$var reg 16 [" ladout [15:0] $end
$var reg 32 \" ladreg [31:0] $end
$var reg 32 ]" ladtmp [31:0] $end
$var reg 12 ^" tauCounter [11:0] $end
$var reg 1 _" updown $end
$upscope $end
$scope module pint $end
$var wire 10 `" N [9:0] $end
$var wire 14 a" VDARef [13:0] $end
$var wire 1 \ clk $end
$var wire 9 b" counter [8:0] $end
$var wire 32 c" dVrefOut [31:0] $end
$var wire 1 i ena $end
$var wire 16 d" pintout [15:0] $end
$var wire 1 y rst $end
$var wire 2 e" state [1:0] $end
$var reg 16 f" pintoutpre [15:0] $end
$var reg 40 g" pintreg [39:0] $end
$var reg 1 h" sdaSend $end
$upscope $end
$scope module sdo $end
$var wire 10 i" N [9:0] $end
$var wire 1 \ clk $end
$var wire 10 j" counterN [9:0] $end
$var wire 16 k" pintout [15:0] $end
$var wire 1 y rst $end
$var wire 1 t sdaSend $end
$var wire 1 - sdaout $end
$var reg 1 l" finish $end
$var reg 1 m" sdaclk $end
$var reg 1 n" sdacs $end
$var reg 16 o" sdaoutbuf [15:0] $end
$var reg 4 p" shout_state [3:0] $end
$upscope $end
$scope module agowc $end
$var wire 10 q" N [9:0] $end
$var wire 1 \ clk $end
$var wire 10 r" counterN [9:0] $end
$var wire 32 s" intsout [31:0] $end
$var wire 4 t" pulseWidthSafe [3:0] $end
$var wire 8 u" pulseWidthTwice [7:0] $end
$var wire 10 v" pulseWindowLimit [9:0] $end
$var wire 32 w" pulse_k [31:0] $end
$var wire 4 x" pulse_width [3:0] $end
$var wire 1 y rst $end
$var wire 40 y" sum1 [39:0] $end
$var wire 40 z" sum2 [39:0] $end
$var reg 40 {" anglereg [39:0] $end
$var reg 8 |" smallCounter [7:0] $end
$var reg 1 }" sn $end
$var reg 1 ~" sp $end
$upscope $end
$upscope $end
$upscope $end
$enddefinitions $end
#0
$dumpvars
0~"
0}"
b0 |"
b0 {"
b1111111111111111110110001111000000000000 z"
b1001110001000000000000 y"
b10 x"
b1001110001000000000000 w"
b10100110 v"
b100 u"
b10 t"
b0 s"
b0 r"
b10101010 q"
b0 p"
b0 o"
1n"
0m"
1l"
bx k"
b0 j"
b10101010 i"
xh"
bx g"
bx f"
b0 e"
bx d"
b0 c"
b0 b"
b11001111100000 a"
b10101010 `"
0_"
b0 ^"
b0 ]"
b0 \"
b0 ["
b0 Z"
b0 Y"
b111111111111 X"
b100001000010 W"
b101101011010110 V"
b101001010010100 U"
b0 T"
b0 S"
b0 R"
b0 Q"
b0 P"
b0 O"
b0 N"
b100000 M"
b0 L"
b0 K"
b0 J"
b0 I"
b1100100 H"
0G"
0F"
b0 E"
b0 D"
b0 C"
b0 B"
b111 A"
b1010101 @"
b101000 ?"
b1000 >"
b10010 ="
b100000 <"
b0 ;"
b0 :"
b111111111111 9"
b111 8"
b1000 7"
b10010 6"
b100000 5"
b100000000000 4"
b10101010 3"
b0 2"
01"
00"
0/"
0."
0-"
0,"
0+"
b0 *"
b0 )"
b10101010 ("
0'"
0&"
0%"
b11001111100000 $"
b0 #"
b10101010 ""
b1100100 !"
b100000 ~
bx }
0|
b0 {
b0 z
0y
b0 x
b0 w
b0 v
b0 u
xt
0s
0r
bx q
0p
0o
b0 n
b0 m
0l
0k
b0 j
1i
b0 h
b0 g
b0 f
b0 e
b0 d
b0 c
b0 b
b0 a
b0 `
b0 _
b0 ^
b0 ]
0\
0[
b11001111100000 Z
b10101010 Y
b100000 X
b1100100 W
b100000000000 V
b11001111100000 U
b10101010 T
b100000 S
b1100100 R
b100000000000 Q
b100000000000 P
b1 O
b0 N
b0 M
b0 L
0K
b10000000000000000000000000000011 J
b11 I
b0 H
b0 G
b0 F
b0 E
b0 D
b0 C
0B
0A
b11001111100000 @
b10101010 ?
b100000 >
b1100100 =
b0 <
b0 ;
b0 :
b0 9
b0 8
b0 7
b0 6
b1 5
b0 4
bx 3
b0 2
b0 1
b0 0
0/
0.
0-
1,
0+
0*
b0 )
b0 (
b0 '
b0 &
0%
b0 $
b0 #
b100000000000 "
0!
$end
#12500
b1100111110000000 q
b1100111110000000 d"
b1100111110000000 k"
b1100111110000000 3
b1100111110000000 }
1h"
1t
b0 f"
b1100111110000000000000000000000000000000 g"
1B
1\
1!
#25000
0B
0\
0!
#37500
1B
1\
1!
#50000
0B
0\
0!
#62500
1B
1\
1!
#75000
0B
0\
0!
#87500
1B
1\
1!
#100000
0B
0\
0!
1K
1s
#112500
b1 #"
1B
1\
1!
#125000
0B
0\
0!
#137500
1%"
b10 #"
1B
1\
1!
#150000
0B
0\
0!
#162500
1&"
b11 #"
1B
1\
1!
#175000
0B
0\
0!
#187500
1'"
1y
1*
1B
1\
1!
#200000
1-"
0B
0\
0!
#212500
1+"
1%
b11111010000 P
b11111010000 "
b11111010000 V
b11111010000 4"
b11111010000 Q
1,"
b1 *"
b1 _
b1 ;"
b1 j"
b1 r"
b1 #
b1 `
b1 )"
b1 ^
b1 :"
b1 b"
b1 $
b1 a
b1111111101000000 4
b1111111101000000 N
b1 M
b1 C
b11111111111111111111111111010000 L
b11111111111111111111111111010000 E
1B
1\
1!
#225000
0B
0\
0!
#237500
b11111010001 P
b11111010001 "
b11111010001 V
b11111010001 4"
b11111010001 Q
b10 )"
b10 ^
b10 :"
b10 b"
b10 $
b10 a
b10 *"
b10 _
b10 ;"
b10 j"
b10 r"
b10 #
b10 `
b1 M
b10 C
b1111111101000100 4
b1111111101000100 N
b11111111111111111111111111010001 L
b11111111111111111111111111010001 E
1B
1\
1!
#250000
0B
0\
0!
#262500
b11111010010 P
b11111010010 "
b11111010010 V
b11111010010 4"
b11111010010 Q
b11 *"
b11 _
b11 ;"
b11 j"
b11 r"
b11 #
b11 `
b11 )"
b11 ^
b11 :"
b11 b"
b11 $
b11 a
b1111111101001000 4
b1111111101001000 N
b1 M
b11 C
b11111111111111111111111111010010 L
b11111111111111111111111111010010 E
1B
1\
1!
#275000
0B
0\
0!
#287500
b11111010011 P
b11111010011 "
b11111010011 V
b11111010011 4"
b11111010011 Q
b100 )"
b100 ^
b100 :"
b100 b"
b100 $
b100 a
b100 *"
b100 _
b100 ;"
b100 j"
b100 r"
b100 #
b100 `
b1 M
b100 C
b1111111101001100 4
b1111111101001100 N
1A
1[
b11111111111111111111111111010011 L
b11111111111111111111111111010011 E
1B
1\
1!
#300000
0B
0\
0!
#312500
0+"
0%
0,"
0-"
0&"
0'"
0y
0*
0%"
b11111010100 P
b11111010100 "
b11111010100 V
b11111010100 4"
b11111010100 Q
b0 |"
b0 *"
b0 _
b0 ;"
b0 j"
b0 r"
b0 #
b0 `
b0 )"
b0 ^
b0 :"
b0 b"
b0 $
b0 a
b1111111101010000 4
b1111111101010000 N
b1 M
b101 C
b0 #"
b11111111111111111111111111010100 L
b11111111111111111111111111010100 E
0A
0[
1B
1\
1!
#325000
0B
0\
0!
#337500
b100000000000 P
b100000000000 "
b100000000000 V
b100000000000 4"
b100000000000 Q
b0 M
b0 C
b0 4
b0 N
b1 #"
1B
1\
1!
#350000
0B
0\
0!
#362500
1%"
b10 #"
1B
1\
1!
#375000
0B
0\
0!
#387500
1&"
b11 #"
1B
1\
1!
#400000
0B
0\
0!
#412500
1'"
1y
1*
1B
1\
1!
#425000
1-"
0B
0\
0!
#437500
1+"
1%
b11111010000 P
b11111010000 "
b11111010000 V
b11111010000 4"
b11111010000 Q
1,"
b1 *"
b1 _
b1 ;"
b1 j"
b1 r"
b1 #
b1 `
b1 )"
b1 ^
b1 :"
b1 b"
b1 $
b1 a
b1 M
b1 C
b1111111101000000 4
b1111111101000000 N
b11111111111111111111111111010000 L
b11111111111111111111111111010000 E
1B
1\
1!
#450000
0B
0\
0!
#462500
b11111010001 P
b11111010001 "
b11111010001 V
b11111010001 4"
b11111010001 Q
b10 )"
b10 ^
b10 :"
b10 b"
b10 $
b10 a
b10 *"
b10 _
b10 ;"
b10 j"
b10 r"
b10 #
b10 `
b1111111101000100 4
b1111111101000100 N
b1 M
b10 C
b11111111111111111111111111010001 L
b11111111111111111111111111010001 E
1B
1\
1!
#475000
0B
0\
0!
#487500
b11111010010 P
b11111010010 "
b11111010010 V
b11111010010 4"
b11111010010 Q
b11 *"
b11 _
b11 ;"
b11 j"
b11 r"
b11 #
b11 `
b11 )"
b11 ^
b11 :"
b11 b"
b11 $
b11 a
b1 M
b11 C
b1111111101001000 4
b1111111101001000 N
b11111111111111111111111111010010 L
b11111111111111111111111111010010 E
1B
1\
1!
#500000
0B
0\
0!
#512500
b11111010011 P
b11111010011 "
b11111010011 V
b11111010011 4"
b11111010011 Q
b100 )"
b100 ^
b100 :"
b100 b"
b100 $
b100 a
b100 *"
b100 _
b100 ;"
b100 j"
b100 r"
b100 #
b100 `
b1111111101001100 4
b1111111101001100 N
b1 M
b100 C
b11111111111111111111111111010011 L
b11111111111111111111111111010011 E
1B
1\
1!
#525000
0B
0\
0!
#537500
b11111010100 P
b11111010100 "
b11111010100 V
b11111010100 4"
b11111010100 Q
b1 |"
b101 *"
b101 _
b101 ;"
b101 j"
b101 r"
b101 #
b101 `
b101 )"
b101 ^
b101 :"
b101 b"
b101 $
b101 a
b1 M
b101 C
b1111111101010000 4
b1111111101010000 N
b11111111111111111111111111010100 L
b11111111111111111111111111010100 E
1B
1\
1!
#550000
0B
0\
0!
#562500
b11111010101 P
b11111010101 "
b11111010101 V
b11111010101 4"
b11111010101 Q
b110 )"
b110 ^
b110 :"
b110 b"
b110 $
b110 a
b110 *"
b110 _
b110 ;"
b110 j"
b110 r"
b110 #
b110 `
b10 |"
b1111111101010100 4
b1111111101010100 N
b1 M
b110 C
b11111111111111111111111111010101 L
b11111111111111111111111111010101 E
1B
1\
1!
#575000
0B
0\
0!
#587500
b11111010110 P
b11111010110 "
b11111010110 V
b11111010110 4"
b11111010110 Q
b11 |"
b111 *"
b111 _
b111 ;"
b111 j"
b111 r"
b111 #
b111 `
b111 )"
b111 ^
b111 :"
b111 b"
b111 $
b111 a
b1 M
b111 C
b1111111101011000 4
b1111111101011000 N
b11111111111111111111111111010110 L
b11111111111111111111111111010110 E
1B
1\
1!
#600000
0B
0\
0!
#612500
b11111010111 P
b11111010111 "
b11111010111 V
b11111010111 4"
b11111010111 Q
b1000 )"
b1000 ^
b1000 :"
b1000 b"
b1000 $
b1000 a
b1000 *"
b1000 _
b1000 ;"
b1000 j"
b1000 r"
b1000 #
b1000 `
b100 |"
b1111111101011100 4
b1111111101011100 N
b1 M
b1000 C
b11111111111111111111111111010111 L
b11111111111111111111111111010111 E
1B
1\
1!
#625000
0B
0\
0!
#637500
1-
b11111011000 P
b11111011000 "
b11111011000 V
b11111011000 4"
b11111011000 Q
b1 |"
0l"
0n"
0,
b1100111110000000 o"
b1001 *"
b1001 _
b1001 ;"
b1001 j"
b1001 r"
b1001 #
b1001 `
b1001 )"
b1001 ^
b1001 :"
b1001 b"
b1001 $
b1001 a
b1 M
b1001 C
b1111111101100000 4
b1111111101100000 N
b11111111111111111111111111011000 L
b11111111111111111111111111011000 E
1B
1\
1!
#650000
0B
0\
0!
#662500
b11111011001 P
b11111011001 "
b11111011001 V
b11111011001 4"
b11111011001 Q
b1010 )"
b1010 ^
b1010 :"
b1010 b"
b1010 $
b1010 a
b1010 *"
b1010 _
b1010 ;"
b1010 j"
b1010 r"
b1010 #
b1010 `
b10 |"
b1111111101100100 4
b1111111101100100 N
b1 M
b1010 C
b11111111111111111111111111011001 L
b11111111111111111111111111011001 E
1B
1\
1!
#675000
0B
0\
0!
#687500
b11111011010 P
b11111011010 "
b11111011010 V
b11111011010 4"
b11111011010 Q
b11 |"
b1011 *"
b1011 _
b1011 ;"
b1011 j"
b1011 r"
b1011 #
b1011 `
b1011 )"
b1011 ^
b1011 :"
b1011 b"
b1011 $
b1011 a
b1 M
b1011 C
b1111111101101000 4
b1111111101101000 N
b11111111111111111111111111011010 L
b11111111111111111111111111011010 E
1B
1\
1!
#700000
0B
0\
0!
#712500
b11111011011 P
b11111011011 "
b11111011011 V
b11111011011 4"
b11111011011 Q
b1100 )"
b1100 ^
b1100 :"
b1100 b"
b1100 $
b1100 a
b1100 *"
b1100 _
b1100 ;"
b1100 j"
b1100 r"
b1100 #
b1100 `
b100 |"
b1111111101101100 4
b1111111101101100 N
b1 M
b1100 C
b11111111111111111111111111011011 L
b11111111111111111111111111011011 E
1B
1\
1!
#725000
0B
0\
0!
#737500
b11111011100 P
b11111011100 "
b11111011100 V
b11111011100 4"
b11111011100 Q
b1 |"
1m"
1+
b1101 *"
b1101 _
b1101 ;"
b1101 j"
b1101 r"
b1101 #
b1101 `
b1101 )"
b1101 ^
b1101 :"
b1101 b"
b1101 $
b1101 a
b1 M
b1101 C
b1111111101110000 4
b1111111101110000 N
0h"
0t
b11111111111111111111111111011100 L
b11111111111111111111111111011100 E
1B
1\
1!
#750000
0B
0\
0!
#762500
b11111011101 P
b11111011101 "
b11111011101 V
b11111011101 4"
b11111011101 Q
b1110 )"
b1110 ^
b1110 :"
b1110 b"
b1110 $
b1110 a
b1110 *"
b1110 _
b1110 ;"
b1110 j"
b1110 r"
b1110 #
b1110 `
b10 |"
b1111111101110100 4
b1111111101110100 N
b1 M
b1110 C
b11111111111111111111111111011101 L
b11111111111111111111111111011101 E
1B
1\
1!
#775000
0B
0\
0!
#787500
b11111011110 P
b11111011110 "
b11111011110 V
b11111011110 4"
b11111011110 Q
b11 |"
b1111 *"
b1111 _
b1111 ;"
b1111 j"
b1111 r"
b1111 #
b1111 `
b1111 )"
b1111 ^
b1111 :"
b1111 b"
b1111 $
b1111 a
b1 M
b1111 C
b1111111101111000 4
b1111111101111000 N
b11111111111111111111111111011110 L
b11111111111111111111111111011110 E
1B
1\
1!
#800000
0B
0\
0!
#812500
b11111011111 P
b11111011111 "
b11111011111 V
b11111011111 4"
b11111011111 Q
b10000 )"
b10000 ^
b10000 :"
b10000 b"
b10000 $
b10000 a
b10000 *"
b10000 _
b10000 ;"
b10000 j"
b10000 r"
b10000 #
b10000 `
b100 |"
b1111111101111100 4
b1111111101111100 N
b1 M
b10000 C
b11111111111111111111111111011111 L
b11111111111111111111111111011111 E
1B
1\
1!
#825000
0B
0\
0!
#837500
b11111100000 P
b11111100000 "
b11111100000 V
b11111100000 4"
b11111100000 Q
b1 |"
0m"
0+
b1 p"
b1001111100000000 o"
b10001 *"
b10001 _
b10001 ;"
b10001 j"
b10001 r"
b10001 #
b10001 `
b10001 )"
b10001 ^
b10001 :"
b10001 b"
b10001 $
b10001 a
b1 M
b10001 C
b1111111110000000 4
b1111111110000000 N
b11111111111111111111111111100000 L
b11111111111111111111111111100000 E
1B
1\
1!
#850000
0B
0\
0!
#862500
b11111100001 P
b11111100001 "
b11111100001 V
b11111100001 4"
b11111100001 Q
b10010 )"
b10010 ^
b10010 :"
b10010 b"
b10010 $
b10010 a
b10010 *"
b10010 _
b10010 ;"
b10010 j"
b10010 r"
b10010 #
b10010 `
b10 |"
b1111111110000100 4
b1111111110000100 N
b1 M
b10010 C
b11111111111111111111111111100001 L
b11111111111111111111111111100001 E
1B
1\
1!
#875000
0B
0\
0!
#887500
b11111100010 P
b11111100010 "
b11111100010 V
b11111100010 4"
b11111100010 Q
b11 |"
b10011 *"
b10011 _
b10011 ;"
b10011 j"
b10011 r"
b10011 #
b10011 `
b10011 )"
b10011 ^
b10011 :"
b10011 b"
b10011 $
b10011 a
b1 M
b10011 C
b1111111110001000 4
b1111111110001000 N
b11111111111111111111111111100010 L
b11111111111111111111111111100010 E
1B
1\
1!
#900000
0B
0\
0!
#912500
b11111100011 P
b11111100011 "
b11111100011 V
b11111100011 4"
b11111100011 Q
b10100 )"
b10100 ^
b10100 :"
b10100 b"
b10100 $
b10100 a
b10100 *"
b10100 _
b10100 ;"
b10100 j"
b10100 r"
b10100 #
b10100 `
b100 |"
b1111111110001100 4
b1111111110001100 N
b1 M
b10100 C
b11111111111111111111111111100011 L
b11111111111111111111111111100011 E
1B
1\
1!
#925000
0B
0\
0!
#937500
b11111100100 P
b11111100100 "
b11111100100 V
b11111100100 4"
b11111100100 Q
b1 |"
1m"
1+
b10101 *"
b10101 _
b10101 ;"
b10101 j"
b10101 r"
b10101 #
b10101 `
b10101 )"
b10101 ^
b10101 :"
b10101 b"
b10101 $
b10101 a
b1 M
b10101 C
b1111111110010000 4
b1111111110010000 N
b11111111111111111111111111100100 L
b11111111111111111111111111100100 E
1B
1\
1!
#950000
0B
0\
0!
#962500
b11111100101 P
b11111100101 "
b11111100101 V
b11111100101 4"
b11111100101 Q
b10110 )"
b10110 ^
b10110 :"
b10110 b"
b10110 $
b10110 a
b10110 *"
b10110 _
b10110 ;"
b10110 j"
b10110 r"
b10110 #
b10110 `
b10 |"
b1111111110010100 4
b1111111110010100 N
b1 M
b10110 C
b11111111111111111111111111100101 L
b11111111111111111111111111100101 E
1B
1\
1!
#975000
0B
0\
0!
#987500
b11111100110 P
b11111100110 "
b11111100110 V
b11111100110 4"
b11111100110 Q
b11 |"
b10111 *"
b10111 _
b10111 ;"
b10111 j"
b10111 r"
b10111 #
b10111 `
b10111 )"
b10111 ^
b10111 :"
b10111 b"
b10111 $
b10111 a
b1 M
b10111 C
b1111111110011000 4
b1111111110011000 N
b11111111111111111111111111100110 L
b11111111111111111111111111100110 E
1B
1\
1!
#1000000
0B
0\
0!
#1012500
b11111100111 P
b11111100111 "
b11111100111 V
b11111100111 4"
b11111100111 Q
b11000 )"
b11000 ^
b11000 :"
b11000 b"
b11000 $
b11000 a
b11000 *"
b11000 _
b11000 ;"
b11000 j"
b11000 r"
b11000 #
b11000 `
b100 |"
b1111111110011100 4
b1111111110011100 N
b1 M
b11000 C
b11111111111111111111111111100111 L
b11111111111111111111111111100111 E
1B
1\
1!
#1025000
0B
0\
0!
#1037500
0-
b11111101000 P
b11111101000 "
b11111101000 V
b11111101000 4"
b11111101000 Q
b1 |"
0m"
0+
b10 p"
b11111000000000 o"
b11001 *"
b11001 _
b11001 ;"
b11001 j"
b11001 r"
b11001 #
b11001 `
b11001 )"
b11001 ^
b11001 :"
b11001 b"
b11001 $
b11001 a
b1 M
b11001 C
b1111111110100000 4
b1111111110100000 N
b11111111111111111111111111101000 L
b11111111111111111111111111101000 E
1B
1\
1!
#1050000
0B
0\
0!
#1062500
b11111101001 P
b11111101001 "
b11111101001 V
b11111101001 4"
b11111101001 Q
b11010 )"
b11010 ^
b11010 :"
b11010 b"
b11010 $
b11010 a
b11010 *"
b11010 _
b11010 ;"
b11010 j"
b11010 r"
b11010 #
b11010 `
b10 |"
b1111111110100100 4
b1111111110100100 N
b1 M
b11010 C
b11111111111111111111111111101001 L
b11111111111111111111111111101001 E
1B
1\
1!
#1075000
0B
0\
0!
#1087500
b11111101010 P
b11111101010 "
b11111101010 V
b11111101010 4"
b11111101010 Q
b11 |"
b11011 *"
b11011 _
b11011 ;"
b11011 j"
b11011 r"
b11011 #
b11011 `
b11011 )"
b11011 ^
b11011 :"
b11011 b"
b11011 $
b11011 a
b1 M
b11011 C
b1111111110101000 4
b1111111110101000 N
b11111111111111111111111111101010 L
b11111111111111111111111111101010 E
1B
1\
1!
#1100000
0B
0\
0!
#1112500
b11111101011 P
b11111101011 "
b11111101011 V
b11111101011 4"
b11111101011 Q
b11100 )"
b11100 ^
b11100 :"
b11100 b"
b11100 $
b11100 a
b11100 *"
b11100 _
b11100 ;"
b11100 j"
b11100 r"
b11100 #
b11100 `
b100 |"
b1111111110101100 4
b1111111110101100 N
b1 M
b11100 C
b11111111111111111111111111101011 L
b11111111111111111111111111101011 E
1B
1\
1!
#1125000
0B
0\
0!
#1137500
b11111101100 P
b11111101100 "
b11111101100 V
b11111101100 4"
b11111101100 Q
b1 |"
1m"
1+
b11101 *"
b11101 _
b11101 ;"
b11101 j"
b11101 r"
b11101 #
b11101 `
b11101 )"
b11101 ^
b11101 :"
b11101 b"
b11101 $
b11101 a
b1 M
b11101 C
b1111111110110000 4
b1111111110110000 N
b11111111111111111111111111101100 L
b11111111111111111111111111101100 E
1B
1\
1!
#1150000
0B
0\
0!
#1162500
b11111101101 P
b11111101101 "
b11111101101 V
b11111101101 4"
b11111101101 Q
b11110 )"
b11110 ^
b11110 :"
b11110 b"
b11110 $
b11110 a
b11110 *"
b11110 _
b11110 ;"
b11110 j"
b11110 r"
b11110 #
b11110 `
b10 |"
b1111111110110100 4
b1111111110110100 N
b1 M
b11110 C
b11111111111111111111111111101101 L
b11111111111111111111111111101101 E
1B
1\
1!
#1175000
0B
0\
0!
#1187500
b11111101110 P
b11111101110 "
b11111101110 V
b11111101110 4"
b11111101110 Q
b11 |"
b11111 *"
b11111 _
b11111 ;"
b11111 j"
b11111 r"
b11111 #
b11111 `
b11111 )"
b11111 ^
b11111 :"
b11111 b"
b11111 $
b11111 a
b1 M
b11111 C
b1111111110111000 4
b1111111110111000 N
b11111111111111111111111111101110 L
b11111111111111111111111111101110 E
1B
1\
1!
#1200000
0B
0\
0!
#1212500
b11111101111 P
b11111101111 "
b11111101111 V
b11111101111 4"
b11111101111 Q
b100000 )"
b100000 ^
b100000 :"
b100000 b"
b100000 $
b100000 a
b100000 *"
b100000 _
b100000 ;"
b100000 j"
b100000 r"
b100000 #
b100000 `
b100 |"
b1111111110111100 4
b1111111110111100 N
b1 M
b100000 C
b11111111111111111111111111101111 L
b11111111111111111111111111101111 E
1B
1\
1!
#1225000
0B
0\
0!
#1237500
b11111110000 P
b11111110000 "
b11111110000 V
b11111110000 4"
b11111110000 Q
b1 |"
0m"
0+
b11 p"
b111110000000000 o"
b100001 *"
b100001 _
b100001 ;"
b100001 j"
b100001 r"
b100001 #
b100001 `
b100001 )"
b100001 ^
b100001 :"
b100001 b"
b100001 $
b100001 a
b1 M
b100001 C
b1111111111000000 4
b1111111111000000 N
b11111111111111111111111111110000 L
b11111111111111111111111111110000 E
1B
1\
1!
#1250000
0B
0\
0!
