sim/icarus/tb_fog_core_ni7966r_ni5781_lv_adapter.vcd
$date
	Fri Apr 17 13:31:19 2026
$end
$version
	Icarus Verilog
$end
$timescale
	1ps
$end
$scope module tb_fog_core_ni7966r_ni5781_lv_adapter $end
$var wire 12 ! adin_dbg [11:0] $end
$var wire 16 " ao0_raw [15:0] $end
$var wire 16 # ao1_raw [15:0] $end
$var wire 1 $ dio_sn $end
$var wire 1 % dio_sp $end
$var wire 2 & state_dbg [1:0] $end
$var wire 1 ' status_ready $end
$var reg 16 ( ai0_raw [15:0] $end
$var reg 16 ) ai1_raw [15:0] $end
$var reg 2 * ai_map_mode [1:0] $end
$var integer 32 + ao0_change_count [31:0] $end
$var reg 16 , ao0_prev [15:0] $end
$var reg 8 - cfg_FBK [7:0] $end
$var reg 8 . cfg_FBK2 [7:0] $end
$var reg 10 / cfg_N [9:0] $end
$var reg 14 0 cfg_VDARef [13:0] $end
$var reg 1 1 cfg_apply $end
$var reg 1 2 clk $end
$var integer 32 3 cycles_after_ready [31:0] $end
$var integer 32 4 errors [31:0] $end
$var reg 1 5 rst_n $end
$var integer 32 6 state_seen_mask [31:0] $end
$scope module dut $end
$var wire 1 7 adclk_unused $end
$var wire 12 8 adin_dbg [11:0] $end
$var wire 12 9 adin_mapped [11:0] $end
$var wire 16 : ai0_raw [15:0] $end
$var wire 16 ; ai1_raw [15:0] $end
$var wire 2 < ai_map_mode [1:0] $end
$var wire 16 = ao0_raw [15:0] $end
$var wire 16 > ao1_raw [15:0] $end
$var wire 8 ? cfg_FBK [7:0] $end
$var wire 8 @ cfg_FBK2 [7:0] $end
$var wire 10 A cfg_N [9:0] $end
$var wire 14 B cfg_VDARef [13:0] $end
$var wire 1 C cfg_apply $end
$var wire 1 D clk $end
$var wire 10 E counterN_dbg_unused [9:0] $end
$var wire 9 F counter_dbg_unused [8:0] $end
$var wire 1 G daclk_unused $end
$var wire 1 $ dio_sn $end
$var wire 1 % dio_sp $end
$var wire 32 H drotate_dbg_unused [31:0] $end
$var wire 32 I dvref_dbg_unused [31:0] $end
$var wire 32 J intsout_dbg_unused [31:0] $end
$var wire 1 K rst_n $end
$var wire 1 L sdaclk_unused $end
$var wire 1 M sdacs_unused $end
$var wire 1 N sdaout_unused $end
$var wire 2 O state_dbg [1:0] $end
$var wire 1 ' status_ready $end
$var wire 12 P tau_dbg_unused [11:0] $end
$var wire 1 Q unused_ai1 $end
$scope module u_ai_map $end
$var wire 16 R ai_raw [15:0] $end
$var wire 2 S map_mode [1:0] $end
$var reg 12 T adin [11:0] $end
$var reg 16 U mapped_tmp [15:0] $end
$upscope $end
$scope module u_core $end
$var wire 8 V FBK [7:0] $end
$var wire 8 W FBK2 [7:0] $end
$var wire 10 X N [9:0] $end
$var wire 14 Y VDARef [13:0] $end
$var wire 1 7 adclk $end
$var wire 12 Z adin [11:0] $end
$var wire 8 [ cfg_FBK [7:0] $end
$var wire 8 \ cfg_FBK2 [7:0] $end
$var wire 10 ] cfg_N [9:0] $end
$var wire 14 ^ cfg_VDARef [13:0] $end
$var wire 1 C cfg_apply $end
$var wire 1 D clk $end
$var wire 9 _ counter [8:0] $end
$var wire 10 ` counterN [9:0] $end
$var wire 10 a counterN_dbg [9:0] $end
$var wire 9 b counter_dbg [8:0] $end
$var wire 32 c dRotateOut [31:0] $end
$var wire 32 d dRotateOutFBK [31:0] $end
$var wire 32 e dVrefOut [31:0] $end
$var wire 32 f dVrefOutFBK [31:0] $end
$var wire 1 G daclk $end
$var wire 16 g daout [15:0] $end
$var wire 32 h drotate_dbg [31:0] $end
$var wire 32 i dvref_dbg [31:0] $end
$var wire 1 j ena $end
$var wire 1 k intena $end
$var wire 1 l intena0 $end
$var wire 32 m intsout [31:0] $end
$var wire 32 n intsout_dbg [31:0] $end
$var wire 1 o ladena1 $end
$var wire 1 p ladena2 $end
$var wire 16 q pintout [15:0] $end
$var wire 1 r random $end
$var wire 1 ' ready $end
$var wire 1 K rst_n $end
$var wire 1 s sdaSend $end
$var wire 1 L sdaclk $end
$var wire 1 M sdacs $end
$var wire 1 N sdaout $end
$var wire 1 $ sn $end
$var wire 1 % sp $end
$var wire 2 t state [1:0] $end
$var wire 2 u state_dbg [1:0] $end
$var wire 1 v sys_rst $end
$var wire 12 w tauCounter [11:0] $end
$var wire 12 x tau_dbg [11:0] $end
$var wire 1 y updown $end
$var wire 16 z vref_word [15:0] $end
$var reg 8 { cfg_fbk2_reg [7:0] $end
$var reg 8 | cfg_fbk_reg [7:0] $end
$var reg 10 } cfg_n_reg [9:0] $end
$var reg 2 ~ cfg_reset_hold [1:0] $end
$var reg 14 !" cfg_vdaref_reg [13:0] $end
$scope module asrst_core $end
$var wire 1 D clk $end
$var wire 1 "" rst_n $end
$var reg 1 #" rst_nr1 $end
$var reg 1 $" rst_nr2 $end
$upscope $end
$scope module gclk $end
$var wire 10 %" N [9:0] $end
$var wire 1 7 adclk $end
$var wire 1 D clk $end
$var wire 1 j ena $end
$var wire 1 v rst $end
$var reg 9 &" counter [8:0] $end
$var reg 10 '" counterN [9:0] $end
$var reg 1 (" daclk $end
$var reg 1 )" daclk1 $end
$var reg 1 *" daclk2 $end
$var reg 1 +" intena $end
$var reg 1 ," intena0 $end
$var reg 1 -" ladena1 $end
$var reg 1 ." ladena2 $end
$var reg 2 /" state [1:0] $end
$upscope $end
$scope module dmt $end
$var wire 10 0" N [9:0] $end
$var wire 12 1" adin [11:0] $end
$var wire 8 2" cfg_delay1 [7:0] $end
$var wire 8 3" cfg_delay2 [7:0] $end
$var wire 8 4" cfg_delayAD [7:0] $end
$var wire 8 5" cfg_reserveN [7:0] $end
$var wire 12 6" cfg_sft_pd [11:0] $end
$var wire 1 D clk $end
$var wire 9 7" counter [8:0] $end
$var wire 10 8" counterN [9:0] $end
$var wire 10 9" delay1w [9:0] $end
$var wire 10 :" delay2w [9:0] $end
$var wire 10 ;" delayADw [9:0] $end
$var wire 10 <" delaySum [9:0] $end
$var wire 1 j ena $end
$var wire 10 =" halfN [9:0] $end
$var wire 10 >" reserveNw [9:0] $end
$var wire 1 v rst $end
$var wire 2 ?" state [1:0] $end
$var wire 12 @" tauCounter [11:0] $end
$var wire 1 y updown $end
$var reg 32 A" dRotateOut [31:0] $end
$var reg 32 B" dVrefOut [31:0] $end
$var reg 1 C" random $end
$var reg 1 D" randomPre $end
$upscope $end
$scope module dmk $end
$var wire 8 E" FBK [7:0] $end
$var wire 1 D clk $end
$var wire 24 F" dRotateOut24 [23:0] $end
$var wire 32 G" dRotateOutFBK [31:0] $end
$var wire 1 l intena0 $end
$var wire 33 H" mult_FBK [32:0] $end
$var wire 1 v rst $end
$var reg 33 I" mult_FBK_R [32:0] $end
$upscope $end
$scope module dmk_vref $end
$var wire 8 J" FBK [7:0] $end
$var wire 1 D clk $end
$var wire 24 K" dRotateOut24 [23:0] $end
$var wire 32 L" dRotateOutFBK [31:0] $end
$var wire 1 l intena0 $end
$var wire 33 M" mult_FBK [32:0] $end
$var wire 1 v rst $end
$var reg 33 N" mult_FBK_R [32:0] $end
$upscope $end
$scope module itg $end
$var wire 1 D clk $end
$var wire 32 O" dRotateOut [31:0] $end
$var wire 1 k intena $end
$var wire 1 v rst $end
$var wire 32 P" sum [31:0] $end
$var reg 32 Q" intsout [31:0] $end
$upscope $end
$scope module ldp $end
$var wire 16 R" cfg_PI [15:0] $end
$var wire 16 S" cfg_PIb [15:0] $end
$var wire 16 T" cfg_PIbpPI [15:0] $end
$var wire 12 U" cfg_sft_pd [11:0] $end
$var wire 1 D clk $end
$var wire 1 o ladena1 $end
$var wire 1 p ladena2 $end
$var wire 32 V" ladin [31:0] $end
$var wire 1 r random $end
$var wire 1 v rst $end
$var wire 2 W" state [1:0] $end
$var reg 16 X" ladout [15:0] $end
$var reg 32 Y" ladreg [31:0] $end
$var reg 32 Z" ladtmp [31:0] $end
$var reg 12 [" tauCounter [11:0] $end
$var reg 1 \" updown $end
$upscope $end
$scope module pint $end
$var wire 10 ]" N [9:0] $end
$var wire 14 ^" VDARef [13:0] $end
$var wire 1 D clk $end
$var wire 9 _" counter [8:0] $end
$var wire 32 `" dVrefOut [31:0] $end
$var wire 1 j ena $end
$var wire 16 a" pintout [15:0] $end
$var wire 1 v rst $end
$var wire 2 b" state [1:0] $end
$var reg 16 c" pintoutpre [15:0] $end
$var reg 40 d" pintreg [39:0] $end
$var reg 1 e" sdaSend $end
$upscope $end
$scope module sdo $end
$var wire 10 f" N [9:0] $end
$var wire 1 D clk $end
$var wire 10 g" counterN [9:0] $end
$var wire 16 h" pintout [15:0] $end
$var wire 1 v rst $end
$var wire 1 s sdaSend $end
$var wire 1 N sdaout $end
$var reg 1 i" finish $end
$var reg 1 j" sdaclk $end
$var reg 1 k" sdacs $end
$var reg 16 l" sdaoutbuf [15:0] $end
$var reg 4 m" shout_state [3:0] $end
$upscope $end
$scope module agowc $end
$var wire 10 n" N [9:0] $end
$var wire 1 D clk $end
$var wire 10 o" counterN [9:0] $end
$var wire 32 p" intsout [31:0] $end
$var wire 4 q" pulseWidthSafe [3:0] $end
$var wire 8 r" pulseWidthTwice [7:0] $end
$var wire 10 s" pulseWindowLimit [9:0] $end
$var wire 32 t" pulse_k [31:0] $end
$var wire 4 u" pulse_width [3:0] $end
$var wire 1 v rst $end
$var wire 40 v" sum1 [39:0] $end
$var wire 40 w" sum2 [39:0] $end
$var reg 40 x" anglereg [39:0] $end
$var reg 8 y" smallCounter [7:0] $end
$var reg 1 z" sn $end
$var reg 1 {" sp $end
$upscope $end
$upscope $end
$upscope $end
$upscope $end
$enddefinitions $end
#0
$dumpvars
0{"
0z"
b0 y"
b0 x"
bx w"
bx v"
bz u"
bz t"
bx s"
b0xxxx0 r"
bx q"
b0 p"
b0 o"
bz n"
b0 m"
b0 l"
1k"
0j"
1i"
bx h"
b0 g"
b10101010 f"
xe"
bx d"
bx c"
b0 b"
bx a"
b0 `"
b0 _"
b11001111100000 ^"
b10101010 ]"
0\"
b0 ["
b0 Z"
b0 Y"
b0 X"
b0 W"
b0 V"
b111111111111 U"
b100001000010 T"
b101101011010110 S"
b101001010010100 R"
b0 Q"
b0 P"
b0 O"
b0 N"
b0 M"
b0 L"
b0 K"
b100000 J"
b0 I"
b0 H"
b0 G"
b0 F"
b1100100 E"
0D"
0C"
b0 B"
b0 A"
b0 @"
b0 ?"
b0zzzzzzzz >"
b1010101 ="
bx <"
b0zzzzzzzz ;"
b0zzzzzzzz :"
b0zzzzzzzz 9"
b0 8"
b0 7"
bz 6"
bz 5"
bz 4"
bz 3"
bz 2"
b100000000000 1"
b10101010 0"
b0 /"
0."
0-"
0,"
0+"
0*"
0)"
0("
b0 '"
b0 &"
b10101010 %"
0$"
0#"
0""
b11001111100000 !"
b0 ~
b10101010 }
b1100100 |
b100000 {
bx z
0y
b0 x
b0 w
0v
b0 u
b0 t
xs
0r
bx q
0p
0o
b0 n
b0 m
0l
0k
1j
b0 i
b0 h
b0 g
b0 f
b0 e
b0 d
b0 c
b0 b
b0 a
b0 `
b0 _
b11001111100000 ^
b10101010 ]
b100000 \
b1100100 [
b100000000000 Z
b11001111100000 Y
b10101010 X
b100000 W
b1100100 V
b100000000000 U
b100000000000 T
b1 S
b0 R
0Q
b0 P
b0 O
0N
1M
0L
0K
b0 J
b0 I
b0 H
0G
b0 F
b0 E
0D
0C
b11001111100000 B
b10101010 A
b100000 @
b1100100 ?
bx >
b0 =
b1 <
b0 ;
b0 :
b100000000000 9
b100000000000 8
07
b0 6
05
b0 4
b0 3
02
01
b11001111100000 0
b10101010 /
b100000 .
b1100100 -
b0 ,
b0 +
b1 *
b0 )
b0 (
0'
b0 &
0%
0$
bx #
b0 "
b100000000000 !
$end
#12500
b1100111110000000 q
b1100111110000000 a"
b1100111110000000 h"
b1100111110000000 #
b1100111110000000 >
b1100111110000000 z
1e"
1s
b0 c"
b1100111110000000000000000000000000000000 d"
12
1D
17
#25000
02
0D
07
#37500
12
1D
17
#50000
02
0D
07
#62500
12
1D
17
#75000
02
0D
07
#87500
12
1D
17
#100000
02
0D
07
15
1K
#112500
b100000010000 T
b100000010000 9
b100000010000 Z
b100000010000 1"
b100000010000 !
b100000010000 8
b100000010000 U
b10000 )
b10000 ;
1Q
b1000000 (
b1000000 :
b1000000 R
b1 ~
12
1D
17
#125000
02
0D
07
#137500
1""
b100000100000 T
b100000100000 9
b100000100000 Z
b100000100000 1"
b100000100000 !
b100000100000 8
b100000100000 U
b100000 )
b100000 ;
b10000000 (
b10000000 :
b10000000 R
b10 ~
12
1D
17
#150000
02
0D
07
#162500
b100000110000 T
b100000110000 9
b100000110000 Z
b100000110000 1"
b100000110000 !
b100000110000 8
b100000110000 U
b110000 )
b110000 ;
0Q
b11000000 (
b11000000 :
b11000000 R
1#"
b11 ~
12
1D
17
#175000
02
0D
07
#187500
b100001000000 T
b100001000000 9
b100001000000 Z
b100001000000 1"
b100001000000 !
b100001000000 8
b100001000000 U
b1000000 )
b1000000 ;
1Q
b100000000 (
b100000000 :
b100000000 R
1$"
1v
1'
12
1D
17
#200000
1*"
02
0D
07
#212500
1("
1G
b100001010000 T
b100001010000 9
b100001010000 Z
b100001010000 1"
b100001010000 !
b100001010000 8
b100001010000 U
1)"
b1 '"
b1 `
b1 8"
b1 g"
b1 o"
b1 E
b1 a
b1 &"
b1 _
b1 7"
b1 _"
b1 F
b1 b
b1010000 )
b1010000 ;
0Q
b101000000 (
b101000000 :
b101000000 R
b1 6
b1 3
12
1D
17
#225000
02
0D
07
#237500
b100001100000 T
b100001100000 9
b100001100000 Z
b100001100000 1"
b100001100000 !
b100001100000 8
b100001100000 U
b10 &"
b10 _
b10 7"
b10 _"
b10 F
b10 b
b10 '"
b10 `
b10 8"
b10 g"
b10 o"
b10 E
b10 a
b1 6
b10 3
b1100000 )
b1100000 ;
b110000000 (
b110000000 :
b110000000 R
12
1D
17
#250000
02
0D
07
#262500
b100001110000 T
b100001110000 9
b100001110000 Z
b100001110000 1"
b100001110000 !
b100001110000 8
b100001110000 U
b11 '"
b11 `
b11 8"
b11 g"
b11 o"
b11 E
b11 a
b11 &"
b11 _
b11 7"
b11 _"
b11 F
b11 b
b1110000 )
b1110000 ;
1Q
b111000000 (
b111000000 :
b111000000 R
b1 6
b11 3
12
1D
17
#275000
02
0D
07
#287500
b100010000000 T
b100010000000 9
b100010000000 Z
b100010000000 1"
b100010000000 !
b100010000000 8
b100010000000 U
b100 &"
b100 _
b100 7"
b100 _"
b100 F
b100 b
b100 '"
b100 `
b100 8"
b100 g"
b100 o"
b100 E
b100 a
b1 6
b100 3
b10000000 )
b10000000 ;
b1000000000 (
b1000000000 :
b1000000000 R
11
1C
12
1D
17
#300000
02
0D
07
#312500
0("
0G
0)"
0*"
0#"
0$"
0v
0'
0""
b100010010000 T
b100010010000 9
b100010010000 Z
b100010010000 1"
b100010010000 !
b100010010000 8
b100010010000 U
b0 '"
b0 `
b0 8"
b0 g"
b0 o"
b0 E
b0 a
b0 &"
b0 _
b0 7"
b0 _"
b0 F
b0 b
b10010000 )
b10010000 ;
0Q
b1001000000 (
b1001000000 :
b1001000000 R
b1 6
b101 3
b0 ~
01
0C
12
1D
17
#325000
02
0D
07
#337500
b100010100000 T
b100010100000 9
b100010100000 Z
b100010100000 1"
b100010100000 !
b100010100000 8
b100010100000 U
b0 6
b0 3
b10100000 )
b10100000 ;
b1010000000 (
b1010000000 :
b1010000000 R
b1 ~
12
1D
17
#350000
02
0D
07
#362500
1""
b100010110000 T
b100010110000 9
b100010110000 Z
b100010110000 1"
b100010110000 !
b100010110000 8
b100010110000 U
b10110000 )
b10110000 ;
1Q
b1011000000 (
b1011000000 :
b1011000000 R
b10 ~
12
1D
17
#375000
02
0D
07
#387500
b100011000000 T
b100011000000 9
b100011000000 Z
b100011000000 1"
b100011000000 !
b100011000000 8
b100011000000 U
b11000000 )
b11000000 ;
0Q
b1100000000 (
b1100000000 :
b1100000000 R
1#"
b11 ~
12
1D
17
#400000
02
0D
07
#412500
b100011010000 T
b100011010000 9
b100011010000 Z
b100011010000 1"
b100011010000 !
b100011010000 8
b100011010000 U
b11010000 )
b11010000 ;
1Q
b1101000000 (
b1101000000 :
b1101000000 R
1$"
1v
1'
12
1D
17
#425000
1*"
02
0D
07
#437500
1("
1G
b100011100000 T
b100011100000 9
b100011100000 Z
b100011100000 1"
b100011100000 !
b100011100000 8
b100011100000 U
1)"
b1 '"
b1 `
b1 8"
b1 g"
b1 o"
b1 E
b1 a
b1 &"
b1 _
b1 7"
b1 _"
b1 F
b1 b
b1 6
b1 3
b11100000 )
b11100000 ;
b1110000000 (
b1110000000 :
b1110000000 R
12
1D
17
#450000
02
0D
07
#462500
b100011110000 T
b100011110000 9
b100011110000 Z
b100011110000 1"
b100011110000 !
b100011110000 8
b100011110000 U
b10 &"
b10 _
b10 7"
b10 _"
b10 F
b10 b
b10 '"
b10 `
b10 8"
b10 g"
b10 o"
b10 E
b10 a
b11110000 )
b11110000 ;
0Q
b1111000000 (
b1111000000 :
b1111000000 R
b1 6
b10 3
12
1D
17
#475000
02
0D
07
#487500
b100100000000 T
b100100000000 9
b100100000000 Z
b100100000000 1"
b100100000000 !
b100100000000 8
b100100000000 U
b11 '"
b11 `
b11 8"
b11 g"
b11 o"
b11 E
b11 a
b11 &"
b11 _
b11 7"
b11 _"
b11 F
b11 b
b1 6
b11 3
b100000000 )
b100000000 ;
1Q
b10000000000 (
b10000000000 :
b10000000000 R
12
1D
17
#500000
02
0D
07
#512500
b100100010000 T
b100100010000 9
b100100010000 Z
b100100010000 1"
b100100010000 !
b100100010000 8
b100100010000 U
b100 &"
b100 _
b100 7"
b100 _"
b100 F
b100 b
b100 '"
b100 `
b100 8"
b100 g"
b100 o"
b100 E
b100 a
b100010000 )
b100010000 ;
0Q
b10001000000 (
b10001000000 :
b10001000000 R
b1 6
b100 3
12
1D
17
#525000
02
0D
07
#537500
b100100100000 T
b100100100000 9
b100100100000 Z
b100100100000 1"
b100100100000 !
b100100100000 8
b100100100000 U
b101 '"
b101 `
b101 8"
b101 g"
b101 o"
b101 E
b101 a
b101 &"
b101 _
b101 7"
b101 _"
b101 F
b101 b
b1 6
b101 3
b100100000 )
b100100000 ;
b10010000000 (
b10010000000 :
b10010000000 R
12
1D
17
#550000
02
0D
07
#562500
b100100110000 T
b100100110000 9
b100100110000 Z
b100100110000 1"
b100100110000 !
b100100110000 8
b100100110000 U
b110 &"
b110 _
b110 7"
b110 _"
b110 F
b110 b
b110 '"
b110 `
b110 8"
b110 g"
b110 o"
b110 E
b110 a
b100110000 )
b100110000 ;
1Q
b10011000000 (
b10011000000 :
b10011000000 R
b1 6
b110 3
12
1D
17
#575000
02
0D
07
#587500
b100101000000 T
b100101000000 9
b100101000000 Z
b100101000000 1"
b100101000000 !
b100101000000 8
b100101000000 U
b111 '"
b111 `
b111 8"
b111 g"
b111 o"
b111 E
b111 a
b111 &"
b111 _
b111 7"
b111 _"
b111 F
b111 b
b1 6
b111 3
b101000000 )
b101000000 ;
0Q
b10100000000 (
b10100000000 :
b10100000000 R
12
1D
17
#600000
02
0D
07
#612500
b100101010000 T
b100101010000 9
b100101010000 Z
b100101010000 1"
b100101010000 !
b100101010000 8
b100101010000 U
b1000 &"
b1000 _
b1000 7"
b1000 _"
b1000 F
b1000 b
b1000 '"
b1000 `
b1000 8"
b1000 g"
b1000 o"
b1000 E
b1000 a
b101010000 )
b101010000 ;
1Q
b10101000000 (
b10101000000 :
b10101000000 R
b1 6
b1000 3
12
1D
17
#625000
02
0D
07
#637500
1N
b100101100000 T
b100101100000 9
b100101100000 Z
b100101100000 1"
b100101100000 !
b100101100000 8
b100101100000 U
0i"
0k"
0M
b1100111110000000 l"
b1001 '"
b1001 `
b1001 8"
b1001 g"
b1001 o"
b1001 E
b1001 a
b1001 &"
b1001 _
b1001 7"
b1001 _"
b1001 F
b1001 b
b1 6
b1001 3
b101100000 )
b101100000 ;
b10110000000 (
b10110000000 :
b10110000000 R
12
1D
17
#650000
02
0D
07
#662500
b100101110000 T
b100101110000 9
b100101110000 Z
b100101110000 1"
b100101110000 !
b100101110000 8
b100101110000 U
b1010 &"
b1010 _
b1010 7"
b1010 _"
b1010 F
b1010 b
b1010 '"
b1010 `
b1010 8"
b1010 g"
b1010 o"
b1010 E
b1010 a
b101110000 )
b101110000 ;
0Q
b10111000000 (
b10111000000 :
b10111000000 R
b1 6
b1010 3
12
1D
17
#675000
02
0D
07
#687500
b100110000000 T
b100110000000 9
b100110000000 Z
b100110000000 1"
b100110000000 !
b100110000000 8
b100110000000 U
b1011 '"
b1011 `
b1011 8"
b1011 g"
b1011 o"
b1011 E
b1011 a
b1011 &"
b1011 _
b1011 7"
b1011 _"
b1011 F
b1011 b
b1 6
b1011 3
b110000000 )
b110000000 ;
b11000000000 (
b11000000000 :
b11000000000 R
12
1D
17
#700000
02
0D
07
#712500
b100110010000 T
b100110010000 9
b100110010000 Z
b100110010000 1"
b100110010000 !
b100110010000 8
b100110010000 U
b1100 &"
b1100 _
b1100 7"
b1100 _"
b1100 F
b1100 b
b1100 '"
b1100 `
b1100 8"
b1100 g"
b1100 o"
b1100 E
b1100 a
b110010000 )
b110010000 ;
1Q
b11001000000 (
b11001000000 :
b11001000000 R
b1 6
b1100 3
12
1D
17
#725000
02
0D
07
#737500
b100110100000 T
b100110100000 9
b100110100000 Z
b100110100000 1"
b100110100000 !
b100110100000 8
b100110100000 U
1j"
1L
b1101 '"
b1101 `
b1101 8"
b1101 g"
b1101 o"
b1101 E
b1101 a
b1101 &"
b1101 _
b1101 7"
b1101 _"
b1101 F
b1101 b
b1 6
b1101 3
b110100000 )
b110100000 ;
b11010000000 (
b11010000000 :
b11010000000 R
0e"
0s
12
1D
17
#750000
02
0D
07
#762500
b100110110000 T
b100110110000 9
b100110110000 Z
b100110110000 1"
b100110110000 !
b100110110000 8
b100110110000 U
b1110 &"
b1110 _
b1110 7"
b1110 _"
b1110 F
b1110 b
b1110 '"
b1110 `
b1110 8"
b1110 g"
b1110 o"
b1110 E
b1110 a
b110110000 )
b110110000 ;
0Q
b11011000000 (
b11011000000 :
b11011000000 R
b1 6
b1110 3
12
1D
17
#775000
02
0D
07
#787500
b100111000000 T
b100111000000 9
b100111000000 Z
b100111000000 1"
b100111000000 !
b100111000000 8
b100111000000 U
b1111 '"
b1111 `
b1111 8"
b1111 g"
b1111 o"
b1111 E
b1111 a
b1111 &"
b1111 _
b1111 7"
b1111 _"
b1111 F
b1111 b
b1 6
b1111 3
b111000000 )
b111000000 ;
1Q
b11100000000 (
b11100000000 :
b11100000000 R
12
1D
17
#800000
02
0D
07
#812500
b100111010000 T
b100111010000 9
b100111010000 Z
b100111010000 1"
b100111010000 !
b100111010000 8
b100111010000 U
b10000 &"
b10000 _
b10000 7"
b10000 _"
b10000 F
b10000 b
b10000 '"
b10000 `
b10000 8"
b10000 g"
b10000 o"
b10000 E
b10000 a
b111010000 )
b111010000 ;
0Q
b11101000000 (
b11101000000 :
b11101000000 R
b1 6
b10000 3
12
1D
17
#825000
02
0D
07
#837500
b100111100000 T
b100111100000 9
b100111100000 Z
b100111100000 1"
b100111100000 !
b100111100000 8
b100111100000 U
0j"
0L
b1 m"
b1001111100000000 l"
b10001 '"
b10001 `
b10001 8"
b10001 g"
b10001 o"
b10001 E
b10001 a
b10001 &"
b10001 _
b10001 7"
b10001 _"
b10001 F
b10001 b
b1 6
b10001 3
b111100000 )
b111100000 ;
b11110000000 (
b11110000000 :
b11110000000 R
12
1D
17
#850000
02
0D
07
#862500
b100111110000 T
b100111110000 9
b100111110000 Z
b100111110000 1"
b100111110000 !
b100111110000 8
b100111110000 U
b10010 &"
b10010 _
b10010 7"
b10010 _"
b10010 F
b10010 b
b10010 '"
b10010 `
b10010 8"
b10010 g"
b10010 o"
b10010 E
b10010 a
b111110000 )
b111110000 ;
1Q
b11111000000 (
b11111000000 :
b11111000000 R
b1 6
b10010 3
12
1D
17
#875000
02
0D
07
#887500
b101000000000 T
b101000000000 9
b101000000000 Z
b101000000000 1"
b101000000000 !
b101000000000 8
b101000000000 U
b10011 '"
b10011 `
b10011 8"
b10011 g"
b10011 o"
b10011 E
b10011 a
b10011 &"
b10011 _
b10011 7"
b10011 _"
b10011 F
b10011 b
b1 6
b10011 3
b1000000000 )
b1000000000 ;
b100000000000 (
b100000000000 :
b100000000000 R
12
1D
17
#900000
02
0D
07
#912500
b101000010000 T
b101000010000 9
b101000010000 Z
b101000010000 1"
b101000010000 !
b101000010000 8
b101000010000 U
b10100 &"
b10100 _
b10100 7"
b10100 _"
b10100 F
b10100 b
b10100 '"
b10100 `
b10100 8"
b10100 g"
b10100 o"
b10100 E
b10100 a
b1000010000 )
b1000010000 ;
0Q
b100001000000 (
b100001000000 :
b100001000000 R
b1 6
b10100 3
12
1D
17
#925000
02
0D
07
#937500
b101000100000 T
b101000100000 9
b101000100000 Z
b101000100000 1"
b101000100000 !
b101000100000 8
b101000100000 U
1j"
1L
b10101 '"
b10101 `
b10101 8"
b10101 g"
b10101 o"
b10101 E
b10101 a
b10101 &"
b10101 _
b10101 7"
b10101 _"
b10101 F
b10101 b
b1 6
b10101 3
b1000100000 )
b1000100000 ;
b100010000000 (
b100010000000 :
b100010000000 R
12
1D
17
#950000
02
0D
07
#962500
b101000110000 T
b101000110000 9
b101000110000 Z
b101000110000 1"
b101000110000 !
b101000110000 8
b101000110000 U
b10110 &"
b10110 _
b10110 7"
b10110 _"
b10110 F
b10110 b
b10110 '"
b10110 `
b10110 8"
b10110 g"
b10110 o"
b10110 E
b10110 a
b1000110000 )
b1000110000 ;
1Q
b100011000000 (
b100011000000 :
b100011000000 R
b1 6
b10110 3
12
1D
17
#975000
02
0D
07
#987500
b101001000000 T
b101001000000 9
b101001000000 Z
b101001000000 1"
b101001000000 !
b101001000000 8
b101001000000 U
b10111 '"
b10111 `
b10111 8"
b10111 g"
b10111 o"
b10111 E
b10111 a
b10111 &"
b10111 _
b10111 7"
b10111 _"
b10111 F
b10111 b
b1 6
b10111 3
b1001000000 )
b1001000000 ;
0Q
b100100000000 (
b100100000000 :
b100100000000 R
12
1D
17
#1000000
02
0D
07
#1012500
b101001010000 T
b101001010000 9
b101001010000 Z
b101001010000 1"
b101001010000 !
b101001010000 8
b101001010000 U
b11000 &"
b11000 _
b11000 7"
b11000 _"
b11000 F
b11000 b
b11000 '"
b11000 `
b11000 8"
b11000 g"
b11000 o"
b11000 E
b11000 a
b1001010000 )
b1001010000 ;
1Q
b100101000000 (
b100101000000 :
b100101000000 R
b1 6
b11000 3
12
1D
17
#1025000
02
0D
07
#1037500
0N
b101001100000 T
b101001100000 9
b101001100000 Z
b101001100000 1"
b101001100000 !
b101001100000 8
b101001100000 U
0j"
0L
b10 m"
b11111000000000 l"
b11001 '"
b11001 `
b11001 8"
b11001 g"
b11001 o"
b11001 E
b11001 a
b11001 &"
b11001 _
b11001 7"
b11001 _"
b11001 F
b11001 b
b1 6
b11001 3
b1001100000 )
b1001100000 ;
b100110000000 (
b100110000000 :
b100110000000 R
12
1D
17
#1050000
02
0D
07
#1062500
b101001110000 T
b101001110000 9
b101001110000 Z
b101001110000 1"
b101001110000 !
b101001110000 8
b101001110000 U
b11010 &"
b11010 _
b11010 7"
b11010 _"
b11010 F
b11010 b
b11010 '"
b11010 `
b11010 8"
b11010 g"
b11010 o"
b11010 E
b11010 a
b1001110000 )
b1001110000 ;
0Q
b100111000000 (
b100111000000 :
b100111000000 R
b1 6
b11010 3
12
1D
17
#1075000
02
0D
07
#1087500
b101010000000 T
b101010000000 9
b101010000000 Z
b101010000000 1"
b101010000000 !
b101010000000 8
b101010000000 U
b11011 '"
b11011 `
b11011 8"
b11011 g"
b11011 o"
b11011 E
b11011 a
b11011 &"
b11011 _
b11011 7"
b11011 _"
b11011 F
b11011 b
b1 6
b11011 3
b1010000000 )
b1010000000 ;
b101000000000 (
b101000000000 :
b101000000000 R
12
1D
17
#1100000
02
0D
07
#1112500
b101010010000 T
b101010010000 9
b101010010000 Z
b101010010000 1"
b101010010000 !
b101010010000 8
b101010010000 U
b11100 &"
b11100 _
b11100 7"
b11100 _"
b11100 F
b11100 b
b11100 '"
b11100 `
b11100 8"
b11100 g"
b11100 o"
b11100 E
b11100 a
b1010010000 )
b1010010000 ;
1Q
b101001000000 (
b101001000000 :
b101001000000 R
b1 6
b11100 3
12
1D
17
#1125000
02
0D
07
#1137500
b101010100000 T
b101010100000 9
b101010100000 Z
b101010100000 1"
b101010100000 !
b101010100000 8
b101010100000 U
1j"
1L
b11101 '"
b11101 `
b11101 8"
b11101 g"
b11101 o"
b11101 E
b11101 a
b11101 &"
b11101 _
b11101 7"
b11101 _"
b11101 F
b11101 b
b1 6
b11101 3
b1010100000 )
b1010100000 ;
b101010000000 (
b101010000000 :
b101010000000 R
12
1D
17
#1150000
02
0D
07
#1162500
b101010110000 T
b101010110000 9
b101010110000 Z
b101010110000 1"
b101010110000 !
b101010110000 8
b101010110000 U
b11110 &"
b11110 _
b11110 7"
b11110 _"
b11110 F
b11110 b
b11110 '"
b11110 `
b11110 8"
b11110 g"
b11110 o"
b11110 E
b11110 a
b1010110000 )
b1010110000 ;
0Q
b101011000000 (
b101011000000 :
b101011000000 R
b1 6
b11110 3
12
1D
17
#1175000
02
0D
07
