sim/icarus/tb_fog_core_ni7966r_ni5781_lv_adapter.vcd
$date
	Thu Apr 16 17:23:00 2026
$end
$version
	Icarus Verilog
$end
$timescale
	1ps
$end
$scope module tb_fog_core_ni7966r_ni5781_lv_adapter $end
$var wire 12 ! adin_dbg [11:0] $end
$var wire 16 " ao0_raw [15:0] $end
$var wire 16 # ao1_raw [15:0] $end
$var wire 1 $ dio_sn $end
$var wire 1 % dio_sp $end
$var wire 2 & state_dbg [1:0] $end
$var wire 1 ' status_ready $end
$var reg 16 ( ai0_raw [15:0] $end
$var reg 16 ) ai1_raw [15:0] $end
$var reg 2 * ai_map_mode [1:0] $end
$var integer 32 + ao0_change_count [31:0] $end
$var reg 16 , ao0_prev [15:0] $end
$var reg 8 - cfg_FBK [7:0] $end
$var reg 10 . cfg_N [9:0] $end
$var reg 14 / cfg_VDARef [13:0] $end
$var reg 1 0 cfg_apply $end
$var reg 1 1 clk $end
$var integer 32 2 cycles_after_ready [31:0] $end
$var integer 32 3 errors [31:0] $end
$var reg 1 4 rst_n $end
$var integer 32 5 state_seen_mask [31:0] $end
$scope module dut $end
$var wire 1 6 adclk_unused $end
$var wire 12 7 adin_dbg [11:0] $end
$var wire 12 8 adin_mapped [11:0] $end
$var wire 16 9 ai0_raw [15:0] $end
$var wire 16 : ai1_raw [15:0] $end
$var wire 2 ; ai_map_mode [1:0] $end
$var wire 16 < ao0_raw [15:0] $end
$var wire 16 = ao1_raw [15:0] $end
$var wire 8 > cfg_FBK [7:0] $end
$var wire 10 ? cfg_N [9:0] $end
$var wire 14 @ cfg_VDARef [13:0] $end
$var wire 1 A cfg_apply $end
$var wire 1 B clk $end
$var wire 10 C counterN_dbg_unused [9:0] $end
$var wire 9 D counter_dbg_unused [8:0] $end
$var wire 1 E daclk_unused $end
$var wire 1 $ dio_sn $end
$var wire 1 % dio_sp $end
$var wire 32 F drotate_dbg_unused [31:0] $end
$var wire 32 G dvref_dbg_unused [31:0] $end
$var wire 32 H intsout_dbg_unused [31:0] $end
$var wire 1 I rst_n $end
$var wire 1 J sdaclk_unused $end
$var wire 1 K sdacs_unused $end
$var wire 1 L sdaout_unused $end
$var wire 2 M state_dbg [1:0] $end
$var wire 1 ' status_ready $end
$var wire 12 N tau_dbg_unused [11:0] $end
$var wire 1 O unused_ai1 $end
$scope module u_ai_map $end
$var wire 16 P ai_raw [15:0] $end
$var wire 2 Q map_mode [1:0] $end
$var reg 12 R adin [11:0] $end
$var reg 16 S mapped_tmp [15:0] $end
$upscope $end
$scope module u_core $end
$var wire 8 T FBK [7:0] $end
$var wire 10 U N [9:0] $end
$var wire 14 V VDARef [13:0] $end
$var wire 1 6 adclk $end
$var wire 12 W adin [11:0] $end
$var wire 8 X cfg_FBK [7:0] $end
$var wire 10 Y cfg_N [9:0] $end
$var wire 14 Z cfg_VDARef [13:0] $end
$var wire 1 A cfg_apply $end
$var wire 1 B clk $end
$var wire 9 [ counter [8:0] $end
$var wire 10 \ counterN [9:0] $end
$var wire 10 ] counterN_dbg [9:0] $end
$var wire 9 ^ counter_dbg [8:0] $end
$var wire 32 _ dRotateOut [31:0] $end
$var wire 32 ` dRotateOutFBK [31:0] $end
$var wire 32 a dVrefOut [31:0] $end
$var wire 1 E daclk $end
$var wire 16 b daout [15:0] $end
$var wire 32 c drotate_dbg [31:0] $end
$var wire 32 d dvref_dbg [31:0] $end
$var wire 1 e ena $end
$var wire 1 f intena $end
$var wire 1 g intena0 $end
$var wire 32 h intsout [31:0] $end
$var wire 32 i intsout_dbg [31:0] $end
$var wire 1 j ladena1 $end
$var wire 1 k ladena2 $end
$var wire 16 l pintout [15:0] $end
$var wire 1 m random $end
$var wire 1 ' ready $end
$var wire 1 I rst_n $end
$var wire 1 n sdaSend $end
$var wire 1 J sdaclk $end
$var wire 1 K sdacs $end
$var wire 1 L sdaout $end
$var wire 1 $ sn $end
$var wire 1 % sp $end
$var wire 2 o state [1:0] $end
$var wire 2 p state_dbg [1:0] $end
$var wire 1 q sys_rst $end
$var wire 12 r tauCounter [11:0] $end
$var wire 12 s tau_dbg [11:0] $end
$var wire 1 t updown $end
$var wire 16 u vref_word [15:0] $end
$var reg 8 v cfg_fbk_reg [7:0] $end
$var reg 10 w cfg_n_reg [9:0] $end
$var reg 2 x cfg_reset_hold [1:0] $end
$var reg 14 y cfg_vdaref_reg [13:0] $end
$scope module asrst_core $end
$var wire 1 B clk $end
$var wire 1 z rst_n $end
$var reg 1 { rst_nr1 $end
$var reg 1 | rst_nr2 $end
$upscope $end
$scope module gclk $end
$var wire 10 } N [9:0] $end
$var wire 1 6 adclk $end
$var wire 1 B clk $end
$var wire 1 e ena $end
$var wire 1 q rst $end
$var reg 9 ~ counter [8:0] $end
$var reg 10 !" counterN [9:0] $end
$var reg 1 "" daclk $end
$var reg 1 #" daclk1 $end
$var reg 1 $" daclk2 $end
$var reg 1 %" intena $end
$var reg 1 &" intena0 $end
$var reg 1 '" ladena1 $end
$var reg 1 (" ladena2 $end
$var reg 2 )" state [1:0] $end
$upscope $end
$scope module dmt $end
$var wire 10 *" N [9:0] $end
$var wire 12 +" adin [11:0] $end
$var wire 1 B clk $end
$var wire 9 ," counter [8:0] $end
$var wire 10 -" counterN [9:0] $end
$var wire 1 e ena $end
$var wire 1 q rst $end
$var wire 2 ." state [1:0] $end
$var wire 12 /" tauCounter [11:0] $end
$var wire 1 t updown $end
$var reg 32 0" dRotateOut [31:0] $end
$var reg 32 1" dVrefOut [31:0] $end
$var reg 1 2" random $end
$var reg 1 3" randomPre $end
$upscope $end
$scope module dmk $end
$var wire 8 4" FBK [7:0] $end
$var wire 1 B clk $end
$var wire 24 5" dRotateOut24 [23:0] $end
$var wire 32 6" dRotateOutFBK [31:0] $end
$var wire 1 g intena0 $end
$var wire 33 7" mult_FBK [32:0] $end
$var wire 1 q rst $end
$var reg 33 8" mult_FBK_R [32:0] $end
$upscope $end
$scope module itg $end
$var wire 1 B clk $end
$var wire 32 9" dRotateOut [31:0] $end
$var wire 1 f intena $end
$var wire 1 q rst $end
$var wire 32 :" sum [31:0] $end
$var reg 32 ;" intsout [31:0] $end
$upscope $end
$scope module ldp $end
$var wire 1 B clk $end
$var wire 1 j ladena1 $end
$var wire 1 k ladena2 $end
$var wire 32 <" ladin [31:0] $end
$var wire 1 m random $end
$var wire 1 q rst $end
$var wire 2 =" state [1:0] $end
$var reg 16 >" ladout [15:0] $end
$var reg 32 ?" ladreg [31:0] $end
$var reg 32 @" ladtmp [31:0] $end
$var reg 12 A" tauCounter [11:0] $end
$var reg 1 B" updown $end
$upscope $end
$scope module pint $end
$var wire 10 C" N [9:0] $end
$var wire 14 D" VDARef [13:0] $end
$var wire 1 B clk $end
$var wire 9 E" counter [8:0] $end
$var wire 32 F" dVrefOut [31:0] $end
$var wire 1 e ena $end
$var wire 16 G" pintout [15:0] $end
$var wire 1 q rst $end
$var wire 2 H" state [1:0] $end
$var reg 16 I" pintoutpre [15:0] $end
$var reg 40 J" pintreg [39:0] $end
$var reg 1 K" sdaSend $end
$upscope $end
$scope module sdo $end
$var wire 10 L" N [9:0] $end
$var wire 1 B clk $end
$var wire 10 M" counterN [9:0] $end
$var wire 16 N" pintout [15:0] $end
$var wire 1 q rst $end
$var wire 1 n sdaSend $end
$var wire 1 L sdaout $end
$var reg 1 O" finish $end
$var reg 1 P" sdaclk $end
$var reg 1 Q" sdacs $end
$var reg 16 R" sdaoutbuf [15:0] $end
$var reg 4 S" shout_state [3:0] $end
$upscope $end
$scope module agowc $end
$var wire 1 B clk $end
$var wire 10 T" counterN [9:0] $end
$var wire 32 U" intsout [31:0] $end
$var wire 1 q rst $end
$var wire 40 V" sum1 [39:0] $end
$var wire 40 W" sum2 [39:0] $end
$var reg 40 X" anglereg [39:0] $end
$var reg 4 Y" smallCounter [3:0] $end
$var reg 1 Z" sn $end
$var reg 1 [" sp $end
$upscope $end
$upscope $end
$upscope $end
$upscope $end
$enddefinitions $end
#0
$dumpvars
0["
0Z"
b0 Y"
b0 X"
b1111111111111111110110001111000000000000 W"
b1001110001000000000000 V"
b0 U"
b0 T"
b0 S"
b0 R"
1Q"
0P"
1O"
bx N"
b0 M"
b10101010 L"
xK"
bx J"
bx I"
b0 H"
bx G"
b0 F"
b0 E"
b11001111100000 D"
b10101010 C"
0B"
b0 A"
b0 @"
b0 ?"
b0 >"
b0 ="
b0 <"
b0 ;"
b0 :"
b0 9"
b0 8"
b0 7"
b0 6"
b0 5"
b1100100 4"
03"
02"
b0 1"
b0 0"
b0 /"
b0 ."
b0 -"
b0 ,"
b100000000000 +"
b10101010 *"
b0 )"
0("
0'"
0&"
0%"
0$"
0#"
0""
b0 !"
b0 ~
b10101010 }
0|
0{
0z
b11001111100000 y
b0 x
b10101010 w
b1100100 v
bx u
0t
b0 s
b0 r
0q
b0 p
b0 o
xn
0m
bx l
0k
0j
b0 i
b0 h
0g
0f
1e
b0 d
b0 c
b0 b
b0 a
b0 `
b0 _
b0 ^
b0 ]
b0 \
b0 [
b11001111100000 Z
b10101010 Y
b1100100 X
b100000000000 W
b11001111100000 V
b10101010 U
b1100100 T
b100000000000 S
b100000000000 R
b1 Q
b0 P
0O
b0 N
b0 M
0L
1K
0J
0I
b0 H
b0 G
b0 F
0E
b0 D
b0 C
0B
0A
b11001111100000 @
b10101010 ?
b1100100 >
bx =
b0 <
b1 ;
b0 :
b0 9
b100000000000 8
b100000000000 7
06
b0 5
04
b0 3
b0 2
01
00
b11001111100000 /
b10101010 .
b1100100 -
b0 ,
b0 +
b1 *
b0 )
b0 (
0'
b0 &
0%
0$
bx #
b0 "
b100000000000 !
$end
#12500
b1100111110000000 l
b1100111110000000 G"
b1100111110000000 N"
b1100111110000000 #
b1100111110000000 =
b1100111110000000 u
1K"
1n
b0 I"
b1100111110000000000000000000000000000000 J"
11
1B
16
#25000
01
0B
06
#37500
11
1B
16
#50000
01
0B
06
#62500
11
1B
16
#75000
01
0B
06
#87500
11
1B
16
#100000
01
0B
06
14
1I
#112500
b100000010000 R
b100000010000 8
b100000010000 W
b100000010000 +"
b100000010000 !
b100000010000 7
b100000010000 S
b10000 )
b10000 :
1O
b1000000 (
b1000000 9
b1000000 P
b1 x
11
1B
16
#125000
01
0B
06
#137500
1z
b100000100000 R
b100000100000 8
b100000100000 W
b100000100000 +"
b100000100000 !
b100000100000 7
b100000100000 S
b100000 )
b100000 :
b10000000 (
b10000000 9
b10000000 P
b10 x
11
1B
16
#150000
01
0B
06
#162500
b100000110000 R
b100000110000 8
b100000110000 W
b100000110000 +"
b100000110000 !
b100000110000 7
b100000110000 S
b110000 )
b110000 :
0O
b11000000 (
b11000000 9
b11000000 P
1{
b11 x
11
1B
16
#175000
01
0B
06
#187500
b100001000000 R
b100001000000 8
b100001000000 W
b100001000000 +"
b100001000000 !
b100001000000 7
b100001000000 S
b1000000 )
b1000000 :
1O
b100000000 (
b100000000 9
b100000000 P
1|
1q
1'
11
1B
16
#200000
1$"
01
0B
06
#212500
1""
1E
b100001010000 R
b100001010000 8
b100001010000 W
b100001010000 +"
b100001010000 !
b100001010000 7
b100001010000 S
1#"
b1 !"
b1 \
b1 -"
b1 M"
b1 T"
b1 C
b1 ]
b1 ~
b1 [
b1 ,"
b1 E"
b1 D
b1 ^
b1010000 )
b1010000 :
0O
b101000000 (
b101000000 9
b101000000 P
b1 5
b1 2
11
1B
16
#225000
01
0B
06
#237500
b100001100000 R
b100001100000 8
b100001100000 W
b100001100000 +"
b100001100000 !
b100001100000 7
b100001100000 S
b10 ~
b10 [
b10 ,"
b10 E"
b10 D
b10 ^
b10 !"
b10 \
b10 -"
b10 M"
b10 T"
b10 C
b10 ]
b1 5
b10 2
b1100000 )
b1100000 :
b110000000 (
b110000000 9
b110000000 P
11
1B
16
#250000
01
0B
06
#262500
b100001110000 R
b100001110000 8
b100001110000 W
b100001110000 +"
b100001110000 !
b100001110000 7
b100001110000 S
b11 !"
b11 \
b11 -"
b11 M"
b11 T"
b11 C
b11 ]
b11 ~
b11 [
b11 ,"
b11 E"
b11 D
b11 ^
b1110000 )
b1110000 :
1O
b111000000 (
b111000000 9
b111000000 P
b1 5
b11 2
11
1B
16
#275000
01
0B
06
#287500
b100010000000 R
b100010000000 8
b100010000000 W
b100010000000 +"
b100010000000 !
b100010000000 7
b100010000000 S
b100 ~
b100 [
b100 ,"
b100 E"
b100 D
b100 ^
b100 !"
b100 \
b100 -"
b100 M"
b100 T"
b100 C
b100 ]
b1 5
b100 2
b10000000 )
b10000000 :
b1000000000 (
b1000000000 9
b1000000000 P
10
1A
11
1B
16
#300000
01
0B
06
#312500
0""
0E
0#"
0$"
0{
0|
0q
0'
0z
b100010010000 R
b100010010000 8
b100010010000 W
b100010010000 +"
b100010010000 !
b100010010000 7
b100010010000 S
b0 Y"
b0 !"
b0 \
b0 -"
b0 M"
b0 T"
b0 C
b0 ]
b0 ~
b0 [
b0 ,"
b0 E"
b0 D
b0 ^
b10010000 )
b10010000 :
0O
b1001000000 (
b1001000000 9
b1001000000 P
b1 5
b101 2
b0 x
00
0A
11
1B
16
#325000
01
0B
06
#337500
b100010100000 R
b100010100000 8
b100010100000 W
b100010100000 +"
b100010100000 !
b100010100000 7
b100010100000 S
b0 5
b0 2
b10100000 )
b10100000 :
b1010000000 (
b1010000000 9
b1010000000 P
b1 x
11
1B
16
#350000
01
0B
06
#362500
1z
b100010110000 R
b100010110000 8
b100010110000 W
b100010110000 +"
b100010110000 !
b100010110000 7
b100010110000 S
b10110000 )
b10110000 :
1O
b1011000000 (
b1011000000 9
b1011000000 P
b10 x
11
1B
16
#375000
01
0B
06
#387500
b100011000000 R
b100011000000 8
b100011000000 W
b100011000000 +"
b100011000000 !
b100011000000 7
b100011000000 S
b11000000 )
b11000000 :
0O
b1100000000 (
b1100000000 9
b1100000000 P
1{
b11 x
11
1B
16
#400000
01
0B
06
#412500
b100011010000 R
b100011010000 8
b100011010000 W
b100011010000 +"
b100011010000 !
b100011010000 7
b100011010000 S
b11010000 )
b11010000 :
1O
b1101000000 (
b1101000000 9
b1101000000 P
1|
1q
1'
11
1B
16
#425000
1$"
01
0B
06
#437500
1""
1E
b100011100000 R
b100011100000 8
b100011100000 W
b100011100000 +"
b100011100000 !
b100011100000 7
b100011100000 S
1#"
b1 !"
b1 \
b1 -"
b1 M"
b1 T"
b1 C
b1 ]
b1 ~
b1 [
b1 ,"
b1 E"
b1 D
b1 ^
b1 5
b1 2
b11100000 )
b11100000 :
b1110000000 (
b1110000000 9
b1110000000 P
11
1B
16
#450000
01
0B
06
#462500
b100011110000 R
b100011110000 8
b100011110000 W
b100011110000 +"
b100011110000 !
b100011110000 7
b100011110000 S
b10 ~
b10 [
b10 ,"
b10 E"
b10 D
b10 ^
b10 !"
b10 \
b10 -"
b10 M"
b10 T"
b10 C
b10 ]
b11110000 )
b11110000 :
0O
b1111000000 (
b1111000000 9
b1111000000 P
b1 5
b10 2
11
1B
16
#475000
01
0B
06
#487500
b100100000000 R
b100100000000 8
b100100000000 W
b100100000000 +"
b100100000000 !
b100100000000 7
b100100000000 S
b11 !"
b11 \
b11 -"
b11 M"
b11 T"
b11 C
b11 ]
b11 ~
b11 [
b11 ,"
b11 E"
b11 D
b11 ^
b1 5
b11 2
b100000000 )
b100000000 :
1O
b10000000000 (
b10000000000 9
b10000000000 P
11
1B
16
#500000
01
0B
06
#512500
b100100010000 R
b100100010000 8
b100100010000 W
b100100010000 +"
b100100010000 !
b100100010000 7
b100100010000 S
b100 ~
b100 [
b100 ,"
b100 E"
b100 D
b100 ^
b100 !"
b100 \
b100 -"
b100 M"
b100 T"
b100 C
b100 ]
b100010000 )
b100010000 :
0O
b10001000000 (
b10001000000 9
b10001000000 P
b1 5
b100 2
11
1B
16
#525000
01
0B
06
#537500
b100100100000 R
b100100100000 8
b100100100000 W
b100100100000 +"
b100100100000 !
b100100100000 7
b100100100000 S
b1 Y"
b101 !"
b101 \
b101 -"
b101 M"
b101 T"
b101 C
b101 ]
b101 ~
b101 [
b101 ,"
b101 E"
b101 D
b101 ^
b1 5
b101 2
b100100000 )
b100100000 :
b10010000000 (
b10010000000 9
b10010000000 P
11
1B
16
#550000
01
0B
06
#562500
b100100110000 R
b100100110000 8
b100100110000 W
b100100110000 +"
b100100110000 !
b100100110000 7
b100100110000 S
b110 ~
b110 [
b110 ,"
b110 E"
b110 D
b110 ^
b110 !"
b110 \
b110 -"
b110 M"
b110 T"
b110 C
b110 ]
b10 Y"
b100110000 )
b100110000 :
1O
b10011000000 (
b10011000000 9
b10011000000 P
b1 5
b110 2
11
1B
16
#575000
01
0B
06
#587500
b100101000000 R
b100101000000 8
b100101000000 W
b100101000000 +"
b100101000000 !
b100101000000 7
b100101000000 S
b11 Y"
b111 !"
b111 \
b111 -"
b111 M"
b111 T"
b111 C
b111 ]
b111 ~
b111 [
b111 ,"
b111 E"
b111 D
b111 ^
b1 5
b111 2
b101000000 )
b101000000 :
0O
b10100000000 (
b10100000000 9
b10100000000 P
11
1B
16
#600000
01
0B
06
#612500
b100101010000 R
b100101010000 8
b100101010000 W
b100101010000 +"
b100101010000 !
b100101010000 7
b100101010000 S
b1000 ~
b1000 [
b1000 ,"
b1000 E"
b1000 D
b1000 ^
b1000 !"
b1000 \
b1000 -"
b1000 M"
b1000 T"
b1000 C
b1000 ]
b100 Y"
b101010000 )
b101010000 :
1O
b10101000000 (
b10101000000 9
b10101000000 P
b1 5
b1000 2
11
1B
16
#625000
01
0B
06
#637500
1L
b100101100000 R
b100101100000 8
b100101100000 W
b100101100000 +"
b100101100000 !
b100101100000 7
b100101100000 S
b1 Y"
0O"
0Q"
0K
b1100111110000000 R"
b1001 !"
b1001 \
b1001 -"
b1001 M"
b1001 T"
b1001 C
b1001 ]
b1001 ~
b1001 [
b1001 ,"
b1001 E"
b1001 D
b1001 ^
b1 5
b1001 2
b101100000 )
b101100000 :
b10110000000 (
b10110000000 9
b10110000000 P
11
1B
16
#650000
01
0B
06
#662500
b100101110000 R
b100101110000 8
b100101110000 W
b100101110000 +"
b100101110000 !
b100101110000 7
b100101110000 S
b1010 ~
b1010 [
b1010 ,"
b1010 E"
b1010 D
b1010 ^
b1010 !"
b1010 \
b1010 -"
b1010 M"
b1010 T"
b1010 C
b1010 ]
b10 Y"
b101110000 )
b101110000 :
0O
b10111000000 (
b10111000000 9
b10111000000 P
b1 5
b1010 2
11
1B
16
#675000
01
0B
06
#687500
b100110000000 R
b100110000000 8
b100110000000 W
b100110000000 +"
b100110000000 !
b100110000000 7
b100110000000 S
b11 Y"
b1011 !"
b1011 \
b1011 -"
b1011 M"
b1011 T"
b1011 C
b1011 ]
b1011 ~
b1011 [
b1011 ,"
b1011 E"
b1011 D
b1011 ^
b1 5
b1011 2
b110000000 )
b110000000 :
b11000000000 (
b11000000000 9
b11000000000 P
11
1B
16
#700000
01
0B
06
#712500
b100110010000 R
b100110010000 8
b100110010000 W
b100110010000 +"
b100110010000 !
b100110010000 7
b100110010000 S
b1100 ~
b1100 [
b1100 ,"
b1100 E"
b1100 D
b1100 ^
b1100 !"
b1100 \
b1100 -"
b1100 M"
b1100 T"
b1100 C
b1100 ]
b100 Y"
b110010000 )
b110010000 :
1O
b11001000000 (
b11001000000 9
b11001000000 P
b1 5
b1100 2
11
1B
16
#725000
01
0B
06
#737500
b100110100000 R
b100110100000 8
b100110100000 W
b100110100000 +"
b100110100000 !
b100110100000 7
b100110100000 S
b1 Y"
1P"
1J
b1101 !"
b1101 \
b1101 -"
b1101 M"
b1101 T"
b1101 C
b1101 ]
b1101 ~
b1101 [
b1101 ,"
b1101 E"
b1101 D
b1101 ^
b1 5
b1101 2
b110100000 )
b110100000 :
b11010000000 (
b11010000000 9
b11010000000 P
0K"
0n
11
1B
16
#750000
01
0B
06
#762500
b100110110000 R
b100110110000 8
b100110110000 W
b100110110000 +"
b100110110000 !
b100110110000 7
b100110110000 S
b1110 ~
b1110 [
b1110 ,"
b1110 E"
b1110 D
b1110 ^
b1110 !"
b1110 \
b1110 -"
b1110 M"
b1110 T"
b1110 C
b1110 ]
b10 Y"
b110110000 )
b110110000 :
0O
b11011000000 (
b11011000000 9
b11011000000 P
b1 5
b1110 2
11
1B
16
#775000
01
0B
06
#787500
b100111000000 R
b100111000000 8
b100111000000 W
b100111000000 +"
b100111000000 !
b100111000000 7
b100111000000 S
b11 Y"
b1111 !"
b1111 \
b1111 -"
b1111 M"
b1111 T"
b1111 C
b1111 ]
b1111 ~
b1111 [
b1111 ,"
b1111 E"
b1111 D
b1111 ^
b1 5
b1111 2
b111000000 )
b111000000 :
1O
b11100000000 (
b11100000000 9
b11100000000 P
11
1B
16
#800000
01
0B
06
#812500
b100111010000 R
b100111010000 8
b100111010000 W
b100111010000 +"
b100111010000 !
b100111010000 7
b100111010000 S
b10000 ~
b10000 [
b10000 ,"
b10000 E"
b10000 D
b10000 ^
b10000 !"
b10000 \
b10000 -"
b10000 M"
b10000 T"
b10000 C
b10000 ]
b100 Y"
b111010000 )
b111010000 :
0O
b11101000000 (
b11101000000 9
b11101000000 P
b1 5
b10000 2
11
1B
16
#825000
01
0B
06
#837500
b100111100000 R
b100111100000 8
b100111100000 W
b100111100000 +"
b100111100000 !
b100111100000 7
b100111100000 S
b1 Y"
0P"
0J
b1 S"
b1001111100000000 R"
b10001 !"
b10001 \
b10001 -"
b10001 M"
b10001 T"
b10001 C
b10001 ]
b10001 ~
b10001 [
b10001 ,"
b10001 E"
b10001 D
b10001 ^
b1 5
b10001 2
b111100000 )
b111100000 :
b11110000000 (
b11110000000 9
b11110000000 P
11
1B
16
#850000
01
0B
06
#862500
b100111110000 R
b100111110000 8
b100111110000 W
b100111110000 +"
b100111110000 !
b100111110000 7
b100111110000 S
b10010 ~
b10010 [
b10010 ,"
b10010 E"
b10010 D
b10010 ^
b10010 !"
b10010 \
b10010 -"
b10010 M"
b10010 T"
b10010 C
b10010 ]
b10 Y"
b111110000 )
b111110000 :
1O
b11111000000 (
b11111000000 9
b11111000000 P
b1 5
b10010 2
11
1B
16
#875000
01
0B
06
#887500
b101000000000 R
b101000000000 8
b101000000000 W
b101000000000 +"
b101000000000 !
b101000000000 7
b101000000000 S
b11 Y"
b10011 !"
b10011 \
b10011 -"
b10011 M"
b10011 T"
b10011 C
b10011 ]
b10011 ~
b10011 [
b10011 ,"
b10011 E"
b10011 D
b10011 ^
b1 5
b10011 2
b1000000000 )
b1000000000 :
b100000000000 (
b100000000000 9
b100000000000 P
11
1B
16
#900000
01
0B
06
#912500
b101000010000 R
b101000010000 8
b101000010000 W
b101000010000 +"
b101000010000 !
b101000010000 7
b101000010000 S
b10100 ~
b10100 [
b10100 ,"
b10100 E"
b10100 D
b10100 ^
b10100 !"
b10100 \
b10100 -"
b10100 M"
b10100 T"
b10100 C
b10100 ]
b100 Y"
b1000010000 )
b1000010000 :
0O
b100001000000 (
b100001000000 9
b100001000000 P
b1 5
b10100 2
11
1B
16
#925000
01
0B
06
#937500
b101000100000 R
b101000100000 8
b101000100000 W
b101000100000 +"
b101000100000 !
b101000100000 7
b101000100000 S
b1 Y"
1P"
1J
b10101 !"
b10101 \
b10101 -"
b10101 M"
b10101 T"
b10101 C
b10101 ]
b10101 ~
b10101 [
b10101 ,"
b10101 E"
b10101 D
b10101 ^
b1 5
b10101 2
b1000100000 )
b1000100000 :
b100010000000 (
b100010000000 9
b100010000000 P
11
1B
16
#950000
01
0B
06
#962500
b101000110000 R
b101000110000 8
b101000110000 W
b101000110000 +"
b101000110000 !
b101000110000 7
b101000110000 S
b10110 ~
b10110 [
b10110 ,"
b10110 E"
b10110 D
b10110 ^
b10110 !"
b10110 \
b10110 -"
b10110 M"
b10110 T"
b10110 C
b10110 ]
b10 Y"
b1000110000 )
b1000110000 :
1O
b100011000000 (
b100011000000 9
b100011000000 P
b1 5
b10110 2
11
1B
16
#975000
01
0B
06
#987500
b101001000000 R
b101001000000 8
b101001000000 W
b101001000000 +"
b101001000000 !
b101001000000 7
b101001000000 S
b11 Y"
b10111 !"
b10111 \
b10111 -"
b10111 M"
b10111 T"
b10111 C
b10111 ]
b10111 ~
b10111 [
b10111 ,"
b10111 E"
b10111 D
b10111 ^
b1 5
b10111 2
b1001000000 )
b1001000000 :
0O
b100100000000 (
b100100000000 9
b100100000000 P
11
1B
16
#1000000
01
0B
06
#1012500
b101001010000 R
b101001010000 8
b101001010000 W
b101001010000 +"
b101001010000 !
b101001010000 7
b101001010000 S
b11000 ~
b11000 [
b11000 ,"
b11000 E"
b11000 D
b11000 ^
b11000 !"
b11000 \
b11000 -"
b11000 M"
b11000 T"
b11000 C
b11000 ]
b100 Y"
b1001010000 )
b1001010000 :
1O
b100101000000 (
b100101000000 9
b100101000000 P
b1 5
b11000 2
11
1B
16
#1025000
01
0B
06
#1037500
0L
b101001100000 R
b101001100000 8
b101001100000 W
b101001100000 +"
b101001100000 !
b101001100000 7
b101001100000 S
b1 Y"
0P"
0J
b10 S"
b11111000000000 R"
b11001 !"
b11001 \
b11001 -"
b11001 M"
b11001 T"
b11001 C
b11001 ]
b11001 ~
b11001 [
b11001 ,"
b11001 E"
b11001 D
b11001 ^
b1 5
b11001 2
b1001100000 )
b1001100000 :
b100110000000 (
b100110000000 9
b100110000000 P
11
1B
16
#1050000
01
0B
06
#1062500
b101001110000 R
b101001110000 8
b101001110000 W
b101001110000 +"
b101001110000 !
b101001110000 7
b101001110000 S
b11010 ~
b11010 [
b11010 ,"
b11010 E"
b11010 D
b11010 ^
b11010 !"
b11010 \
b11010 -"
b11010 M"
b11010 T"
b11010 C
b11010 ]
b10 Y"
b1001110000 )
b1001110000 :
0O
b100111000000 (
b100111000000 9
b100111000000 P
b1 5
b11010 2
11
1B
16
#1075000
01
0B
06
#1087500
b101010000000 R
b101010000000 8
b101010000000 W
b101010000000 +"
b101010000000 !
b101010000000 7
b101010000000 S
b11 Y"
b11011 !"
b11011 \
b11011 -"
b11011 M"
b11011 T"
b11011 C
b11011 ]
b11011 ~
b11011 [
b11011 ,"
b11011 E"
b11011 D
b11011 ^
b1 5
b11011 2
b1010000000 )
b1010000000 :
b101000000000 (
b101000000000 9
b101000000000 P
11
1B
16
#1100000
01
0B
06
#1112500
b101010010000 R
b101010010000 8
b101010010000 W
b101010010000 +"
b101010010000 !
b101010010000 7
b101010010000 S
b11100 ~
b11100 [
b11100 ,"
b11100 E"
b11100 D
b11100 ^
b11100 !"
b11100 \
b11100 -"
b11100 M"
b11100 T"
b11100 C
b11100 ]
b100 Y"
b1010010000 )
b1010010000 :
1O
b101001000000 (
b101001000000 9
b101001000000 P
b1 5
b11100 2
11
1B
16
#1125000
01
0B
06
#1137500
b101010100000 R
b101010100000 8
b101010100000 W
b101010100000 +"
b101010100000 !
b101010100000 7
b101010100000 S
b1 Y"
1P"
1J
b11101 !"
b11101 \
b11101 -"
b11101 M"
b11101 T"
b11101 C
b11101 ]
b11101 ~
b11101 [
b11101 ,"
b11101 E"
b11101 D
b11101 ^
b1 5
b11101 2
b1010100000 )
b1010100000 :
b101010000000 (
b101010000000 9
b101010000000 P
11
1B
16
#1150000
01
0B
06
#1162500
b101010110000 R
b101010110000 8
b101010110000 W
b101010110000 +"
b101010110000 !
b101010110000 7
b101010110000 S
b11110 ~
b11110 [
b11110 ,"
b11110 E"
b11110 D
b11110 ^
b11110 !"
b11110 \
b11110 -"
b11110 M"
b11110 T"
b11110 C
b11110 ]
b10 Y"
b1010110000 )
b1010110000 :
0O
b101011000000 (
b101011000000 9
b101011000000 P
b1 5
b11110 2
11
1B
16
#1175000
01
0B
06
#1187500
b101011000000 R
b101011000000 8
b101011000000 W
b101011000000 +"
b101011000000 !
b101011000000 7
b101011000000 S
b11 Y"
b11111 !"
b11111 \
b11111 -"
b11111 M"
b11111 T"
b11111 C
b11111 ]
b11111 ~
b11111 [
b11111 ,"
b11111 E"
b11111 D
b11111 ^
b1 5
b11111 2
b1011000000 )
b1011000000 :
1O
b101100000000 (
b101100000000 9
b101100000000 P
11
1B
16
#1200000
01
0B
06
#1212500
b101011010000 R
b101011010000 8
b101011010000 W
b101011010000 +"
b101011010000 !
b101011010000 7
b101011010000 S
b100000 ~
b100000 [
b100000 ,"
b100000 E"
b100000 D
b100000 ^
b100000 !"
b100000 \
b100000 -"
b100000 M"
b100000 T"
b100000 C
b100000 ]
b100 Y"
b1011010000 )
b1011010000 :
0O
b101101000000 (
b101101000000 9
b101101000000 P
b1 5
b100000 2
11
1B
16
#1225000
01
0B
06
#1237500
b101011100000 R
b101011100000 8
b101011100000 W
b101011100000 +"
b101011100000 !
b101011100000 7
b101011100000 S
b1 Y"
0P"
0J
b11 S"
b111110000000000 R"
b100001 !"
b100001 \
b100001 -"
b100001 M"
b100001 T"
b100001 C
b100001 ]
b100001 ~
b100001 [
b100001 ,"
b100001 E"
b100001 D
b100001 ^
b1 5
b100001 2
b1011100000 )
b1011100000 :
b101110000000 (
b101110000000 9
b101110000000 P
11
1B
16
#1250000
01
0B
06
#1262500
b101011110000 R
b101011110000 8
b101011110000 W
b101011110000 +"
b101011110000 !
b101011110000 7
b101011110000 S
b100010 ~
b100010 [
b100010 ,"
b100010 E"
b100010 D
b100010 ^
b100010 !"
b100010 \
b100010 -"
b100010 M"
b100010 T"
b100010 C
b100010 ]
b10 Y"
b1011110000 )
b1011110000 :
1O
b101111000000 (
b101111000000 9
b101111000000 P
b1 5
b100010 2
11
1B
16
#1275000
01
0B
06
