sim/icarus/tb_fog_core_ni7966r_ni5781_lv_adapter.vcd
$date
	Tue May 19 17:07:28 2026
$end
$version
	Icarus Verilog
$end
$timescale
	1ps
$end
$scope module tb_fog_core_ni7966r_ni5781_lv_adapter $end
$var wire 12 ! adin_dbg [11:0] $end
$var wire 16 " ao0_raw [15:0] $end
$var wire 16 # ao1_raw [15:0] $end
$var wire 16 $ sp_sn_value [15:0] $end
$var wire 2 % state_dbg [1:0] $end
$var wire 1 & status_ready $end
$var reg 16 ' ai0_raw [15:0] $end
$var reg 2 ( ai_map_mode [1:0] $end
$var integer 32 ) ao0_change_count [31:0] $end
$var reg 16 * ao0_prev [15:0] $end
$var integer 32 + ao1_change_count [31:0] $end
$var reg 16 , ao1_prev [15:0] $end
$var reg 8 - cfg_FBK [7:0] $end
$var reg 8 . cfg_FBK2 [7:0] $end
$var reg 10 / cfg_N [9:0] $end
$var reg 16 0 cfg_V2Pai_mV [15:0] $end
$var reg 1 1 cfg_apply $end
$var reg 1 2 clk $end
$var integer 32 3 cycles_after_ready [31:0] $end
$var integer 32 4 errors [31:0] $end
$var reg 1 5 rst_n $end
$var integer 32 6 state_seen_mask [31:0] $end
$scope module dut $end
$var wire 1 7 adclk_unused $end
$var wire 12 8 adin_dbg [11:0] $end
$var wire 12 9 adin_mapped [11:0] $end
$var wire 16 : ai0_raw [15:0] $end
$var wire 2 ; ai_map_mode [1:0] $end
$var wire 16 < ao0_raw [15:0] $end
$var wire 16 = ao1_raw [15:0] $end
$var wire 8 > cfg_FBK [7:0] $end
$var wire 8 ? cfg_FBK2 [7:0] $end
$var wire 10 @ cfg_N [9:0] $end
$var wire 16 A cfg_V2Pai_mV [15:0] $end
$var wire 1 B cfg_apply $end
$var wire 10 C cfg_n_clamped [9:0] $end
$var wire 10 D cfg_n_safe [9:0] $end
$var wire 16 E cfg_v2pai_limited [15:0] $end
$var wire 14 F cfg_vdaref_code [13:0] $end
$var wire 32 G cfg_vdaref_scaled [31:0] $end
$var wire 1 H clk $end
$var wire 10 I counterN_dbg_unused [9:0] $end
$var wire 9 J counter_dbg_unused [8:0] $end
$var wire 1 K daclk_unused $end
$var wire 16 L daout_unscaled [15:0] $end
$var wire 32 M drotate_dbg_unused [31:0] $end
$var wire 32 N dvref_dbg_unused [31:0] $end
$var wire 32 O intsout_dbg_unused [31:0] $end
$var wire 1 P rst_n $end
$var wire 1 Q sdaclk_unused $end
$var wire 1 R sdacs_unused $end
$var wire 1 S sdaout_unused $end
$var wire 1 T sn_unused $end
$var wire 16 U sp_sn_value [15:0] $end
$var wire 1 V sp_unused $end
$var wire 2 W state_dbg [1:0] $end
$var wire 1 & status_ready $end
$var wire 12 X tau_dbg_unused [11:0] $end
$var wire 16 Y vref_word [15:0] $end
$var reg 16 Z ao0_raw_r [15:0] $end
$var reg 1 [ scale_busy $end
$var reg 16 \ scale_last_mod [15:0] $end
$var reg 1 ] scale_last_valid $end
$var reg 16 ^ scale_last_vref [15:0] $end
$var reg 16 _ scale_mod_latch [15:0] $end
$var reg 6 ` scale_phase [5:0] $end
$var reg 32 a scale_product1 [31:0] $end
$var reg 49 b scale_product2 [48:0] $end
$var reg 16 c scale_vref_latch [15:0] $end
$scope module u_ai_map $end
$var wire 16 d ai_raw [15:0] $end
$var wire 2 e map_mode [1:0] $end
$var reg 12 f adin [11:0] $end
$var reg 16 g mapped_tmp [15:0] $end
$upscope $end
$scope module u_core $end
$var wire 8 h FBK [7:0] $end
$var wire 8 i FBK2 [7:0] $end
$var wire 10 j N [9:0] $end
$var wire 14 k VDARef [13:0] $end
$var wire 1 7 adclk $end
$var wire 12 l adin [11:0] $end
$var wire 8 m cfg_FBK [7:0] $end
$var wire 8 n cfg_FBK2 [7:0] $end
$var wire 10 o cfg_N [9:0] $end
$var wire 14 p cfg_VDARef [13:0] $end
$var wire 1 B cfg_apply $end
$var wire 1 q cfg_apply_pulse $end
$var wire 1 H clk $end
$var wire 32 r closed_loop_drive [31:0] $end
$var wire 9 s counter [8:0] $end
$var wire 10 t counterN [9:0] $end
$var wire 10 u counterN_dbg [9:0] $end
$var wire 9 v counter_dbg [8:0] $end
$var wire 32 w dRotateOut [31:0] $end
$var wire 32 x dRotateOutFBK [31:0] $end
$var wire 32 y dVrefOut [31:0] $end
$var wire 32 z dVrefOutFBK [31:0] $end
$var wire 1 K daclk $end
$var wire 16 { daout [15:0] $end
$var wire 32 | drotate_dbg [31:0] $end
$var wire 32 } dvref_dbg [31:0] $end
$var wire 1 ~ ena $end
$var wire 32 !" first_loop_drive [31:0] $end
$var wire 1 "" intena $end
$var wire 1 #" intena0 $end
$var wire 32 $" intsout [31:0] $end
$var wire 32 %" intsout_dbg [31:0] $end
$var wire 1 &" ladena1 $end
$var wire 1 '" ladena2 $end
$var wire 16 (" pintout [15:0] $end
$var wire 1 )" random $end
$var wire 1 & ready $end
$var wire 1 P rst_n $end
$var wire 1 *" sdaSend $end
$var wire 1 Q sdaclk $end
$var wire 1 R sdacs $end
$var wire 1 S sdaout $end
$var wire 32 +" second_loop_drive [31:0] $end
$var wire 1 T sn $end
$var wire 1 V sp $end
$var wire 16 ," sp_sn_value [15:0] $end
$var wire 2 -" state [1:0] $end
$var wire 2 ." state_dbg [1:0] $end
$var wire 1 /" sys_rst $end
$var wire 12 0" tauCounter [11:0] $end
$var wire 12 1" tau_dbg [11:0] $end
$var wire 1 2" updown $end
$var wire 16 3" vref_word [15:0] $end
$var reg 1 4" cfg_apply_d $end
$var reg 8 5" cfg_fbk2_reg [7:0] $end
$var reg 8 6" cfg_fbk_reg [7:0] $end
$var reg 10 7" cfg_n_reg [9:0] $end
$var reg 2 8" cfg_reset_hold [1:0] $end
$var reg 14 9" cfg_vdaref_reg [13:0] $end
$scope module asrst_core $end
$var wire 1 H clk $end
$var wire 1 :" rst_n $end
$var reg 1 ;" rst_nr1 $end
$var reg 1 <" rst_nr2 $end
$upscope $end
$scope module gclk $end
$var wire 10 =" N [9:0] $end
$var wire 1 7 adclk $end
$var wire 1 H clk $end
$var wire 1 ~ ena $end
$var wire 1 /" rst $end
$var reg 9 >" counter [8:0] $end
$var reg 10 ?" counterN [9:0] $end
$var reg 1 @" daclk $end
$var reg 1 A" daclk1 $end
$var reg 1 B" daclk2 $end
$var reg 1 C" intena $end
$var reg 1 D" intena0 $end
$var reg 1 E" ladena1 $end
$var reg 1 F" ladena2 $end
$var reg 2 G" state [1:0] $end
$upscope $end
$scope module dmt $end
$var wire 10 H" N [9:0] $end
$var wire 12 I" adin [11:0] $end
$var wire 8 J" cfg_delay1 [7:0] $end
$var wire 8 K" cfg_delay2 [7:0] $end
$var wire 8 L" cfg_delayAD [7:0] $end
$var wire 8 M" cfg_reserveN [7:0] $end
$var wire 12 N" cfg_sft_pd [11:0] $end
$var wire 1 H clk $end
$var wire 9 O" counter [8:0] $end
$var wire 10 P" counterN [9:0] $end
$var wire 10 Q" delay1w [9:0] $end
$var wire 10 R" delay2w [9:0] $end
$var wire 10 S" delayADw [9:0] $end
$var wire 10 T" delaySum [9:0] $end
$var wire 1 ~ ena $end
$var wire 10 U" halfN [9:0] $end
$var wire 10 V" reserveNw [9:0] $end
$var wire 1 /" rst $end
$var wire 2 W" state [1:0] $end
$var wire 12 X" tauCounter [11:0] $end
$var wire 1 2" updown $end
$var reg 32 Y" dRotateOut [31:0] $end
$var reg 32 Z" dVrefOut [31:0] $end
$var reg 1 [" random $end
$var reg 1 \" randomPre $end
$upscope $end
$scope module dmk $end
$var wire 8 ]" FBK [7:0] $end
$var wire 1 H clk $end
$var wire 24 ^" dRotateOut24 [23:0] $end
$var wire 32 _" dRotateOutFBK [31:0] $end
$var wire 1 #" intena0 $end
$var wire 33 `" mult_FBK [32:0] $end
$var wire 1 /" rst $end
$var reg 33 a" mult_FBK_R [32:0] $end
$upscope $end
$scope module dmk2 $end
$var wire 8 b" FBK [7:0] $end
$var wire 1 H clk $end
$var wire 24 c" dRotateOut24 [23:0] $end
$var wire 32 d" dRotateOutFBK [31:0] $end
$var wire 1 #" intena0 $end
$var wire 33 e" mult_FBK [32:0] $end
$var wire 1 /" rst $end
$var reg 33 f" mult_FBK_R [32:0] $end
$upscope $end
$scope module itg $end
$var wire 1 H clk $end
$var wire 32 g" dRotateOut [31:0] $end
$var wire 1 "" intena $end
$var wire 1 /" rst $end
$var wire 32 h" sum [31:0] $end
$var reg 32 i" intsout [31:0] $end
$upscope $end
$scope module ldp $end
$var wire 16 j" cfg_PI [15:0] $end
$var wire 16 k" cfg_PIb [15:0] $end
$var wire 16 l" cfg_PIbpPI [15:0] $end
$var wire 12 m" cfg_sft_pd [11:0] $end
$var wire 1 H clk $end
$var wire 1 &" ladena1 $end
$var wire 1 '" ladena2 $end
$var wire 32 n" ladin [31:0] $end
$var wire 1 )" random $end
$var wire 1 /" rst $end
$var wire 2 o" state [1:0] $end
$var reg 16 p" ladout [15:0] $end
$var reg 32 q" ladreg [31:0] $end
$var reg 32 r" ladtmp [31:0] $end
$var reg 12 s" tauCounter [11:0] $end
$var reg 1 t" updown $end
$upscope $end
$scope module pint $end
$var wire 10 u" N [9:0] $end
$var wire 14 v" VDARef [13:0] $end
$var wire 1 H clk $end
$var wire 9 w" counter [8:0] $end
$var wire 32 x" dVrefOut [31:0] $end
$var wire 1 ~ ena $end
$var wire 16 y" pintout [15:0] $end
$var wire 1 /" rst $end
$var wire 2 z" state [1:0] $end
$var reg 16 {" pintoutpre [15:0] $end
$var reg 40 |" pintreg [39:0] $end
$var reg 1 }" sdaSend $end
$upscope $end
$scope module sdo $end
$var wire 10 ~" N [9:0] $end
$var wire 1 H clk $end
$var wire 10 !# counterN [9:0] $end
$var wire 16 "# pintout [15:0] $end
$var wire 1 /" rst $end
$var wire 1 *" sdaSend $end
$var wire 1 S sdaout $end
$var reg 1 ## finish $end
$var reg 1 $# sdaclk $end
$var reg 1 %# sdacs $end
$var reg 16 &# sdaoutbuf [15:0] $end
$var reg 4 '# shout_state [3:0] $end
$upscope $end
$scope module agowc $end
$var wire 10 (# N [9:0] $end
$var wire 1 H clk $end
$var wire 10 )# counterN [9:0] $end
$var wire 32 *# intsout [31:0] $end
$var wire 4 +# pulseWidthSafe [3:0] $end
$var wire 8 ,# pulseWidthTwice [7:0] $end
$var wire 10 -# pulseWindowLimit [9:0] $end
$var wire 32 .# pulse_k [31:0] $end
$var wire 4 /# pulse_width [3:0] $end
$var wire 1 /" rst $end
$var wire 40 0# sum1 [39:0] $end
$var wire 40 1# sum2 [39:0] $end
$var reg 40 2# anglereg [39:0] $end
$var reg 8 3# smallCounter [7:0] $end
$var reg 1 4# sn $end
$var reg 1 5# sp $end
$upscope $end
$upscope $end
$upscope $end
$upscope $end
$enddefinitions $end
#0
$dumpvars
05#
04#
b0 3#
b0 2#
b1111111111111111110110001111000000000000 1#
b1001110001000000000000 0#
b10 /#
b1001110001000000000000 .#
b1010100100 -#
b100 ,#
b10 +#
b0 *#
b0 )#
b1010101000 (#
b0 '#
b0 &#
1%#
0$#
1##
bx "#
b0 !#
b1010101000 ~"
x}"
bx |"
bx {"
b0 z"
bx y"
b0 x"
b1 w"
b10111000010100 v"
b1010101000 u"
0t"
b0 s"
b0 r"
b0 q"
b0 p"
b0 o"
b0 n"
b111111111111 m"
b100001000010 l"
b101101011010110 k"
b101001010010100 j"
b0 i"
b0 h"
b0 g"
b0 f"
b0 e"
b0 d"
b0 c"
b100000 b"
b0 a"
b0 `"
b0 _"
b0 ^"
b1100100 ]"
0\"
0["
b0 Z"
b0 Y"
b0 X"
b0 W"
b111 V"
b101010100 U"
b101000 T"
b1000 S"
b10010 R"
b100000 Q"
b0 P"
b1 O"
b111111111111 N"
b111 M"
b1000 L"
b10010 K"
b100000 J"
b100000000000 I"
b1010101000 H"
b0 G"
0F"
0E"
0D"
0C"
0B"
0A"
0@"
b0 ?"
b1 >"
b1010101000 ="
0<"
0;"
0:"
b10111000010100 9"
b0 8"
b1010101000 7"
b1100100 6"
b100000 5"
04"
bx 3"
02"
b0 1"
b0 0"
0/"
b0 ."
b0 -"
b0 ,"
b0 +"
x*"
0)"
bx ("
0'"
0&"
b0 %"
b0 $"
0#"
0""
b0 !"
1~
b0 }
b0 |
b0 {
b0 z
b0 y
b0 x
b0 w
b1 v
b0 u
b0 t
b1 s
b0 r
0q
b10111000010100 p
b101010100 o
b100000 n
b1100100 m
b100000000000 l
b10111000010100 k
b1010101000 j
b100000 i
b1100100 h
b100000000000 g
b100000000000 f
b1 e
b0 d
b0 c
b0 b
b0 a
b0 `
b0 _
b0 ^
0]
b0 \
0[
b0 Z
bx Y
b0 X
b0 W
0V
b0 U
0T
0S
1R
0Q
0P
b0 O
b0 N
b0 M
b0 L
0K
b1 J
b0 I
0H
b10111000010100010011010000 G
b10111000010100 F
b11100001000 E
b101010100 D
b101010100 C
0B
b11100001000 A
b101010100 @
b100000 ?
b1100100 >
b0 =
b0 <
b1 ;
b0 :
b100000000000 9
b100000000000 8
07
b0 6
05
b0 4
b0 3
02
01
b11100001000 0
b101010100 /
b100000 .
b1100100 -
b0 ,
b0 +
b0 *
b0 )
b1 (
b0 '
0&
b0 %
b0 $
b0 #
b0 "
b100000000000 !
$end
#12500
b1011100001010000 ("
b1011100001010000 y"
b1011100001010000 "#
b1011100001010000 Y
b1011100001010000 3"
1}"
1*"
b0 {"
b1011100001010000000000000000000000000000 |"
12
1H
17
#25000
02
0H
07
#37500
12
1H
17
#50000
02
0H
07
#62500
12
1H
17
#75000
02
0H
07
#87500
12
1H
17
#100000
02
0H
07
15
1P
#112500
b100000010000 f
b100000010000 9
b100000010000 l
b100000010000 I"
b100000010000 !
b100000010000 8
b100000010000 g
b1000000 '
b1000000 :
b1000000 d
1]
b1011100001010000 ^
b1011100001010000 c
1[
b1 8"
12
1H
17
#125000
02
0H
07
#137500
1:"
b100000100000 f
b100000100000 9
b100000100000 l
b100000100000 I"
b100000100000 !
b100000100000 8
b100000100000 g
b10000000 '
b10000000 :
b10000000 d
b10 8"
b1 `
12
1H
17
#150000
02
0H
07
#162500
b100000110000 f
b100000110000 9
b100000110000 l
b100000110000 I"
b100000110000 !
b100000110000 8
b100000110000 g
b11000000 '
b11000000 :
b11000000 d
1;"
b10 `
b11 8"
12
1H
17
#175000
02
0H
07
#187500
b100001000000 f
b100001000000 9
b100001000000 l
b100001000000 I"
b100001000000 !
b100001000000 8
b100001000000 g
b100000000 '
b100000000 :
b100000000 d
1<"
1/"
1&
b11 `
12
1H
17
#200000
02
0H
07
#212500
b100001010000 f
b100001010000 9
b100001010000 l
b100001010000 I"
b100001010000 !
b100001010000 8
b100001010000 g
b1 ?"
b1 t
b1 P"
b1 !#
b1 )#
b1 I
b1 u
b10 >"
b10 s
b10 O"
b10 w"
b10 J
b10 v
b101000000 '
b101000000 :
b101000000 d
b1 6
b1 3
b100 `
12
1H
17
#225000
02
0H
07
#237500
b100001100000 f
b100001100000 9
b100001100000 l
b100001100000 I"
b100001100000 !
b100001100000 8
b100001100000 g
b11 >"
b11 s
b11 O"
b11 w"
b11 J
b11 v
b10 ?"
b10 t
b10 P"
b10 !#
b10 )#
b10 I
b10 u
b1 6
b10 3
b110000000 '
b110000000 :
b110000000 d
b101 `
12
1H
17
#250000
02
0H
07
#262500
b100001110000 f
b100001110000 9
b100001110000 l
b100001110000 I"
b100001110000 !
b100001110000 8
b100001110000 g
b11 ?"
b11 t
b11 P"
b11 !#
b11 )#
b11 I
b11 u
b100 >"
b100 s
b100 O"
b100 w"
b100 J
b100 v
b111000000 '
b111000000 :
b111000000 d
b1 6
b11 3
b110 `
12
1H
17
#275000
02
0H
07
#287500
b100010000000 f
b100010000000 9
b100010000000 l
b100010000000 I"
b100010000000 !
b100010000000 8
b100010000000 g
b101 >"
b101 s
b101 O"
b101 w"
b101 J
b101 v
b100 ?"
b100 t
b100 P"
b100 !#
b100 )#
b100 I
b100 u
b1 6
b100 3
b1000000000 '
b1000000000 :
b1000000000 d
b111 `
b1111111110 D
b1111111110 o
b1111111110 C
1q
11
1B
b1111111111 /
b1111111111 @
12
1H
17
#300000
02
0H
07
#312500
0;"
0<"
0/"
0&
0:"
b100010010000 f
b100010010000 9
b100010010000 l
b100010010000 I"
b100010010000 !
b100010010000 8
b100010010000 g
b111111111 U"
b1111111010 -#
b0 3#
b0 ?"
b0 t
b0 P"
b0 !#
b0 )#
b0 I
b0 u
b1 >"
b1 s
b1 O"
b1 w"
b1 J
b1 v
b1001000000 '
b1001000000 :
b1001000000 d
b1 6
b101 3
b1000 `
b0 8"
b1111111110 7"
b1111111110 j
b1111111110 ="
b1111111110 H"
b1111111110 u"
b1111111110 ~"
b1111111110 (#
14"
0q
01
0B
12
1H
17
#325000
02
0H
07
#337500
b100010100000 f
b100010100000 9
b100010100000 l
b100010100000 I"
b100010100000 !
b100010100000 8
b100010100000 g
b0 6
b0 3
b1010000000 '
b1010000000 :
b1010000000 d
b1 8"
04"
b1001 `
12
1H
17
#350000
02
0H
07
#362500
1:"
b100010110000 f
b100010110000 9
b100010110000 l
b100010110000 I"
b100010110000 !
b100010110000 8
b100010110000 g
b1011000000 '
b1011000000 :
b1011000000 d
b1010 `
b10 8"
12
1H
17
#375000
02
0H
07
#387500
b100011000000 f
b100011000000 9
b100011000000 l
b100011000000 I"
b100011000000 !
b100011000000 8
b100011000000 g
b1100000000 '
b1100000000 :
b1100000000 d
1;"
b11 8"
b1011 `
12
1H
17
#400000
02
0H
07
#412500
b100011010000 f
b100011010000 9
b100011010000 l
b100011010000 I"
b100011010000 !
b100011010000 8
b100011010000 g
b1101000000 '
b1101000000 :
b1101000000 d
1<"
1/"
1&
b1100 `
12
1H
17
#425000
02
0H
07
#437500
b100011100000 f
b100011100000 9
b100011100000 l
b100011100000 I"
b100011100000 !
b100011100000 8
b100011100000 g
b1 ?"
b1 t
b1 P"
b1 !#
b1 )#
b1 I
b1 u
b10 >"
b10 s
b10 O"
b10 w"
b10 J
b10 v
b1 6
b1 3
b1110000000 '
b1110000000 :
b1110000000 d
b1101 `
12
1H
17
#450000
02
0H
07
#462500
b100011110000 f
b100011110000 9
b100011110000 l
b100011110000 I"
b100011110000 !
b100011110000 8
b100011110000 g
b11 >"
b11 s
b11 O"
b11 w"
b11 J
b11 v
b10 ?"
b10 t
b10 P"
b10 !#
b10 )#
b10 I
b10 u
b1111000000 '
b1111000000 :
b1111000000 d
b1 6
b10 3
b1110 `
12
1H
17
#475000
02
0H
07
#487500
b100100000000 f
b100100000000 9
b100100000000 l
b100100000000 I"
b100100000000 !
b100100000000 8
b100100000000 g
b11 ?"
b11 t
b11 P"
b11 !#
b11 )#
b11 I
b11 u
b100 >"
b100 s
b100 O"
b100 w"
b100 J
b100 v
b1 6
b11 3
b10000000000 '
b10000000000 :
b10000000000 d
b1111 `
12
1H
17
#500000
02
0H
07
#512500
b100100010000 f
b100100010000 9
b100100010000 l
b100100010000 I"
b100100010000 !
b100100010000 8
b100100010000 g
b101 >"
b101 s
b101 O"
b101 w"
b101 J
b101 v
b100 ?"
b100 t
b100 P"
b100 !#
b100 )#
b100 I
b100 u
b10001000000 '
b10001000000 :
b10001000000 d
b1 6
b100 3
b10000 `
12
1H
17
#525000
02
0H
07
#537500
b100100100000 f
b100100100000 9
b100100100000 l
b100100100000 I"
b100100100000 !
b100100100000 8
b100100100000 g
b1 3#
b101 ?"
b101 t
b101 P"
b101 !#
b101 )#
b101 I
b101 u
b110 >"
b110 s
b110 O"
b110 w"
b110 J
b110 v
b1 6
b101 3
b10010000000 '
b10010000000 :
b10010000000 d
b10001 `
b1000000000000000000000000000000 b
12
1H
17
#550000
02
0H
07
#562500
b100100110000 f
b100100110000 9
b100100110000 l
b100100110000 I"
b100100110000 !
b100100110000 8
b100100110000 g
b111 >"
b111 s
b111 O"
b111 w"
b111 J
b111 v
b110 ?"
b110 t
b110 P"
b110 !#
b110 )#
b110 I
b110 u
b10 3#
b10011000000 '
b10011000000 :
b10011000000 d
b1 6
b110 3
b10010 `
12
1H
17
#575000
02
0H
07
#587500
b100101000000 f
b100101000000 9
b100101000000 l
b100101000000 I"
b100101000000 !
b100101000000 8
b100101000000 g
b11 3#
b111 ?"
b111 t
b111 P"
b111 !#
b111 )#
b111 I
b111 u
b1000 >"
b1000 s
b1000 O"
b1000 w"
b1000 J
b1000 v
b1 6
b111 3
b10100000000 '
b10100000000 :
b10100000000 d
b10011 `
12
1H
17
#600000
02
0H
07
#612500
b100101010000 f
b100101010000 9
b100101010000 l
b100101010000 I"
b100101010000 !
b100101010000 8
b100101010000 g
b1001 >"
b1001 s
b1001 O"
b1001 w"
b1001 J
b1001 v
b1000 ?"
b1000 t
b1000 P"
b1000 !#
b1000 )#
b1000 I
b1000 u
b100 3#
b10101000000 '
b10101000000 :
b10101000000 d
b1 6
b1000 3
b10100 `
12
1H
17
#625000
02
0H
07
#637500
1S
b100101100000 f
b100101100000 9
b100101100000 l
b100101100000 I"
b100101100000 !
b100101100000 8
b100101100000 g
b1 3#
0##
0%#
0R
b1011100001010000 &#
b1001 ?"
b1001 t
b1001 P"
b1001 !#
b1001 )#
b1001 I
b1001 u
b1010 >"
b1010 s
b1010 O"
b1010 w"
b1010 J
b1010 v
b1 6
b1001 3
b10110000000 '
b10110000000 :
b10110000000 d
b10101 `
12
1H
17
#650000
02
0H
07
#662500
b100101110000 f
b100101110000 9
b100101110000 l
b100101110000 I"
b100101110000 !
b100101110000 8
b100101110000 g
b1011 >"
b1011 s
b1011 O"
b1011 w"
b1011 J
b1011 v
b1010 ?"
b1010 t
b1010 P"
b1010 !#
b1010 )#
b1010 I
b1010 u
b10 3#
b10111000000 '
b10111000000 :
b10111000000 d
b1 6
b1010 3
b10110 `
12
1H
17
#675000
02
0H
07
#687500
b100110000000 f
b100110000000 9
b100110000000 l
b100110000000 I"
b100110000000 !
b100110000000 8
b100110000000 g
b11 3#
b1011 ?"
b1011 t
b1011 P"
b1011 !#
b1011 )#
b1011 I
b1011 u
b1100 >"
b1100 s
b1100 O"
b1100 w"
b1100 J
b1100 v
b1 6
b1011 3
b11000000000 '
b11000000000 :
b11000000000 d
b10111 `
12
1H
17
#700000
02
0H
07
#712500
b100110010000 f
b100110010000 9
b100110010000 l
b100110010000 I"
b100110010000 !
b100110010000 8
b100110010000 g
b1101 >"
b1101 s
b1101 O"
b1101 w"
b1101 J
b1101 v
b1100 ?"
b1100 t
b1100 P"
b1100 !#
b1100 )#
b1100 I
b1100 u
b100 3#
0}"
0*"
b11001000000 '
b11001000000 :
b11001000000 d
b1 6
b1100 3
b11000 `
12
1H
17
#725000
02
0H
07
#737500
b100110100000 f
b100110100000 9
b100110100000 l
b100110100000 I"
b100110100000 !
b100110100000 8
b100110100000 g
b1 3#
1$#
1Q
b1101 ?"
b1101 t
b1101 P"
b1101 !#
b1101 )#
b1101 I
b1101 u
b1110 >"
b1110 s
b1110 O"
b1110 w"
b1110 J
b1110 v
b1 6
b1101 3
b11010000000 '
b11010000000 :
b11010000000 d
b11001 `
12
1H
17
#750000
02
0H
07
#762500
b100110110000 f
b100110110000 9
b100110110000 l
b100110110000 I"
b100110110000 !
b100110110000 8
b100110110000 g
b1111 >"
b1111 s
b1111 O"
b1111 w"
b1111 J
b1111 v
b1110 ?"
b1110 t
b1110 P"
b1110 !#
b1110 )#
b1110 I
b1110 u
b10 3#
b11011000000 '
b11011000000 :
b11011000000 d
b1 6
b1110 3
b11010 `
12
1H
17
#775000
02
0H
07
#787500
b100111000000 f
b100111000000 9
b100111000000 l
b100111000000 I"
b100111000000 !
b100111000000 8
b100111000000 g
b11 3#
b1111 ?"
b1111 t
b1111 P"
b1111 !#
b1111 )#
b1111 I
b1111 u
b10000 >"
b10000 s
b10000 O"
b10000 w"
b10000 J
b10000 v
b1 6
b1111 3
b11100000000 '
b11100000000 :
b11100000000 d
b11011 `
12
1H
17
#800000
02
0H
07
#812500
b100111010000 f
b100111010000 9
b100111010000 l
b100111010000 I"
b100111010000 !
b100111010000 8
b100111010000 g
b10001 >"
b10001 s
b10001 O"
b10001 w"
b10001 J
b10001 v
b10000 ?"
b10000 t
b10000 P"
b10000 !#
b10000 )#
b10000 I
b10000 u
b100 3#
b11101000000 '
b11101000000 :
b11101000000 d
b1 6
b10000 3
b11100 `
12
1H
17
#825000
02
0H
07
#837500
0S
b100111100000 f
b100111100000 9
b100111100000 l
b100111100000 I"
b100111100000 !
b100111100000 8
b100111100000 g
b1 3#
0$#
0Q
b1 '#
b111000010100000 &#
b10001 ?"
b10001 t
b10001 P"
b10001 !#
b10001 )#
b10001 I
b10001 u
b10010 >"
b10010 s
b10010 O"
b10010 w"
b10010 J
b10010 v
b1 6
b10001 3
b11110000000 '
b11110000000 :
b11110000000 d
b11101 `
12
1H
17
#850000
02
0H
07
#862500
b100111110000 f
b100111110000 9
b100111110000 l
b100111110000 I"
b100111110000 !
b100111110000 8
b100111110000 g
b10011 >"
b10011 s
b10011 O"
b10011 w"
b10011 J
b10011 v
b10010 ?"
b10010 t
b10010 P"
b10010 !#
b10010 )#
b10010 I
b10010 u
b10 3#
b11111000000 '
b11111000000 :
b11111000000 d
b1 6
b10010 3
b11110 `
12
1H
17
#875000
02
0H
07
#887500
b101000000000 f
b101000000000 9
b101000000000 l
b101000000000 I"
b101000000000 !
b101000000000 8
b101000000000 g
b11 3#
b10011 ?"
b10011 t
b10011 P"
b10011 !#
b10011 )#
b10011 I
b10011 u
b10100 >"
b10100 s
b10100 O"
b10100 w"
b10100 J
b10100 v
b1 6
b10011 3
b100000000000 '
b100000000000 :
b100000000000 d
b11111 `
12
1H
17
#900000
02
0H
07
#912500
b101000010000 f
b101000010000 9
b101000010000 l
b101000010000 I"
b101000010000 !
b101000010000 8
b101000010000 g
b10101 >"
b10101 s
b10101 O"
b10101 w"
b10101 J
b10101 v
b10100 ?"
b10100 t
b10100 P"
b10100 !#
b10100 )#
b10100 I
b10100 u
b100 3#
b100001000000 '
b100001000000 :
b100001000000 d
b1 6
b10100 3
b100000 `
12
1H
17
#925000
02
0H
07
#937500
b101000100000 f
b101000100000 9
b101000100000 l
b101000100000 I"
b101000100000 !
b101000100000 8
b101000100000 g
b1 3#
1$#
1Q
b10101 ?"
b10101 t
b10101 P"
b10101 !#
b10101 )#
b10101 I
b10101 u
b10110 >"
b10110 s
b10110 O"
b10110 w"
b10110 J
b10110 v
b1 6
b10101 3
b100010000000 '
b100010000000 :
b100010000000 d
0[
12
1H
17
#950000
02
0H
07
#962500
b101000110000 f
b101000110000 9
b101000110000 l
b101000110000 I"
b101000110000 !
b101000110000 8
b101000110000 g
b10111 >"
b10111 s
b10111 O"
b10111 w"
b10111 J
b10111 v
b10110 ?"
b10110 t
b10110 P"
b10110 !#
b10110 )#
b10110 I
b10110 u
b10 3#
b100011000000 '
b100011000000 :
b100011000000 d
b1 6
b10110 3
12
1H
17
#975000
02
0H
07
#987500
b101001000000 f
b101001000000 9
b101001000000 l
b101001000000 I"
b101001000000 !
b101001000000 8
b101001000000 g
b11 3#
b10111 ?"
b10111 t
b10111 P"
b10111 !#
b10111 )#
b10111 I
b10111 u
b11000 >"
b11000 s
b11000 O"
b11000 w"
b11000 J
b11000 v
b1 6
b10111 3
b100100000000 '
b100100000000 :
b100100000000 d
12
1H
17
#1000000
02
0H
07
#1012500
b101001010000 f
b101001010000 9
b101001010000 l
b101001010000 I"
b101001010000 !
b101001010000 8
b101001010000 g
b11001 >"
b11001 s
b11001 O"
b11001 w"
b11001 J
b11001 v
b11000 ?"
b11000 t
b11000 P"
b11000 !#
b11000 )#
b11000 I
b11000 u
b100 3#
b100101000000 '
b100101000000 :
b100101000000 d
b1 6
b11000 3
12
1H
17
#1025000
02
0H
07
#1037500
1S
b101001100000 f
b101001100000 9
b101001100000 l
b101001100000 I"
b101001100000 !
b101001100000 8
b101001100000 g
b1 3#
0$#
0Q
b10 '#
b1110000101000000 &#
b11001 ?"
b11001 t
b11001 P"
b11001 !#
b11001 )#
b11001 I
b11001 u
b11010 >"
b11010 s
b11010 O"
b11010 w"
b11010 J
b11010 v
b1 6
b11001 3
b100110000000 '
b100110000000 :
b100110000000 d
12
1H
17
#1050000
02
0H
07
#1062500
b101001110000 f
b101001110000 9
b101001110000 l
b101001110000 I"
b101001110000 !
b101001110000 8
b101001110000 g
b11011 >"
b11011 s
b11011 O"
b11011 w"
b11011 J
b11011 v
b11010 ?"
b11010 t
b11010 P"
b11010 !#
b11010 )#
b11010 I
b11010 u
b10 3#
b100111000000 '
b100111000000 :
b100111000000 d
b1 6
b11010 3
12
1H
17
#1075000
02
0H
07
#1087500
b101010000000 f
b101010000000 9
b101010000000 l
b101010000000 I"
b101010000000 !
b101010000000 8
b101010000000 g
b11 3#
b11011 ?"
b11011 t
b11011 P"
b11011 !#
b11011 )#
b11011 I
b11011 u
b11100 >"
b11100 s
b11100 O"
b11100 w"
b11100 J
b11100 v
b1 6
b11011 3
b101000000000 '
b101000000000 :
b101000000000 d
12
1H
17
#1100000
02
0H
07
#1112500
b101010010000 f
b101010010000 9
b101010010000 l
b101010010000 I"
b101010010000 !
b101010010000 8
b101010010000 g
b11101 >"
b11101 s
b11101 O"
b11101 w"
b11101 J
b11101 v
b11100 ?"
b11100 t
b11100 P"
b11100 !#
b11100 )#
b11100 I
b11100 u
b100 3#
b101001000000 '
b101001000000 :
b101001000000 d
b1 6
b11100 3
12
1H
17
#1125000
02
0H
07
