sim/icarus/tb_fog_gyro_signal_modulation.vcd
$date
	Fri Apr 17 13:31:19 2026
$end
$version
	Icarus Verilog
$end
$timescale
	1ps
$end
$scope module tb_fog_gyro_signal_modulation $end
$var wire 1 ! adclk $end
$var wire 12 " adin_mapped [11:0] $end
$var wire 10 # counterN_dbg [9:0] $end
$var wire 9 $ counter_dbg [8:0] $end
$var wire 1 % daclk $end
$var wire 16 & daout [15:0] $end
$var wire 32 ' drotate_dbg [31:0] $end
$var wire 32 ( dvref_dbg [31:0] $end
$var wire 32 ) intsout_dbg [31:0] $end
$var wire 1 * ready $end
$var wire 1 + sdaclk $end
$var wire 1 , sdacs $end
$var wire 1 - sdaout $end
$var wire 1 . sn $end
$var wire 1 / sp $end
$var wire 2 0 state_dbg [1:0] $end
$var wire 12 1 tau_dbg [11:0] $end
$var wire 16 2 vref_word [15:0] $end
$var reg 16 3 ai0_raw [15:0] $end
$var reg 2 4 ai_map_mode [1:0] $end
$var integer 32 5 ao0_change_count [31:0] $end
$var integer 32 6 avg_seg1 [31:0] $end
$var integer 32 7 avg_seg2 [31:0] $end
$var integer 32 8 avg_state0 [31:0] $end
$var integer 32 9 avg_state1 [31:0] $end
$var integer 32 : avg_state2 [31:0] $end
$var integer 32 ; avg_state3 [31:0] $end
$var reg 8 < cfg_FBK [7:0] $end
$var reg 10 = cfg_N [9:0] $end
$var reg 14 > cfg_VDARef [13:0] $end
$var reg 1 ? cfg_apply $end
$var reg 1 @ clk $end
$var integer 32 A cycles_after_ready [31:0] $end
$var reg 16 B daout_prev [15:0] $end
$var integer 32 C drift_code [31:0] $end
$var integer 32 D errors [31:0] $end
$var integer 32 E gyro_code [31:0] $end
$var integer 32 F gyro_segment [31:0] $end
$var integer 32 G idx [31:0] $end
$var integer 32 H log_fd [31:0] $end
$var reg 1 I rst_n $end
$var integer 32 J signed_code [31:0] $end
$var integer 32 K state_seen_mask [31:0] $end
$scope module u_map $end
$var wire 16 L ai_raw [15:0] $end
$var wire 2 M map_mode [1:0] $end
$var reg 12 N adin [11:0] $end
$var reg 16 O mapped_tmp [15:0] $end
$upscope $end
$scope module dut $end
$var wire 8 P FBK [7:0] $end
$var wire 8 Q FBK2 [7:0] $end
$var wire 10 R N [9:0] $end
$var wire 14 S VDARef [13:0] $end
$var wire 1 ! adclk $end
$var wire 12 T adin [11:0] $end
$var wire 8 U cfg_FBK [7:0] $end
$var wire 8 V cfg_FBK2 [7:0] $end
$var wire 10 W cfg_N [9:0] $end
$var wire 14 X cfg_VDARef [13:0] $end
$var wire 1 Y cfg_apply $end
$var wire 1 Z clk $end
$var wire 9 [ counter [8:0] $end
$var wire 10 \ counterN [9:0] $end
$var wire 10 ] counterN_dbg [9:0] $end
$var wire 9 ^ counter_dbg [8:0] $end
$var wire 32 _ dRotateOut [31:0] $end
$var wire 32 ` dRotateOutFBK [31:0] $end
$var wire 32 a dVrefOut [31:0] $end
$var wire 32 b dVrefOutFBK [31:0] $end
$var wire 1 % daclk $end
$var wire 16 c daout [15:0] $end
$var wire 32 d drotate_dbg [31:0] $end
$var wire 32 e dvref_dbg [31:0] $end
$var wire 1 f ena $end
$var wire 1 g intena $end
$var wire 1 h intena0 $end
$var wire 32 i intsout [31:0] $end
$var wire 32 j intsout_dbg [31:0] $end
$var wire 1 k ladena1 $end
$var wire 1 l ladena2 $end
$var wire 16 m pintout [15:0] $end
$var wire 1 n random $end
$var wire 1 * ready $end
$var wire 1 o rst_n $end
$var wire 1 p sdaSend $end
$var wire 1 + sdaclk $end
$var wire 1 , sdacs $end
$var wire 1 - sdaout $end
$var wire 1 . sn $end
$var wire 1 / sp $end
$var wire 2 q state [1:0] $end
$var wire 2 r state_dbg [1:0] $end
$var wire 1 s sys_rst $end
$var wire 12 t tauCounter [11:0] $end
$var wire 12 u tau_dbg [11:0] $end
$var wire 1 v updown $end
$var wire 16 w vref_word [15:0] $end
$var reg 8 x cfg_fbk2_reg [7:0] $end
$var reg 8 y cfg_fbk_reg [7:0] $end
$var reg 10 z cfg_n_reg [9:0] $end
$var reg 2 { cfg_reset_hold [1:0] $end
$var reg 14 | cfg_vdaref_reg [13:0] $end
$scope module asrst_core $end
$var wire 1 Z clk $end
$var wire 1 } rst_n $end
$var reg 1 ~ rst_nr1 $end
$var reg 1 !" rst_nr2 $end
$upscope $end
$scope module gclk $end
$var wire 10 "" N [9:0] $end
$var wire 1 ! adclk $end
$var wire 1 Z clk $end
$var wire 1 f ena $end
$var wire 1 s rst $end
$var reg 9 #" counter [8:0] $end
$var reg 10 $" counterN [9:0] $end
$var reg 1 %" daclk $end
$var reg 1 &" daclk1 $end
$var reg 1 '" daclk2 $end
$var reg 1 (" intena $end
$var reg 1 )" intena0 $end
$var reg 1 *" ladena1 $end
$var reg 1 +" ladena2 $end
$var reg 2 ," state [1:0] $end
$upscope $end
$scope module dmt $end
$var wire 10 -" N [9:0] $end
$var wire 12 ." adin [11:0] $end
$var wire 8 /" cfg_delay1 [7:0] $end
$var wire 8 0" cfg_delay2 [7:0] $end
$var wire 8 1" cfg_delayAD [7:0] $end
$var wire 8 2" cfg_reserveN [7:0] $end
$var wire 12 3" cfg_sft_pd [11:0] $end
$var wire 1 Z clk $end
$var wire 9 4" counter [8:0] $end
$var wire 10 5" counterN [9:0] $end
$var wire 10 6" delay1w [9:0] $end
$var wire 10 7" delay2w [9:0] $end
$var wire 10 8" delayADw [9:0] $end
$var wire 10 9" delaySum [9:0] $end
$var wire 1 f ena $end
$var wire 10 :" halfN [9:0] $end
$var wire 10 ;" reserveNw [9:0] $end
$var wire 1 s rst $end
$var wire 2 <" state [1:0] $end
$var wire 12 =" tauCounter [11:0] $end
$var wire 1 v updown $end
$var reg 32 >" dRotateOut [31:0] $end
$var reg 32 ?" dVrefOut [31:0] $end
$var reg 1 @" random $end
$var reg 1 A" randomPre $end
$upscope $end
$scope module dmk $end
$var wire 8 B" FBK [7:0] $end
$var wire 1 Z clk $end
$var wire 24 C" dRotateOut24 [23:0] $end
$var wire 32 D" dRotateOutFBK [31:0] $end
$var wire 1 h intena0 $end
$var wire 33 E" mult_FBK [32:0] $end
$var wire 1 s rst $end
$var reg 33 F" mult_FBK_R [32:0] $end
$upscope $end
$scope module dmk_vref $end
$var wire 8 G" FBK [7:0] $end
$var wire 1 Z clk $end
$var wire 24 H" dRotateOut24 [23:0] $end
$var wire 32 I" dRotateOutFBK [31:0] $end
$var wire 1 h intena0 $end
$var wire 33 J" mult_FBK [32:0] $end
$var wire 1 s rst $end
$var reg 33 K" mult_FBK_R [32:0] $end
$upscope $end
$scope module itg $end
$var wire 1 Z clk $end
$var wire 32 L" dRotateOut [31:0] $end
$var wire 1 g intena $end
$var wire 1 s rst $end
$var wire 32 M" sum [31:0] $end
$var reg 32 N" intsout [31:0] $end
$upscope $end
$scope module ldp $end
$var wire 16 O" cfg_PI [15:0] $end
$var wire 16 P" cfg_PIb [15:0] $end
$var wire 16 Q" cfg_PIbpPI [15:0] $end
$var wire 12 R" cfg_sft_pd [11:0] $end
$var wire 1 Z clk $end
$var wire 1 k ladena1 $end
$var wire 1 l ladena2 $end
$var wire 32 S" ladin [31:0] $end
$var wire 1 n random $end
$var wire 1 s rst $end
$var wire 2 T" state [1:0] $end
$var reg 16 U" ladout [15:0] $end
$var reg 32 V" ladreg [31:0] $end
$var reg 32 W" ladtmp [31:0] $end
$var reg 12 X" tauCounter [11:0] $end
$var reg 1 Y" updown $end
$upscope $end
$scope module pint $end
$var wire 10 Z" N [9:0] $end
$var wire 14 [" VDARef [13:0] $end
$var wire 1 Z clk $end
$var wire 9 \" counter [8:0] $end
$var wire 32 ]" dVrefOut [31:0] $end
$var wire 1 f ena $end
$var wire 16 ^" pintout [15:0] $end
$var wire 1 s rst $end
$var wire 2 _" state [1:0] $end
$var reg 16 `" pintoutpre [15:0] $end
$var reg 40 a" pintreg [39:0] $end
$var reg 1 b" sdaSend $end
$upscope $end
$scope module sdo $end
$var wire 10 c" N [9:0] $end
$var wire 1 Z clk $end
$var wire 10 d" counterN [9:0] $end
$var wire 16 e" pintout [15:0] $end
$var wire 1 s rst $end
$var wire 1 p sdaSend $end
$var wire 1 - sdaout $end
$var reg 1 f" finish $end
$var reg 1 g" sdaclk $end
$var reg 1 h" sdacs $end
$var reg 16 i" sdaoutbuf [15:0] $end
$var reg 4 j" shout_state [3:0] $end
$upscope $end
$scope module agowc $end
$var wire 10 k" N [9:0] $end
$var wire 1 Z clk $end
$var wire 10 l" counterN [9:0] $end
$var wire 32 m" intsout [31:0] $end
$var wire 4 n" pulseWidthSafe [3:0] $end
$var wire 8 o" pulseWidthTwice [7:0] $end
$var wire 10 p" pulseWindowLimit [9:0] $end
$var wire 32 q" pulse_k [31:0] $end
$var wire 4 r" pulse_width [3:0] $end
$var wire 1 s rst $end
$var wire 40 s" sum1 [39:0] $end
$var wire 40 t" sum2 [39:0] $end
$var reg 40 u" anglereg [39:0] $end
$var reg 8 v" smallCounter [7:0] $end
$var reg 1 w" sn $end
$var reg 1 x" sp $end
$upscope $end
$upscope $end
$upscope $end
$enddefinitions $end
#0
$dumpvars
0x"
0w"
b0 v"
b0 u"
bx t"
bx s"
bz r"
bz q"
bx p"
b0xxxx0 o"
bx n"
b0 m"
b0 l"
bz k"
b0 j"
b0 i"
1h"
0g"
1f"
bx e"
b0 d"
b10101010 c"
xb"
bx a"
bx `"
b0 _"
bx ^"
b0 ]"
b0 \"
b11001111100000 ["
b10101010 Z"
0Y"
b0 X"
b0 W"
b0 V"
b0 U"
b0 T"
b0 S"
b111111111111 R"
b100001000010 Q"
b101101011010110 P"
b101001010010100 O"
b0 N"
b0 M"
b0 L"
b0 K"
b0 J"
b0 I"
b0 H"
b100000 G"
b0 F"
b0 E"
b0 D"
b0 C"
b1100100 B"
0A"
0@"
b0 ?"
b0 >"
b0 ="
b0 <"
b0zzzzzzzz ;"
b1010101 :"
bx 9"
b0zzzzzzzz 8"
b0zzzzzzzz 7"
b0zzzzzzzz 6"
b0 5"
b0 4"
bz 3"
bz 2"
bz 1"
bz 0"
bz /"
b100000000000 ."
b10101010 -"
b0 ,"
0+"
0*"
0)"
0("
0'"
0&"
0%"
b0 $"
b0 #"
b10101010 ""
0!"
0~
0}
b11001111100000 |
b0 {
b10101010 z
b1100100 y
b100000 x
bx w
0v
b0 u
b0 t
0s
b0 r
b0 q
xp
0o
0n
bx m
0l
0k
b0 j
b0 i
0h
0g
1f
b0 e
b0 d
b0 c
b0 b
b0 a
b0 `
b0 _
b0 ^
b0 ]
b0 \
b0 [
0Z
0Y
b11001111100000 X
b10101010 W
bz V
b1100100 U
b100000000000 T
b11001111100000 S
b10101010 R
b100000 Q
b1100100 P
b100000000000 O
b100000000000 N
b1 M
b0 L
b0 K
b0 J
0I
b10000000000000000000000000000011 H
b11 G
b0 F
b0 E
b0 D
b0 C
b0 B
b0 A
0@
0?
b11001111100000 >
b10101010 =
b1100100 <
b0 ;
b0 :
b0 9
b0 8
b0 7
b0 6
b0 5
b1 4
b0 3
bx 2
b0 1
b0 0
0/
0.
0-
1,
0+
0*
b0 )
b0 (
b0 '
b0 &
0%
b0 $
b0 #
b100000000000 "
0!
$end
#12500
b1100111110000000 m
b1100111110000000 ^"
b1100111110000000 e"
b1100111110000000 2
b1100111110000000 w
1b"
1p
b0 `"
b1100111110000000000000000000000000000000 a"
1@
1Z
1!
#25000
0@
0Z
0!
#37500
1@
1Z
1!
#50000
0@
0Z
0!
#62500
1@
1Z
1!
#75000
0@
0Z
0!
#87500
1@
1Z
1!
#100000
0@
0Z
0!
1I
1o
#112500
b1 {
1@
1Z
1!
#125000
0@
0Z
0!
#137500
1}
b10 {
1@
1Z
1!
#150000
0@
0Z
0!
#162500
1~
b11 {
1@
1Z
1!
#175000
0@
0Z
0!
#187500
1!"
1s
1*
1@
1Z
1!
#200000
1'"
0@
0Z
0!
#212500
1%"
1%
b11111010000 N
b11111010000 "
b11111010000 T
b11111010000 ."
b11111010000 O
1&"
b1 $"
b1 \
b1 5"
b1 d"
b1 l"
b1 #
b1 ]
b1 #"
b1 [
b1 4"
b1 \"
b1 $
b1 ^
b1111111101000000 3
b1111111101000000 L
b1 K
b1 A
b11111111111111111111111111010000 J
b11111111111111111111111111010000 C
1@
1Z
1!
#225000
0@
0Z
0!
#237500
b11111010001 N
b11111010001 "
b11111010001 T
b11111010001 ."
b11111010001 O
b10 #"
b10 [
b10 4"
b10 \"
b10 $
b10 ^
b10 $"
b10 \
b10 5"
b10 d"
b10 l"
b10 #
b10 ]
b1 K
b10 A
b1111111101000100 3
b1111111101000100 L
b11111111111111111111111111010001 J
b11111111111111111111111111010001 C
1@
1Z
1!
#250000
0@
0Z
0!
#262500
b11111010010 N
b11111010010 "
b11111010010 T
b11111010010 ."
b11111010010 O
b11 $"
b11 \
b11 5"
b11 d"
b11 l"
b11 #
b11 ]
b11 #"
b11 [
b11 4"
b11 \"
b11 $
b11 ^
b1111111101001000 3
b1111111101001000 L
b1 K
b11 A
b11111111111111111111111111010010 J
b11111111111111111111111111010010 C
1@
1Z
1!
#275000
0@
0Z
0!
#287500
b11111010011 N
b11111010011 "
b11111010011 T
b11111010011 ."
b11111010011 O
b100 #"
b100 [
b100 4"
b100 \"
b100 $
b100 ^
b100 $"
b100 \
b100 5"
b100 d"
b100 l"
b100 #
b100 ]
b1 K
b100 A
b1111111101001100 3
b1111111101001100 L
1?
1Y
b11111111111111111111111111010011 J
b11111111111111111111111111010011 C
1@
1Z
1!
#300000
0@
0Z
0!
#312500
0%"
0%
0&"
0'"
0~
0!"
0s
0*
0}
b11111010100 N
b11111010100 "
b11111010100 T
b11111010100 ."
b11111010100 O
b0 $"
b0 \
b0 5"
b0 d"
b0 l"
b0 #
b0 ]
b0 #"
b0 [
b0 4"
b0 \"
b0 $
b0 ^
b1111111101010000 3
b1111111101010000 L
b1 K
b101 A
b0 {
bz x
bx J"
bz Q
bz G"
b11111111111111111111111111010100 J
b11111111111111111111111111010100 C
0?
0Y
1@
1Z
1!
#325000
0@
0Z
0!
#337500
b100000000000 N
b100000000000 "
b100000000000 T
b100000000000 ."
b100000000000 O
b0 K
b0 A
b0 3
b0 L
b1 {
1@
1Z
1!
#350000
0@
0Z
0!
#362500
1}
b10 {
1@
1Z
1!
#375000
0@
0Z
0!
#387500
1~
b11 {
1@
1Z
1!
#400000
0@
0Z
0!
#412500
1!"
1s
1*
1@
1Z
1!
#425000
1'"
0@
0Z
0!
#437500
1%"
1%
b11111010000 N
b11111010000 "
b11111010000 T
b11111010000 ."
b11111010000 O
1&"
b1 $"
b1 \
b1 5"
b1 d"
b1 l"
b1 #
b1 ]
b1 #"
b1 [
b1 4"
b1 \"
b1 $
b1 ^
b1 K
b1 A
b1111111101000000 3
b1111111101000000 L
b11111111111111111111111111010000 J
b11111111111111111111111111010000 C
1@
1Z
1!
#450000
0@
0Z
0!
#462500
b11111010001 N
b11111010001 "
b11111010001 T
b11111010001 ."
b11111010001 O
b10 #"
b10 [
b10 4"
b10 \"
b10 $
b10 ^
b10 $"
b10 \
b10 5"
b10 d"
b10 l"
b10 #
b10 ]
b1111111101000100 3
b1111111101000100 L
b1 K
b10 A
b11111111111111111111111111010001 J
b11111111111111111111111111010001 C
1@
1Z
1!
#475000
0@
0Z
0!
#487500
b11111010010 N
b11111010010 "
b11111010010 T
b11111010010 ."
b11111010010 O
b11 $"
b11 \
b11 5"
b11 d"
b11 l"
b11 #
b11 ]
b11 #"
b11 [
b11 4"
b11 \"
b11 $
b11 ^
b1 K
b11 A
b1111111101001000 3
b1111111101001000 L
b11111111111111111111111111010010 J
b11111111111111111111111111010010 C
1@
1Z
1!
#500000
0@
0Z
0!
#512500
b11111010011 N
b11111010011 "
b11111010011 T
b11111010011 ."
b11111010011 O
b100 #"
b100 [
b100 4"
b100 \"
b100 $
b100 ^
b100 $"
b100 \
b100 5"
b100 d"
b100 l"
b100 #
b100 ]
b1111111101001100 3
b1111111101001100 L
b1 K
b100 A
b11111111111111111111111111010011 J
b11111111111111111111111111010011 C
1@
1Z
1!
#525000
0@
0Z
0!
#537500
b11111010100 N
b11111010100 "
b11111010100 T
b11111010100 ."
b11111010100 O
b101 $"
b101 \
b101 5"
b101 d"
b101 l"
b101 #
b101 ]
b101 #"
b101 [
b101 4"
b101 \"
b101 $
b101 ^
b1 K
b101 A
b1111111101010000 3
b1111111101010000 L
b11111111111111111111111111010100 J
b11111111111111111111111111010100 C
1@
1Z
1!
#550000
0@
0Z
0!
#562500
b11111010101 N
b11111010101 "
b11111010101 T
b11111010101 ."
b11111010101 O
b110 #"
b110 [
b110 4"
b110 \"
b110 $
b110 ^
b110 $"
b110 \
b110 5"
b110 d"
b110 l"
b110 #
b110 ]
b1111111101010100 3
b1111111101010100 L
b1 K
b110 A
b11111111111111111111111111010101 J
b11111111111111111111111111010101 C
1@
1Z
1!
#575000
0@
0Z
0!
#587500
b11111010110 N
b11111010110 "
b11111010110 T
b11111010110 ."
b11111010110 O
b111 $"
b111 \
b111 5"
b111 d"
b111 l"
b111 #
b111 ]
b111 #"
b111 [
b111 4"
b111 \"
b111 $
b111 ^
b1 K
b111 A
b1111111101011000 3
b1111111101011000 L
b11111111111111111111111111010110 J
b11111111111111111111111111010110 C
1@
1Z
1!
#600000
0@
0Z
0!
#612500
b11111010111 N
b11111010111 "
b11111010111 T
b11111010111 ."
b11111010111 O
b1000 #"
b1000 [
b1000 4"
b1000 \"
b1000 $
b1000 ^
b1000 $"
b1000 \
b1000 5"
b1000 d"
b1000 l"
b1000 #
b1000 ]
b1111111101011100 3
b1111111101011100 L
b1 K
b1000 A
b11111111111111111111111111010111 J
b11111111111111111111111111010111 C
1@
1Z
1!
#625000
0@
0Z
0!
#637500
1-
b11111011000 N
b11111011000 "
b11111011000 T
b11111011000 ."
b11111011000 O
0f"
0h"
0,
b1100111110000000 i"
b1001 $"
b1001 \
b1001 5"
b1001 d"
b1001 l"
b1001 #
b1001 ]
b1001 #"
b1001 [
b1001 4"
b1001 \"
b1001 $
b1001 ^
b1 K
b1001 A
b1111111101100000 3
b1111111101100000 L
b11111111111111111111111111011000 J
b11111111111111111111111111011000 C
1@
1Z
1!
#650000
0@
0Z
0!
#662500
b11111011001 N
b11111011001 "
b11111011001 T
b11111011001 ."
b11111011001 O
b1010 #"
b1010 [
b1010 4"
b1010 \"
b1010 $
b1010 ^
b1010 $"
b1010 \
b1010 5"
b1010 d"
b1010 l"
b1010 #
b1010 ]
b1111111101100100 3
b1111111101100100 L
b1 K
b1010 A
b11111111111111111111111111011001 J
b11111111111111111111111111011001 C
1@
1Z
1!
#675000
0@
0Z
0!
#687500
b11111011010 N
b11111011010 "
b11111011010 T
b11111011010 ."
b11111011010 O
b1011 $"
b1011 \
b1011 5"
b1011 d"
b1011 l"
b1011 #
b1011 ]
b1011 #"
b1011 [
b1011 4"
b1011 \"
b1011 $
b1011 ^
b1 K
b1011 A
b1111111101101000 3
b1111111101101000 L
b11111111111111111111111111011010 J
b11111111111111111111111111011010 C
1@
1Z
1!
#700000
0@
0Z
0!
#712500
b11111011011 N
b11111011011 "
b11111011011 T
b11111011011 ."
b11111011011 O
b1100 #"
b1100 [
b1100 4"
b1100 \"
b1100 $
b1100 ^
b1100 $"
b1100 \
b1100 5"
b1100 d"
b1100 l"
b1100 #
b1100 ]
b1111111101101100 3
b1111111101101100 L
b1 K
b1100 A
b11111111111111111111111111011011 J
b11111111111111111111111111011011 C
1@
1Z
1!
#725000
0@
0Z
0!
#737500
b11111011100 N
b11111011100 "
b11111011100 T
b11111011100 ."
b11111011100 O
1g"
1+
b1101 $"
b1101 \
b1101 5"
b1101 d"
b1101 l"
b1101 #
b1101 ]
b1101 #"
b1101 [
b1101 4"
b1101 \"
b1101 $
b1101 ^
b1 K
b1101 A
b1111111101110000 3
b1111111101110000 L
0b"
0p
b11111111111111111111111111011100 J
b11111111111111111111111111011100 C
1@
1Z
1!
#750000
0@
0Z
0!
#762500
b11111011101 N
b11111011101 "
b11111011101 T
b11111011101 ."
b11111011101 O
b1110 #"
b1110 [
b1110 4"
b1110 \"
b1110 $
b1110 ^
b1110 $"
b1110 \
b1110 5"
b1110 d"
b1110 l"
b1110 #
b1110 ]
b1111111101110100 3
b1111111101110100 L
b1 K
b1110 A
b11111111111111111111111111011101 J
b11111111111111111111111111011101 C
1@
1Z
1!
#775000
0@
0Z
0!
#787500
b11111011110 N
b11111011110 "
b11111011110 T
b11111011110 ."
b11111011110 O
b1111 $"
b1111 \
b1111 5"
b1111 d"
b1111 l"
b1111 #
b1111 ]
b1111 #"
b1111 [
b1111 4"
b1111 \"
b1111 $
b1111 ^
b1 K
b1111 A
b1111111101111000 3
b1111111101111000 L
b11111111111111111111111111011110 J
b11111111111111111111111111011110 C
1@
1Z
1!
#800000
0@
0Z
0!
#812500
b11111011111 N
b11111011111 "
b11111011111 T
b11111011111 ."
b11111011111 O
b10000 #"
b10000 [
b10000 4"
b10000 \"
b10000 $
b10000 ^
b10000 $"
b10000 \
b10000 5"
b10000 d"
b10000 l"
b10000 #
b10000 ]
b1111111101111100 3
b1111111101111100 L
b1 K
b10000 A
b11111111111111111111111111011111 J
b11111111111111111111111111011111 C
1@
1Z
1!
#825000
0@
0Z
0!
#837500
b11111100000 N
b11111100000 "
b11111100000 T
b11111100000 ."
b11111100000 O
0g"
0+
b1 j"
b1001111100000000 i"
b10001 $"
b10001 \
b10001 5"
b10001 d"
b10001 l"
b10001 #
b10001 ]
b10001 #"
b10001 [
b10001 4"
b10001 \"
b10001 $
b10001 ^
b1 K
b10001 A
b1111111110000000 3
b1111111110000000 L
b11111111111111111111111111100000 J
b11111111111111111111111111100000 C
1@
1Z
1!
#850000
0@
0Z
0!
#862500
b11111100001 N
b11111100001 "
b11111100001 T
b11111100001 ."
b11111100001 O
b10010 #"
b10010 [
b10010 4"
b10010 \"
b10010 $
b10010 ^
b10010 $"
b10010 \
b10010 5"
b10010 d"
b10010 l"
b10010 #
b10010 ]
b1111111110000100 3
b1111111110000100 L
b1 K
b10010 A
b11111111111111111111111111100001 J
b11111111111111111111111111100001 C
1@
1Z
1!
#875000
0@
0Z
0!
#887500
b11111100010 N
b11111100010 "
b11111100010 T
b11111100010 ."
b11111100010 O
b10011 $"
b10011 \
b10011 5"
b10011 d"
b10011 l"
b10011 #
b10011 ]
b10011 #"
b10011 [
b10011 4"
b10011 \"
b10011 $
b10011 ^
b1 K
b10011 A
b1111111110001000 3
b1111111110001000 L
b11111111111111111111111111100010 J
b11111111111111111111111111100010 C
1@
1Z
1!
#900000
0@
0Z
0!
#912500
b11111100011 N
b11111100011 "
b11111100011 T
b11111100011 ."
b11111100011 O
b10100 #"
b10100 [
b10100 4"
b10100 \"
b10100 $
b10100 ^
b10100 $"
b10100 \
b10100 5"
b10100 d"
b10100 l"
b10100 #
b10100 ]
b1111111110001100 3
b1111111110001100 L
b1 K
b10100 A
b11111111111111111111111111100011 J
b11111111111111111111111111100011 C
1@
1Z
1!
#925000
0@
0Z
0!
#937500
b11111100100 N
b11111100100 "
b11111100100 T
b11111100100 ."
b11111100100 O
1g"
1+
b10101 $"
b10101 \
b10101 5"
b10101 d"
b10101 l"
b10101 #
b10101 ]
b10101 #"
b10101 [
b10101 4"
b10101 \"
b10101 $
b10101 ^
b1 K
b10101 A
b1111111110010000 3
b1111111110010000 L
b11111111111111111111111111100100 J
b11111111111111111111111111100100 C
1@
1Z
1!
#950000
0@
0Z
0!
#962500
b11111100101 N
b11111100101 "
b11111100101 T
b11111100101 ."
b11111100101 O
b10110 #"
b10110 [
b10110 4"
b10110 \"
b10110 $
b10110 ^
b10110 $"
b10110 \
b10110 5"
b10110 d"
b10110 l"
b10110 #
b10110 ]
b1111111110010100 3
b1111111110010100 L
b1 K
b10110 A
b11111111111111111111111111100101 J
b11111111111111111111111111100101 C
1@
1Z
1!
#975000
0@
0Z
0!
#987500
b11111100110 N
b11111100110 "
b11111100110 T
b11111100110 ."
b11111100110 O
b10111 $"
b10111 \
b10111 5"
b10111 d"
b10111 l"
b10111 #
b10111 ]
b10111 #"
b10111 [
b10111 4"
b10111 \"
b10111 $
b10111 ^
b1 K
b10111 A
b1111111110011000 3
b1111111110011000 L
b11111111111111111111111111100110 J
b11111111111111111111111111100110 C
1@
1Z
1!
#1000000
0@
0Z
0!
#1012500
b11111100111 N
b11111100111 "
b11111100111 T
b11111100111 ."
b11111100111 O
b11000 #"
b11000 [
b11000 4"
b11000 \"
b11000 $
b11000 ^
b11000 $"
b11000 \
b11000 5"
b11000 d"
b11000 l"
b11000 #
b11000 ]
b1111111110011100 3
b1111111110011100 L
b1 K
b11000 A
b11111111111111111111111111100111 J
b11111111111111111111111111100111 C
1@
1Z
1!
#1025000
0@
0Z
0!
#1037500
0-
b11111101000 N
b11111101000 "
b11111101000 T
b11111101000 ."
b11111101000 O
0g"
0+
b10 j"
b11111000000000 i"
b11001 $"
b11001 \
b11001 5"
b11001 d"
b11001 l"
b11001 #
b11001 ]
b11001 #"
b11001 [
b11001 4"
b11001 \"
b11001 $
b11001 ^
b1 K
b11001 A
b1111111110100000 3
b1111111110100000 L
b11111111111111111111111111101000 J
b11111111111111111111111111101000 C
1@
1Z
1!
#1050000
0@
0Z
0!
#1062500
b11111101001 N
b11111101001 "
b11111101001 T
b11111101001 ."
b11111101001 O
b11010 #"
b11010 [
b11010 4"
b11010 \"
b11010 $
b11010 ^
b11010 $"
b11010 \
b11010 5"
b11010 d"
b11010 l"
b11010 #
b11010 ]
b1111111110100100 3
b1111111110100100 L
b1 K
b11010 A
b11111111111111111111111111101001 J
b11111111111111111111111111101001 C
1@
1Z
1!
#1075000
0@
0Z
0!
#1087500
b11111101010 N
b11111101010 "
b11111101010 T
b11111101010 ."
b11111101010 O
b11011 $"
b11011 \
b11011 5"
b11011 d"
b11011 l"
b11011 #
b11011 ]
b11011 #"
b11011 [
b11011 4"
b11011 \"
b11011 $
b11011 ^
b1 K
b11011 A
b1111111110101000 3
b1111111110101000 L
b11111111111111111111111111101010 J
b11111111111111111111111111101010 C
1@
1Z
1!
#1100000
0@
0Z
0!
#1112500
b11111101011 N
b11111101011 "
b11111101011 T
b11111101011 ."
b11111101011 O
b11100 #"
b11100 [
b11100 4"
b11100 \"
b11100 $
b11100 ^
b11100 $"
b11100 \
b11100 5"
b11100 d"
b11100 l"
b11100 #
b11100 ]
b1111111110101100 3
b1111111110101100 L
b1 K
b11100 A
b11111111111111111111111111101011 J
b11111111111111111111111111101011 C
1@
1Z
1!
#1125000
0@
0Z
0!
#1137500
b11111101100 N
b11111101100 "
b11111101100 T
b11111101100 ."
b11111101100 O
1g"
1+
b11101 $"
b11101 \
b11101 5"
b11101 d"
b11101 l"
b11101 #
b11101 ]
b11101 #"
b11101 [
b11101 4"
b11101 \"
b11101 $
b11101 ^
b1 K
b11101 A
b1111111110110000 3
b1111111110110000 L
b11111111111111111111111111101100 J
b11111111111111111111111111101100 C
1@
1Z
1!
#1150000
0@
0Z
0!
#1162500
b11111101101 N
b11111101101 "
b11111101101 T
b11111101101 ."
b11111101101 O
b11110 #"
b11110 [
b11110 4"
b11110 \"
b11110 $
b11110 ^
b11110 $"
b11110 \
b11110 5"
b11110 d"
b11110 l"
b11110 #
b11110 ]
b1111111110110100 3
b1111111110110100 L
b1 K
b11110 A
b11111111111111111111111111101101 J
b11111111111111111111111111101101 C
1@
1Z
1!
#1175000
0@
0Z
0!
#1187500
b11111101110 N
b11111101110 "
b11111101110 T
b11111101110 ."
b11111101110 O
b11111 $"
b11111 \
b11111 5"
b11111 d"
b11111 l"
b11111 #
b11111 ]
b11111 #"
b11111 [
b11111 4"
b11111 \"
b11111 $
b11111 ^
b1 K
b11111 A
b1111111110111000 3
b1111111110111000 L
b11111111111111111111111111101110 J
b11111111111111111111111111101110 C
1@
1Z
1!
#1200000
0@
0Z
0!
#1212500
b11111101111 N
b11111101111 "
b11111101111 T
b11111101111 ."
b11111101111 O
b100000 #"
b100000 [
b100000 4"
b100000 \"
b100000 $
b100000 ^
b100000 $"
b100000 \
b100000 5"
b100000 d"
b100000 l"
b100000 #
b100000 ]
b1111111110111100 3
b1111111110111100 L
b1 K
b100000 A
b11111111111111111111111111101111 J
b11111111111111111111111111101111 C
1@
1Z
1!
#1225000
0@
0Z
0!
#1237500
b11111110000 N
b11111110000 "
b11111110000 T
b11111110000 ."
b11111110000 O
0g"
0+
b11 j"
b111110000000000 i"
b100001 $"
b100001 \
b100001 5"
b100001 d"
b100001 l"
b100001 #
b100001 ]
b100001 #"
b100001 [
b100001 4"
b100001 \"
b100001 $
b100001 ^
b1 K
b100001 A
b1111111111000000 3
b1111111111000000 L
b11111111111111111111111111110000 J
b11111111111111111111111111110000 C
1@
1Z
1!
#1250000
0@
0Z
0!
#1262500
b11111110001 N
b11111110001 "
b11111110001 T
b11111110001 ."
b11111110001 O
b100010 #"
b100010 [
b100010 4"
b100010 \"
b100010 $
b100010 ^
b100010 $"
b100010 \
b100010 5"
b100010 d"
b100010 l"
b100010 #
b100010 ]
b1111111111000100 3
b1111111111000100 L
b1 K
b100010 A
b11111111111111111111111111110001 J
b11111111111111111111111111110001 C
1@
1Z
1!
#1275000
0@
0Z
0!
#1287500
b11111110010 N
b11111110010 "
b11111110010 T
b11111110010 ."
b11111110010 O
b100011 $"
b100011 \
b100011 5"
b100011 d"
b100011 l"
b100011 #
b100011 ]
b100011 #"
b100011 [
b100011 4"
b100011 \"
b100011 $
b100011 ^
b1 K
b100011 A
b1111111111001000 3
b1111111111001000 L
b11111111111111111111111111110010 J
b11111111111111111111111111110010 C
1@
1Z
1!
#1300000
0@
0Z
0!
