sim/icarus/tb_fog_gyro_signal_modulation.vcd
$date
	Tue May 19 15:32:19 2026
$end
$version
	Icarus Verilog
$end
$timescale
	1ps
$end
$scope module tb_fog_gyro_signal_modulation $end
$var wire 1 ! adclk $end
$var wire 12 " adin_mapped [11:0] $end
$var wire 10 # counterN_dbg [9:0] $end
$var wire 9 $ counter_dbg [8:0] $end
$var wire 1 % daclk $end
$var wire 16 & daout [15:0] $end
$var wire 32 ' drotate_dbg [31:0] $end
$var wire 32 ( dvref_dbg [31:0] $end
$var wire 32 ) intsout_dbg [31:0] $end
$var wire 1 * ready $end
$var wire 1 + sdaclk $end
$var wire 1 , sdacs $end
$var wire 1 - sdaout $end
$var wire 1 . sn $end
$var wire 1 / sp $end
$var wire 16 0 sp_sn_value [15:0] $end
$var wire 2 1 state_dbg [1:0] $end
$var wire 12 2 tau_dbg [11:0] $end
$var wire 16 3 vref_word [15:0] $end
$var reg 16 4 ai0_raw [15:0] $end
$var reg 2 5 ai_map_mode [1:0] $end
$var integer 32 6 ao0_change_count [31:0] $end
$var integer 32 7 avg_seg1 [31:0] $end
$var integer 32 8 avg_seg2 [31:0] $end
$var integer 32 9 avg_state0 [31:0] $end
$var integer 32 : avg_state1 [31:0] $end
$var integer 32 ; avg_state2 [31:0] $end
$var integer 32 < avg_state3 [31:0] $end
$var reg 8 = cfg_FBK [7:0] $end
$var reg 8 > cfg_FBK2 [7:0] $end
$var reg 10 ? cfg_N [9:0] $end
$var reg 14 @ cfg_VDARef [13:0] $end
$var reg 1 A cfg_apply $end
$var reg 1 B clk $end
$var integer 32 C cycles_after_ready [31:0] $end
$var reg 16 D daout_prev [15:0] $end
$var integer 32 E drift_code [31:0] $end
$var integer 32 F errors [31:0] $end
$var integer 32 G gyro_code [31:0] $end
$var integer 32 H gyro_segment [31:0] $end
$var integer 32 I idx [31:0] $end
$var integer 32 J log_fd [31:0] $end
$var integer 32 K period_expected [31:0] $end
$var reg 1 L rst_n $end
$var integer 32 M signed_code [31:0] $end
$var integer 32 N state_period_len [31:0] $end
$var integer 32 O state_period_prev [31:0] $end
$var integer 32 P state_seen_mask [31:0] $end
$scope module u_map $end
$var wire 16 Q ai_raw [15:0] $end
$var wire 2 R map_mode [1:0] $end
$var reg 12 S adin [11:0] $end
$var reg 16 T mapped_tmp [15:0] $end
$upscope $end
$scope module dut $end
$var wire 8 U FBK [7:0] $end
$var wire 8 V FBK2 [7:0] $end
$var wire 10 W N [9:0] $end
$var wire 14 X VDARef [13:0] $end
$var wire 1 ! adclk $end
$var wire 12 Y adin [11:0] $end
$var wire 8 Z cfg_FBK [7:0] $end
$var wire 8 [ cfg_FBK2 [7:0] $end
$var wire 10 \ cfg_N [9:0] $end
$var wire 14 ] cfg_VDARef [13:0] $end
$var wire 1 ^ cfg_apply $end
$var wire 1 _ cfg_apply_pulse $end
$var wire 1 ` clk $end
$var wire 32 a closed_loop_drive [31:0] $end
$var wire 9 b counter [8:0] $end
$var wire 10 c counterN [9:0] $end
$var wire 10 d counterN_dbg [9:0] $end
$var wire 9 e counter_dbg [8:0] $end
$var wire 32 f dRotateOut [31:0] $end
$var wire 32 g dRotateOutFBK [31:0] $end
$var wire 32 h dVrefOut [31:0] $end
$var wire 32 i dVrefOutFBK [31:0] $end
$var wire 1 % daclk $end
$var wire 16 j daout [15:0] $end
$var wire 32 k drotate_dbg [31:0] $end
$var wire 32 l dvref_dbg [31:0] $end
$var wire 1 m ena $end
$var wire 32 n first_loop_drive [31:0] $end
$var wire 1 o intena $end
$var wire 1 p intena0 $end
$var wire 32 q intsout [31:0] $end
$var wire 32 r intsout_dbg [31:0] $end
$var wire 1 s ladena1 $end
$var wire 1 t ladena2 $end
$var wire 16 u pintout [15:0] $end
$var wire 1 v random $end
$var wire 1 * ready $end
$var wire 1 w rst_n $end
$var wire 1 x sdaSend $end
$var wire 1 + sdaclk $end
$var wire 1 , sdacs $end
$var wire 1 - sdaout $end
$var wire 32 y second_loop_drive [31:0] $end
$var wire 1 . sn $end
$var wire 1 / sp $end
$var wire 16 z sp_sn_value [15:0] $end
$var wire 2 { state [1:0] $end
$var wire 2 | state_dbg [1:0] $end
$var wire 1 } sys_rst $end
$var wire 12 ~ tauCounter [11:0] $end
$var wire 12 !" tau_dbg [11:0] $end
$var wire 1 "" updown $end
$var wire 16 #" vref_word [15:0] $end
$var reg 1 $" cfg_apply_d $end
$var reg 8 %" cfg_fbk2_reg [7:0] $end
$var reg 8 &" cfg_fbk_reg [7:0] $end
$var reg 10 '" cfg_n_reg [9:0] $end
$var reg 2 (" cfg_reset_hold [1:0] $end
$var reg 14 )" cfg_vdaref_reg [13:0] $end
$scope module asrst_core $end
$var wire 1 ` clk $end
$var wire 1 *" rst_n $end
$var reg 1 +" rst_nr1 $end
$var reg 1 ," rst_nr2 $end
$upscope $end
$scope module gclk $end
$var wire 10 -" N [9:0] $end
$var wire 1 ! adclk $end
$var wire 1 ` clk $end
$var wire 1 m ena $end
$var wire 1 } rst $end
$var reg 9 ." counter [8:0] $end
$var reg 10 /" counterN [9:0] $end
$var reg 1 0" daclk $end
$var reg 1 1" daclk1 $end
$var reg 1 2" daclk2 $end
$var reg 1 3" intena $end
$var reg 1 4" intena0 $end
$var reg 1 5" ladena1 $end
$var reg 1 6" ladena2 $end
$var reg 2 7" state [1:0] $end
$upscope $end
$scope module dmt $end
$var wire 10 8" N [9:0] $end
$var wire 12 9" adin [11:0] $end
$var wire 8 :" cfg_delay1 [7:0] $end
$var wire 8 ;" cfg_delay2 [7:0] $end
$var wire 8 <" cfg_delayAD [7:0] $end
$var wire 8 =" cfg_reserveN [7:0] $end
$var wire 12 >" cfg_sft_pd [11:0] $end
$var wire 1 ` clk $end
$var wire 9 ?" counter [8:0] $end
$var wire 10 @" counterN [9:0] $end
$var wire 10 A" delay1w [9:0] $end
$var wire 10 B" delay2w [9:0] $end
$var wire 10 C" delayADw [9:0] $end
$var wire 10 D" delaySum [9:0] $end
$var wire 1 m ena $end
$var wire 10 E" halfN [9:0] $end
$var wire 10 F" reserveNw [9:0] $end
$var wire 1 } rst $end
$var wire 2 G" state [1:0] $end
$var wire 12 H" tauCounter [11:0] $end
$var wire 1 "" updown $end
$var reg 32 I" dRotateOut [31:0] $end
$var reg 32 J" dVrefOut [31:0] $end
$var reg 1 K" random $end
$var reg 1 L" randomPre $end
$upscope $end
$scope module dmk $end
$var wire 8 M" FBK [7:0] $end
$var wire 1 ` clk $end
$var wire 24 N" dRotateOut24 [23:0] $end
$var wire 32 O" dRotateOutFBK [31:0] $end
$var wire 1 p intena0 $end
$var wire 33 P" mult_FBK [32:0] $end
$var wire 1 } rst $end
$var reg 33 Q" mult_FBK_R [32:0] $end
$upscope $end
$scope module dmk2 $end
$var wire 8 R" FBK [7:0] $end
$var wire 1 ` clk $end
$var wire 24 S" dRotateOut24 [23:0] $end
$var wire 32 T" dRotateOutFBK [31:0] $end
$var wire 1 p intena0 $end
$var wire 33 U" mult_FBK [32:0] $end
$var wire 1 } rst $end
$var reg 33 V" mult_FBK_R [32:0] $end
$upscope $end
$scope module itg $end
$var wire 1 ` clk $end
$var wire 32 W" dRotateOut [31:0] $end
$var wire 1 o intena $end
$var wire 1 } rst $end
$var wire 32 X" sum [31:0] $end
$var reg 32 Y" intsout [31:0] $end
$upscope $end
$scope module ldp $end
$var wire 16 Z" cfg_PI [15:0] $end
$var wire 16 [" cfg_PIb [15:0] $end
$var wire 16 \" cfg_PIbpPI [15:0] $end
$var wire 12 ]" cfg_sft_pd [11:0] $end
$var wire 1 ` clk $end
$var wire 1 s ladena1 $end
$var wire 1 t ladena2 $end
$var wire 32 ^" ladin [31:0] $end
$var wire 1 v random $end
$var wire 1 } rst $end
$var wire 2 _" state [1:0] $end
$var reg 16 `" ladout [15:0] $end
$var reg 32 a" ladreg [31:0] $end
$var reg 32 b" ladtmp [31:0] $end
$var reg 12 c" tauCounter [11:0] $end
$var reg 1 d" updown $end
$upscope $end
$scope module pint $end
$var wire 10 e" N [9:0] $end
$var wire 14 f" VDARef [13:0] $end
$var wire 1 ` clk $end
$var wire 9 g" counter [8:0] $end
$var wire 32 h" dVrefOut [31:0] $end
$var wire 1 m ena $end
$var wire 16 i" pintout [15:0] $end
$var wire 1 } rst $end
$var wire 2 j" state [1:0] $end
$var reg 16 k" pintoutpre [15:0] $end
$var reg 40 l" pintreg [39:0] $end
$var reg 1 m" sdaSend $end
$upscope $end
$scope module sdo $end
$var wire 10 n" N [9:0] $end
$var wire 1 ` clk $end
$var wire 10 o" counterN [9:0] $end
$var wire 16 p" pintout [15:0] $end
$var wire 1 } rst $end
$var wire 1 x sdaSend $end
$var wire 1 - sdaout $end
$var reg 1 q" finish $end
$var reg 1 r" sdaclk $end
$var reg 1 s" sdacs $end
$var reg 16 t" sdaoutbuf [15:0] $end
$var reg 4 u" shout_state [3:0] $end
$upscope $end
$scope module agowc $end
$var wire 10 v" N [9:0] $end
$var wire 1 ` clk $end
$var wire 10 w" counterN [9:0] $end
$var wire 32 x" intsout [31:0] $end
$var wire 4 y" pulseWidthSafe [3:0] $end
$var wire 8 z" pulseWidthTwice [7:0] $end
$var wire 10 {" pulseWindowLimit [9:0] $end
$var wire 32 |" pulse_k [31:0] $end
$var wire 4 }" pulse_width [3:0] $end
$var wire 1 } rst $end
$var wire 40 ~" sum1 [39:0] $end
$var wire 40 !# sum2 [39:0] $end
$var reg 40 "# anglereg [39:0] $end
$var reg 8 ## smallCounter [7:0] $end
$var reg 1 $# sn $end
$var reg 1 %# sp $end
$upscope $end
$upscope $end
$upscope $end
$enddefinitions $end
#0
$dumpvars
0%#
0$#
b0 ##
b0 "#
b1111111111111111110110001111000000000000 !#
b1001110001000000000000 ~"
b10 }"
b1001110001000000000000 |"
b10100110 {"
b100 z"
b10 y"
b0 x"
b0 w"
b10101010 v"
b0 u"
b0 t"
1s"
0r"
1q"
bx p"
b0 o"
b10101010 n"
xm"
bx l"
bx k"
b0 j"
bx i"
b0 h"
b1 g"
b11001111100000 f"
b10101010 e"
0d"
b0 c"
b0 b"
b0 a"
b0 `"
b0 _"
b0 ^"
b111111111111 ]"
b100001000010 \"
b101101011010110 ["
b101001010010100 Z"
b0 Y"
b0 X"
b0 W"
b0 V"
b0 U"
b0 T"
b0 S"
b100000 R"
b0 Q"
b0 P"
b0 O"
b0 N"
b1100100 M"
0L"
0K"
b0 J"
b0 I"
b0 H"
b0 G"
b111 F"
b1010101 E"
b101000 D"
b1000 C"
b10010 B"
b100000 A"
b0 @"
b1 ?"
b111111111111 >"
b111 ="
b1000 <"
b10010 ;"
b100000 :"
b100000000000 9"
b10101010 8"
b0 7"
06"
05"
04"
03"
02"
01"
00"
b0 /"
b1 ."
b10101010 -"
0,"
0+"
0*"
b11001111100000 )"
b0 ("
b10101010 '"
b1100100 &"
b100000 %"
0$"
bx #"
0""
b0 !"
b0 ~
0}
b0 |
b0 {
b0 z
b0 y
xx
0w
0v
bx u
0t
0s
b0 r
b0 q
0p
0o
b0 n
1m
b0 l
b0 k
b0 j
b0 i
b0 h
b0 g
b0 f
b1 e
b0 d
b0 c
b1 b
b0 a
0`
0_
0^
b11001111100000 ]
b10101010 \
b100000 [
b1100100 Z
b100000000000 Y
b11001111100000 X
b10101010 W
b100000 V
b1100100 U
b100000000000 T
b100000000000 S
b1 R
b0 Q
b0 P
b0 O
b0 N
b0 M
0L
b1010101 K
b10000000000000000000000000000011 J
b11 I
b0 H
b0 G
b0 F
b0 E
b0 D
b0 C
0B
0A
b11001111100000 @
b10101010 ?
b100000 >
b1100100 =
b0 <
b0 ;
b0 :
b0 9
b0 8
b0 7
b0 6
b1 5
b0 4
bx 3
b0 2
b0 1
b0 0
0/
0.
0-
1,
0+
0*
b0 )
b0 (
b0 '
b0 &
0%
b1 $
b0 #
b100000000000 "
0!
$end
#12500
b1100111110000000 u
b1100111110000000 i"
b1100111110000000 p"
b1100111110000000 3
b1100111110000000 #"
1m"
1x
b0 k"
b1100111110000000000000000000000000000000 l"
1B
1`
1!
#25000
0B
0`
0!
#37500
1B
1`
1!
#50000
0B
0`
0!
#62500
1B
1`
1!
#75000
0B
0`
0!
#87500
1B
1`
1!
#100000
0B
0`
0!
1L
1w
#112500
b1 ("
1B
1`
1!
#125000
0B
0`
0!
#137500
1*"
b10 ("
1B
1`
1!
#150000
0B
0`
0!
#162500
1+"
b11 ("
1B
1`
1!
#175000
0B
0`
0!
#187500
1,"
1}
1*
1B
1`
1!
#200000
0B
0`
0!
#212500
b11111010000 S
b11111010000 "
b11111010000 Y
b11111010000 9"
b11111010000 T
b1 /"
b1 c
b1 @"
b1 o"
b1 w"
b1 #
b1 d
b10 ."
b10 b
b10 ?"
b10 g"
b10 $
b10 e
b1111111101000000 4
b1111111101000000 Q
b1 N
b1 P
b1 C
b11111111111111111111111111010000 M
b11111111111111111111111111010000 E
1B
1`
1!
#225000
0B
0`
0!
#237500
b11111010001 S
b11111010001 "
b11111010001 Y
b11111010001 9"
b11111010001 T
b11 ."
b11 b
b11 ?"
b11 g"
b11 $
b11 e
b10 /"
b10 c
b10 @"
b10 o"
b10 w"
b10 #
b10 d
b10 N
b1 P
b10 C
b1111111101000100 4
b1111111101000100 Q
b11111111111111111111111111010001 M
b11111111111111111111111111010001 E
1B
1`
1!
#250000
0B
0`
0!
#262500
b11111010010 S
b11111010010 "
b11111010010 Y
b11111010010 9"
b11111010010 T
b11 /"
b11 c
b11 @"
b11 o"
b11 w"
b11 #
b11 d
b100 ."
b100 b
b100 ?"
b100 g"
b100 $
b100 e
b1111111101001000 4
b1111111101001000 Q
b11 N
b1 P
b11 C
b11111111111111111111111111010010 M
b11111111111111111111111111010010 E
1B
1`
1!
#275000
0B
0`
0!
#287500
b11111010011 S
b11111010011 "
b11111010011 Y
b11111010011 9"
b11111010011 T
b101 ."
b101 b
b101 ?"
b101 g"
b101 $
b101 e
b100 /"
b100 c
b100 @"
b100 o"
b100 w"
b100 #
b100 d
b100 N
b1 P
b100 C
b1111111101001100 4
b1111111101001100 Q
1_
1A
1^
b11111111111111111111111111010011 M
b11111111111111111111111111010011 E
1B
1`
1!
#300000
0B
0`
0!
#312500
0+"
0,"
0}
0*
0*"
b11111010100 S
b11111010100 "
b11111010100 Y
b11111010100 9"
b11111010100 T
b0 ##
b0 /"
b0 c
b0 @"
b0 o"
b0 w"
b0 #
b0 d
b1 ."
b1 b
b1 ?"
b1 g"
b1 $
b1 e
b1111111101010000 4
b1111111101010000 Q
b101 N
b1 P
b101 C
b0 ("
1$"
0_
b11111111111111111111111111010100 M
b11111111111111111111111111010100 E
0A
0^
1B
1`
1!
#325000
0B
0`
0!
#337500
b100000000000 S
b100000000000 "
b100000000000 Y
b100000000000 9"
b100000000000 T
b0 N
b0 P
b0 C
b0 4
b0 Q
b1 ("
0$"
1B
1`
1!
#350000
0B
0`
0!
#362500
1*"
b10 ("
1B
1`
1!
#375000
0B
0`
0!
#387500
1+"
b11 ("
1B
1`
1!
#400000
0B
0`
0!
#412500
1,"
1}
1*
1B
1`
1!
#425000
0B
0`
0!
#437500
b11111010000 S
b11111010000 "
b11111010000 Y
b11111010000 9"
b11111010000 T
b1 /"
b1 c
b1 @"
b1 o"
b1 w"
b1 #
b1 d
b10 ."
b10 b
b10 ?"
b10 g"
b10 $
b10 e
b1 N
b1 P
b1 C
b1111111101000000 4
b1111111101000000 Q
b11111111111111111111111111010000 M
b11111111111111111111111111010000 E
1B
1`
1!
#450000
0B
0`
0!
#462500
b11111010001 S
b11111010001 "
b11111010001 Y
b11111010001 9"
b11111010001 T
b11 ."
b11 b
b11 ?"
b11 g"
b11 $
b11 e
b10 /"
b10 c
b10 @"
b10 o"
b10 w"
b10 #
b10 d
b1111111101000100 4
b1111111101000100 Q
b10 N
b1 P
b10 C
b11111111111111111111111111010001 M
b11111111111111111111111111010001 E
1B
1`
1!
#475000
0B
0`
0!
#487500
b11111010010 S
b11111010010 "
b11111010010 Y
b11111010010 9"
b11111010010 T
b11 /"
b11 c
b11 @"
b11 o"
b11 w"
b11 #
b11 d
b100 ."
b100 b
b100 ?"
b100 g"
b100 $
b100 e
b11 N
b1 P
b11 C
b1111111101001000 4
b1111111101001000 Q
b11111111111111111111111111010010 M
b11111111111111111111111111010010 E
1B
1`
1!
#500000
0B
0`
0!
#512500
b11111010011 S
b11111010011 "
b11111010011 Y
b11111010011 9"
b11111010011 T
b101 ."
b101 b
b101 ?"
b101 g"
b101 $
b101 e
b100 /"
b100 c
b100 @"
b100 o"
b100 w"
b100 #
b100 d
b1111111101001100 4
b1111111101001100 Q
b100 N
b1 P
b100 C
b11111111111111111111111111010011 M
b11111111111111111111111111010011 E
1B
1`
1!
#525000
0B
0`
0!
#537500
b11111010100 S
b11111010100 "
b11111010100 Y
b11111010100 9"
b11111010100 T
b1 ##
b101 /"
b101 c
b101 @"
b101 o"
b101 w"
b101 #
b101 d
b110 ."
b110 b
b110 ?"
b110 g"
b110 $
b110 e
b101 N
b1 P
b101 C
b1111111101010000 4
b1111111101010000 Q
b11111111111111111111111111010100 M
b11111111111111111111111111010100 E
1B
1`
1!
#550000
0B
0`
0!
#562500
b11111010101 S
b11111010101 "
b11111010101 Y
b11111010101 9"
b11111010101 T
b111 ."
b111 b
b111 ?"
b111 g"
b111 $
b111 e
b110 /"
b110 c
b110 @"
b110 o"
b110 w"
b110 #
b110 d
b10 ##
b1111111101010100 4
b1111111101010100 Q
b110 N
b1 P
b110 C
b11111111111111111111111111010101 M
b11111111111111111111111111010101 E
1B
1`
1!
#575000
0B
0`
0!
#587500
b11111010110 S
b11111010110 "
b11111010110 Y
b11111010110 9"
b11111010110 T
b11 ##
b111 /"
b111 c
b111 @"
b111 o"
b111 w"
b111 #
b111 d
b1000 ."
b1000 b
b1000 ?"
b1000 g"
b1000 $
b1000 e
b111 N
b1 P
b111 C
b1111111101011000 4
b1111111101011000 Q
b11111111111111111111111111010110 M
b11111111111111111111111111010110 E
1B
1`
1!
#600000
0B
0`
0!
#612500
b11111010111 S
b11111010111 "
b11111010111 Y
b11111010111 9"
b11111010111 T
b1001 ."
b1001 b
b1001 ?"
b1001 g"
b1001 $
b1001 e
b1000 /"
b1000 c
b1000 @"
b1000 o"
b1000 w"
b1000 #
b1000 d
b100 ##
b1111111101011100 4
b1111111101011100 Q
b1000 N
b1 P
b1000 C
b11111111111111111111111111010111 M
b11111111111111111111111111010111 E
1B
1`
1!
#625000
0B
0`
0!
#637500
1-
b11111011000 S
b11111011000 "
b11111011000 Y
b11111011000 9"
b11111011000 T
b1 ##
0q"
0s"
0,
b1100111110000000 t"
b1001 /"
b1001 c
b1001 @"
b1001 o"
b1001 w"
b1001 #
b1001 d
b1010 ."
b1010 b
b1010 ?"
b1010 g"
b1010 $
b1010 e
b1001 N
b1 P
b1001 C
b1111111101100000 4
b1111111101100000 Q
b11111111111111111111111111011000 M
b11111111111111111111111111011000 E
1B
1`
1!
#650000
0B
0`
0!
#662500
b11111011001 S
b11111011001 "
b11111011001 Y
b11111011001 9"
b11111011001 T
b1011 ."
b1011 b
b1011 ?"
b1011 g"
b1011 $
b1011 e
b1010 /"
b1010 c
b1010 @"
b1010 o"
b1010 w"
b1010 #
b1010 d
b10 ##
b1111111101100100 4
b1111111101100100 Q
b1010 N
b1 P
b1010 C
b11111111111111111111111111011001 M
b11111111111111111111111111011001 E
1B
1`
1!
#675000
0B
0`
0!
#687500
b11111011010 S
b11111011010 "
b11111011010 Y
b11111011010 9"
b11111011010 T
b11 ##
b1011 /"
b1011 c
b1011 @"
b1011 o"
b1011 w"
b1011 #
b1011 d
b1100 ."
b1100 b
b1100 ?"
b1100 g"
b1100 $
b1100 e
b1011 N
b1 P
b1011 C
b1111111101101000 4
b1111111101101000 Q
b11111111111111111111111111011010 M
b11111111111111111111111111011010 E
1B
1`
1!
#700000
0B
0`
0!
#712500
b11111011011 S
b11111011011 "
b11111011011 Y
b11111011011 9"
b11111011011 T
b1101 ."
b1101 b
b1101 ?"
b1101 g"
b1101 $
b1101 e
b1100 /"
b1100 c
b1100 @"
b1100 o"
b1100 w"
b1100 #
b1100 d
b100 ##
0m"
0x
b1111111101101100 4
b1111111101101100 Q
b1100 N
b1 P
b1100 C
b11111111111111111111111111011011 M
b11111111111111111111111111011011 E
1B
1`
1!
#725000
0B
0`
0!
#737500
b11111011100 S
b11111011100 "
b11111011100 Y
b11111011100 9"
b11111011100 T
b1 ##
1r"
1+
b1101 /"
b1101 c
b1101 @"
b1101 o"
b1101 w"
b1101 #
b1101 d
b1110 ."
b1110 b
b1110 ?"
b1110 g"
b1110 $
b1110 e
b1101 N
b1 P
b1101 C
b1111111101110000 4
b1111111101110000 Q
b11111111111111111111111111011100 M
b11111111111111111111111111011100 E
1B
1`
1!
#750000
0B
0`
0!
#762500
b11111011101 S
b11111011101 "
b11111011101 Y
b11111011101 9"
b11111011101 T
b1111 ."
b1111 b
b1111 ?"
b1111 g"
b1111 $
b1111 e
b1110 /"
b1110 c
b1110 @"
b1110 o"
b1110 w"
b1110 #
b1110 d
b10 ##
b1111111101110100 4
b1111111101110100 Q
b1110 N
b1 P
b1110 C
b11111111111111111111111111011101 M
b11111111111111111111111111011101 E
1B
1`
1!
#775000
0B
0`
0!
#787500
b11111011110 S
b11111011110 "
b11111011110 Y
b11111011110 9"
b11111011110 T
b11 ##
b1111 /"
b1111 c
b1111 @"
b1111 o"
b1111 w"
b1111 #
b1111 d
b10000 ."
b10000 b
b10000 ?"
b10000 g"
b10000 $
b10000 e
b1111 N
b1 P
b1111 C
b1111111101111000 4
b1111111101111000 Q
b11111111111111111111111111011110 M
b11111111111111111111111111011110 E
1B
1`
1!
#800000
0B
0`
0!
#812500
b11111011111 S
b11111011111 "
b11111011111 Y
b11111011111 9"
b11111011111 T
b10001 ."
b10001 b
b10001 ?"
b10001 g"
b10001 $
b10001 e
b10000 /"
b10000 c
b10000 @"
b10000 o"
b10000 w"
b10000 #
b10000 d
b100 ##
b1111111101111100 4
b1111111101111100 Q
b10000 N
b1 P
b10000 C
b11111111111111111111111111011111 M
b11111111111111111111111111011111 E
1B
1`
1!
#825000
0B
0`
0!
#837500
b11111100000 S
b11111100000 "
b11111100000 Y
b11111100000 9"
b11111100000 T
b1 ##
0r"
0+
b1 u"
b1001111100000000 t"
b10001 /"
b10001 c
b10001 @"
b10001 o"
b10001 w"
b10001 #
b10001 d
b10010 ."
b10010 b
b10010 ?"
b10010 g"
b10010 $
b10010 e
b10001 N
b1 P
b10001 C
b1111111110000000 4
b1111111110000000 Q
b11111111111111111111111111100000 M
b11111111111111111111111111100000 E
1B
1`
1!
#850000
0B
0`
0!
#862500
b11111100001 S
b11111100001 "
b11111100001 Y
b11111100001 9"
b11111100001 T
b10011 ."
b10011 b
b10011 ?"
b10011 g"
b10011 $
b10011 e
b10010 /"
b10010 c
b10010 @"
b10010 o"
b10010 w"
b10010 #
b10010 d
b10 ##
b1111111110000100 4
b1111111110000100 Q
b10010 N
b1 P
b10010 C
b11111111111111111111111111100001 M
b11111111111111111111111111100001 E
1B
1`
1!
#875000
0B
0`
0!
#887500
b11111100010 S
b11111100010 "
b11111100010 Y
b11111100010 9"
b11111100010 T
b11 ##
b10011 /"
b10011 c
b10011 @"
b10011 o"
b10011 w"
b10011 #
b10011 d
b10100 ."
b10100 b
b10100 ?"
b10100 g"
b10100 $
b10100 e
b10011 N
b1 P
b10011 C
b1111111110001000 4
b1111111110001000 Q
b11111111111111111111111111100010 M
b11111111111111111111111111100010 E
1B
1`
1!
#900000
0B
0`
0!
#912500
b11111100011 S
b11111100011 "
b11111100011 Y
b11111100011 9"
b11111100011 T
b10101 ."
b10101 b
b10101 ?"
b10101 g"
b10101 $
b10101 e
b10100 /"
b10100 c
b10100 @"
b10100 o"
b10100 w"
b10100 #
b10100 d
b100 ##
b1111111110001100 4
b1111111110001100 Q
b10100 N
b1 P
b10100 C
b11111111111111111111111111100011 M
b11111111111111111111111111100011 E
1B
1`
1!
#925000
0B
0`
0!
#937500
b11111100100 S
b11111100100 "
b11111100100 Y
b11111100100 9"
b11111100100 T
b1 ##
1r"
1+
b10101 /"
b10101 c
b10101 @"
b10101 o"
b10101 w"
b10101 #
b10101 d
b10110 ."
b10110 b
b10110 ?"
b10110 g"
b10110 $
b10110 e
b10101 N
b1 P
b10101 C
b1111111110010000 4
b1111111110010000 Q
b11111111111111111111111111100100 M
b11111111111111111111111111100100 E
1B
1`
1!
#950000
0B
0`
0!
#962500
b11111100101 S
b11111100101 "
b11111100101 Y
b11111100101 9"
b11111100101 T
b10111 ."
b10111 b
b10111 ?"
b10111 g"
b10111 $
b10111 e
b10110 /"
b10110 c
b10110 @"
b10110 o"
b10110 w"
b10110 #
b10110 d
b10 ##
b1111111110010100 4
b1111111110010100 Q
b10110 N
b1 P
b10110 C
b11111111111111111111111111100101 M
b11111111111111111111111111100101 E
1B
1`
1!
#975000
0B
0`
0!
#987500
b11111100110 S
b11111100110 "
b11111100110 Y
b11111100110 9"
b11111100110 T
b11 ##
b10111 /"
b10111 c
b10111 @"
b10111 o"
b10111 w"
b10111 #
b10111 d
b11000 ."
b11000 b
b11000 ?"
b11000 g"
b11000 $
b11000 e
b10111 N
b1 P
b10111 C
b1111111110011000 4
b1111111110011000 Q
b11111111111111111111111111100110 M
b11111111111111111111111111100110 E
1B
1`
1!
#1000000
0B
0`
0!
#1012500
b11111100111 S
b11111100111 "
b11111100111 Y
b11111100111 9"
b11111100111 T
b11001 ."
b11001 b
b11001 ?"
b11001 g"
b11001 $
b11001 e
b11000 /"
b11000 c
b11000 @"
b11000 o"
b11000 w"
b11000 #
b11000 d
b100 ##
b1111111110011100 4
b1111111110011100 Q
b11000 N
b1 P
b11000 C
b11111111111111111111111111100111 M
b11111111111111111111111111100111 E
1B
1`
1!
#1025000
0B
0`
0!
#1037500
0-
b11111101000 S
b11111101000 "
b11111101000 Y
b11111101000 9"
b11111101000 T
b1 ##
0r"
0+
b10 u"
b11111000000000 t"
b11001 /"
b11001 c
b11001 @"
b11001 o"
b11001 w"
b11001 #
b11001 d
b11010 ."
b11010 b
b11010 ?"
b11010 g"
b11010 $
b11010 e
b11001 N
b1 P
b11001 C
b1111111110100000 4
b1111111110100000 Q
b11111111111111111111111111101000 M
b11111111111111111111111111101000 E
1B
1`
1!
#1050000
0B
0`
0!
#1062500
b11111101001 S
b11111101001 "
b11111101001 Y
b11111101001 9"
b11111101001 T
b11011 ."
b11011 b
b11011 ?"
b11011 g"
b11011 $
b11011 e
b11010 /"
b11010 c
b11010 @"
b11010 o"
b11010 w"
b11010 #
b11010 d
b10 ##
b1111111110100100 4
b1111111110100100 Q
b11010 N
b1 P
b11010 C
b11111111111111111111111111101001 M
b11111111111111111111111111101001 E
1B
1`
1!
#1075000
0B
0`
0!
#1087500
b11111101010 S
b11111101010 "
b11111101010 Y
b11111101010 9"
b11111101010 T
b11 ##
b11011 /"
b11011 c
b11011 @"
b11011 o"
b11011 w"
b11011 #
b11011 d
b11100 ."
b11100 b
b11100 ?"
b11100 g"
b11100 $
b11100 e
b11011 N
b1 P
b11011 C
b1111111110101000 4
b1111111110101000 Q
b11111111111111111111111111101010 M
b11111111111111111111111111101010 E
1B
1`
1!
#1100000
0B
0`
0!
#1112500
b11111101011 S
b11111101011 "
b11111101011 Y
b11111101011 9"
b11111101011 T
b11101 ."
b11101 b
b11101 ?"
b11101 g"
b11101 $
b11101 e
b11100 /"
b11100 c
b11100 @"
b11100 o"
b11100 w"
b11100 #
b11100 d
b100 ##
b1111111110101100 4
b1111111110101100 Q
b11100 N
b1 P
b11100 C
b11111111111111111111111111101011 M
b11111111111111111111111111101011 E
1B
1`
1!
#1125000
0B
0`
0!
#1137500
b11111101100 S
b11111101100 "
b11111101100 Y
b11111101100 9"
b11111101100 T
b1 ##
1r"
1+
b11101 /"
b11101 c
b11101 @"
b11101 o"
b11101 w"
b11101 #
b11101 d
b11110 ."
b11110 b
b11110 ?"
b11110 g"
b11110 $
b11110 e
b11101 N
b1 P
b11101 C
b1111111110110000 4
b1111111110110000 Q
b11111111111111111111111111101100 M
b11111111111111111111111111101100 E
1B
1`
1!
#1150000
0B
0`
0!
#1162500
b11111101101 S
b11111101101 "
b11111101101 Y
b11111101101 9"
b11111101101 T
b11111 ."
b11111 b
b11111 ?"
b11111 g"
b11111 $
b11111 e
b11110 /"
b11110 c
b11110 @"
b11110 o"
b11110 w"
b11110 #
b11110 d
b10 ##
b1111111110110100 4
b1111111110110100 Q
b11110 N
b1 P
b11110 C
b11111111111111111111111111101101 M
b11111111111111111111111111101101 E
1B
1`
1!
#1175000
0B
0`
0!
#1187500
b11111101110 S
b11111101110 "
b11111101110 Y
b11111101110 9"
b11111101110 T
b11 ##
b11111 /"
b11111 c
b11111 @"
b11111 o"
b11111 w"
b11111 #
b11111 d
b100000 ."
b100000 b
b100000 ?"
b100000 g"
b100000 $
b100000 e
b11111 N
b1 P
b11111 C
b1111111110111000 4
b1111111110111000 Q
b11111111111111111111111111101110 M
b11111111111111111111111111101110 E
1B
1`
1!
#1200000
0B
0`
0!
#1212500
b11111101111 S
b11111101111 "
b11111101111 Y
b11111101111 9"
b11111101111 T
b100001 ."
b100001 b
b100001 ?"
b100001 g"
b100001 $
b100001 e
b100000 /"
b100000 c
b100000 @"
b100000 o"
b100000 w"
b100000 #
b100000 d
b100 ##
b1111111110111100 4
b1111111110111100 Q
b100000 N
b1 P
b100000 C
b11111111111111111111111111101111 M
b11111111111111111111111111101111 E
1B
1`
1!
#1225000
0B
0`
0!
